"(PDH-TSV 4.0) (Rom, sommertid)(-120)"	"\\AM-WORK\Netværkskort(Broadcom 802.11 netværksadapter)\Afsendte byte pr. sekund"	"\\AM-WORK\Netværkskort(Broadcom 802.11 netværksadapter)\Afsendte pakker pr. sekund"	"\\AM-WORK\Netværkskort(Broadcom 802.11 netværksadapter)\Modtagne byte pr. sekund"	"\\AM-WORK\Netværkskort(Broadcom 802.11 netværksadapter)\Modtagne pakker pr. sekund"	"\\AM-WORK\Proces(_Total)\% Processortid"	"\\AM-WORK\Proces(WaterGun)\% Processortid"	"\\AM-WORK\Proces(_Total)\Antal tråde"	"\\AM-WORK\Proces(WaterGun)\Antal tråde"	"\\AM-WORK\Proces(WaterGun)\Private byte"	"\\AM-WORK\Proces(_Total)\Private byte"	"\\AM-WORK\Proces(Gang Garrison 2)\% Processortid"	"\\AM-WORK\Proces(Gang Garrison 2)\Private byte"	"\\AM-WORK\Proces(Gang Garrison 2)\Antal tråde"
"06/09/2016 14:04:50.435"	" "	" "	" "	" "	" "	" "	"2059"	"12"	"45740032"	"2591272960"	" "	" "	" "
"06/09/2016 14:04:51.436"	"220707.22683535825"	"89.308026462617562"	"212480.85379108254"	"204.70603818397734"	"801.24039916435686"	"340.25277224787749"	"2066"	"14"	"47235072"	"2593382400"	" "	" "	" "
"06/09/2016 14:04:52.421"	"256864.00796528294"	"92.384708849473739"	"232127.24075840076"	"230.4541638333026"	"797.81545629486357"	"352.11735844425391"	"2089"	"14"	"50012160"	"2612420608"	" "	" "	" "
"06/09/2016 14:04:53.441"	"206499.26743202974"	"68.643828303117033"	"207687.78628779229"	"205.9314849093511"	"795.23237627765491"	"321.77032566147886"	"2081"	"12"	"49754112"	"2608611328"	" "	" "	" "
"06/09/2016 14:04:54.428"	"213505.13430558017"	"72.980040021277134"	"214459.95649585855"	"210.83122672813394"	"793.46138657697225"	"337.33987093991033"	"2081"	"12"	"45916160"	"2604855296"	" "	" "	" "
"06/09/2016 14:04:55.430"	"210027.18708881468"	"71.809622147906097"	"211020.55352852741"	"207.4500195383954"	"796.32318231862587"	"325.69773993070999"	"2079"	"12"	"48873472"	"2607722496"	" "	" "	" "
"06/09/2016 14:04:56.433"	"210927.27014098212"	"90.752719042039189"	"211064.89514348542"	"208.43206900863944"	"810.30763167174894"	"328.79790438988272"	"2079"	"12"	"46567424"	"2605301760"	" "	" "	" "
"06/09/2016 14:04:57.418"	"205607.23197530364"	"80.203490613607357"	"214985.96420680371"	"214.21438632241964"	"793.13400264198651"	"331.5300131043503"	"2079"	"12"	"59895808"	"2618630144"	" "	" "	" "
"06/09/2016 14:04:58.420"	"219209.03119175989"	"86.841153470621151"	"210475.00713580663"	"195.6421388533534"	"782.94393507546908"	"336.88424298067991"	"2072"	"12"	"62205952"	"2619658240"	" "	" "	" "
"06/09/2016 14:04:59.422"	"202965.04949696147"	"90.808084330036749"	"211073.91206032276"	"206.56344457491875"	"798.31101338897292"	"328.99145278334629"	"2072"	"12"	"59867136"	"2617180160"	" "	" "	" "
"06/09/2016 14:05:00.425"	"210843.72923054191"	"77.792545528425251"	"211543.86214029774"	"209.44146873037568"	"794.75982619855517"	"319.46228307981136"	"2069"	"12"	"61714432"	"2617552896"	" "	" "	" "
"06/09/2016 14:05:01.427"	"209698.81732011103"	"67.818508407531397"	"219077.71810047023"	"209.43951125855284"	"796.30118318574932"	"338.15529696929076"	"2069"	"12"	"59805696"	"2615640064"	" "	" "	" "
"06/09/2016 14:05:02.430"	"209968.99557730285"	"70.8134954351018"	"210784.84683456924"	"203.46412772902491"	"804.13929517801671"	"341.29167760462337"	"2069"	"12"	"62439424"	"2619518976"	" "	" "	" "
"06/09/2016 14:05:03.428"	"211540.23271844594"	"83.145519323914442"	"218786.91569180976"	"189.331363279757"	"792.03625019058961"	"319.31896252743138"	"2069"	"12"	"46227456"	"2603307008"	" "	" "	" "
"06/09/2016 14:05:04.431"	"209984.35778505745"	"73.808210117770642"	"202729.21021212958"	"201.47646545661715"	"804.12999168990871"	"339.72933757441882"	"2069"	"12"	"48476160"	"2605559808"	" "	" "	" "
"06/09/2016 14:05:05.433"	"210255.24891141456"	"78.795847552190466"	"218497.89301484876"	"199.48315835997585"	"797.94608677264728"	"333.51652845575489"	"2066"	"12"	"46456832"	"2603544576"	" "	" "	" "
"06/09/2016 14:05:06.436"	"210109.75270358875"	"79.799372460273545"	"219394.40968934156"	"214.46081348698516"	"797.98277933212626"	"324.1805041036763"	"2066"	"12"	"49295360"	"2606383104"	" "	" "	" "
"06/09/2016 14:05:07.438"	"209692.5570387161"	"70.826577498971687"	"210883.64060961429"	"204.49927306041121"	"796.50072882778238"	"338.24003552960619"	"2066"	"12"	"46551040"	"2602319872"	" "	" "	" "
"06/09/2016 14:05:08.441"	"202640.94994338753"	"86.770037332165472"	"201940.80550422455"	"188.50042592849741"	"785.40861394279307"	"331.92864041629946"	"2066"	"12"	"48611328"	"2603765760"	" "	" "	" "
"06/09/2016 14:05:09.428"	"222931.02093628517"	"87.124377655123396"	"214941.9181201421"	"213.75864750268647"	"797.81106982867982"	"330.83832062340093"	"2066"	"12"	"46190592"	"2601000960"	" "	" "	" "
"06/09/2016 14:05:10.430"	"211005.30468187935"	"87.793339126842227"	"210843.68512575948"	"203.52092252131607"	"794.98873023976012"	"341.37751357354404"	"2066"	"12"	"52756480"	"2607816704"	" "	" "	" "
"06/09/2016 14:05:11.433"	"209917.79096487744"	"70.811698998965667"	"210719.65865495024"	"202.46161826464831"	"807.26545391582715"	"344.41248130385674"	"2056"	"12"	"51576832"	"2577764352"	" "	" "	" "
"06/09/2016 14:05:12.420"	"205538.94619477636"	"82.072104280797447"	"214319.64811696639"	"209.73982205092682"	"788.38096919009706"	"330.86671196933793"	"2057"	"12"	"47923200"	"2573246464"	" "	" "	" "
"06/09/2016 14:05:13.421"	"218276.00611564922"	"69.90136710873368"	"202789.85752818862"	"198.71960078054292"	"795.7533061396656"	"335.46462905887864"	"2057"	"12"	"48037888"	"2575380480"	" "	" "	" "
"06/09/2016 14:05:14.424"	"200856.59804667244"	"64.825909516741689"	"218417.43827391532"	"198.46701528971687"	"790.07696739699236"	"322.57580325676025"	"2057"	"12"	"49111040"	"2576502784"	" "	" "	" "
"06/09/2016 14:05:15.427"	"218179.06392461967"	"75.803026607440117"	"219094.68469337796"	"209.45573141529505"	"796.37028202192755"	"311.69091272873874"	"2057"	"12"	"47177728"	"2574565376"	" "	" "	" "
"06/09/2016 14:05:16.429"	"210561.03601143311"	"82.821046692899827"	"202458.54325063375"	"195.57741146757067"	"793.58328202845996"	"330.52977561892635"	"2057"	"12"	"48533504"	"2575876096"	" "	" "	" "
"06/09/2016 14:05:17.431"	"210143.51180926064"	"69.824730630453388"	"210176.42918227214"	"189.52426885408775"	"808.90916028059632"	"333.53865183053495"	"2057"	"12"	"47009792"	"2574352384"	" "	" "	" "
"06/09/2016 14:05:18.418"	"213992.52844055198"	"80.040384955346099"	"214816.23518699117"	"214.79191912067563"	"797.88462801048206"	"341.95055486163517"	"2059"	"12"	"53755904"	"2585350144"	" "	" "	" "
"06/09/2016 14:05:19.421"	"210303.96110252105"	"75.801744542629493"	"213748.95091370845"	"204.46523198998744"	"796.36360988713193"	"333.50648241848575"	"2059"	"12"	"51793920"	"2585415680"	" "	" "	" "
"06/09/2016 14:05:20.423"	"201949.52395517277"	"74.804985759487337"	"207231.75334960269"	"192.49816335441406"	"796.36210072928941"	"333.50585040326405"	"2061"	"12"	"49102848"	"2582843392"	" "	" "	" "
"06/09/2016 14:05:21.426"	"218902.37472176837"	"80.78866546286929"	"210848.44294877246"	"204.46514098627412"	"796.3550315923859"	"316.36021802985192"	"2060"	"12"	"53100544"	"2586832896"	" "	" "	" "
"06/09/2016 14:05:22.429"	"201144.13684682324"	"58.84732217608606"	"209835.58710855906"	"187.51350117125727"	"796.35391960474612"	"324.1518889976266"	"2060"	"12"	"49430528"	"2582822912"	" "	" "	" "
"06/09/2016 14:05:23.429"	"226944.27723359861"	"68.994612001649188"	"213751.30751258761"	"195.9846949612064"	"799.92760655160714"	"332.78238319432091"	"2059"	"12"	"52514816"	"2585853952"	" "	" "	" "
"06/09/2016 14:05:24.431"	"243290.30448815809"	"75.799450429624457"	"208121.35421119205"	"207.45112749160378"	"802.57192041777876"	"356.87178597217735"	"2055"	"12"	"50544640"	"2583621632"	" "	" "	" "
"06/09/2016 14:05:25.418"	"203940.04686550537"	"54.711470781851325"	"214489.22897255418"	"212.76683081831072"	"796.2928908997053"	"326.11597519948168"	"2055"	"12"	"46751744"	"2579820544"	" "	" "	" "
"06/09/2016 14:05:26.421"	"209961.07592605366"	"64.830814526663886"	"210873.69431515978"	"201.47422360594007"	"797.91910676147677"	"333.50525165421095"	"2055"	"12"	"49049600"	"2582118400"	" "	" "	" "
"06/09/2016 14:05:27.423"	"210672.27599859843"	"76.823241720104377"	"219842.17748755272"	"217.49956746730848"	"796.59823433673989"	"335.16364067005691"	"2055"	"12"	"47329280"	"2580414464"	" "	" "	" "
"06/09/2016 14:05:28.426"	"209480.31722510586"	"65.822879667388676"	"201872.78804172948"	"187.49547541619805"	"797.85067007987186"	"328.80174098994718"	"2056"	"12"	"48640000"	"2583834624"	" "	" "	" "
"06/09/2016 14:05:29.428"	"209802.4413213965"	"70.827302670384057"	"219189.55284433049"	"210.48677272466247"	"798.05904060733883"	"339.79857588359351"	"2056"	"12"	"47181824"	"2582376448"	" "	" "	" "
"06/09/2016 14:05:30.431"	"209325.78304473261"	"59.842417142821539"	"210696.17439730323"	"200.47209742845214"	"808.80193935931572"	"335.05282651686485"	"2056"	"12"	"49688576"	"2584932352"	" "	" "	" "
"06/09/2016 14:05:31.418"	"214020.15153417349"	"83.103601823117117"	"214062.71679364386"	"204.71862888133728"	"798.13684960841624"	"319.88818178750023"	"2055"	"12"	"47771648"	"2582958080"	" "	" "	" "
"06/09/2016 14:05:32.420"	"209005.7129058085"	"64.861502104909732"	"210710.07360727291"	"200.57172189364394"	"796.70466734851698"	"330.53109486866066"	"2055"	"12"	"49127424"	"2584272896"	" "	" "	" "
"06/09/2016 14:05:33.423"	"210464.85515968743"	"68.820433743820004"	"210730.16291875782"	"202.47171086949942"	"797.91417256150692"	"331.94476319453321"	"2056"	"12"	"47210496"	"2584465408"	" "	" "	" "
"06/09/2016 14:05:34.425"	"209751.17958191843"	"68.81534938783139"	"210953.95221034923"	"206.44604816349417"	"793.18486092904391"	"325.68887216929306"	"2056"	"12"	"49586176"	"2586624000"	" "	" "	" "
"06/09/2016 14:05:35.428"	"210147.33481756819"	"82.777184083839913"	"194354.84433603077"	"191.48457041081039"	"797.89960906908652"	"286.74517200920297"	"2056"	"12"	"46276608"	"2583764992"	" "	" "	" "
"06/09/2016 14:05:36.431"	"210404.40663936062"	"93.760882067023005"	"211945.47645631328"	"219.44036228452191"	"797.92308599945204"	"316.36403605056398"	"2056"	"12"	"48848896"	"2584985600"	" "	" "	" "
"06/09/2016 14:05:37.433"	"209222.68108377076"	"75.800260100711142"	"211622.35773906435"	"217.42706186782934"	"808.8040367119612"	"317.91141327406569"	"2056"	"12"	"47214592"	"2583351296"	" "	" "	" "
"06/09/2016 14:05:38.419"	"204693.32404139533"	"62.913871160849247"	"214455.12146990129"	"207.00693091634267"	"797.51777713105378"	"328.20314088693465"	"2056"	"12"	"61034496"	"2597232640"	" "	" "	" "
"06/09/2016 14:05:39.420"	"218067.78485643267"	"66.891346042893986"	"211776.00481520404"	"216.64809091504469"	"798.70083322467678"	"332.2720263219847"	"2056"	"12"	"63148032"	"2599317504"	" "	" "	" "
"06/09/2016 14:05:40.423"	"201482.54368788563"	"65.834189234122732"	"211048.4508811468"	"207.47744485905346"	"797.99448027218"	"327.30242354913634"	"2056"	"12"	"60796928"	"2596966400"	" "	" "	" "
"06/09/2016 14:05:41.425"	"215380.14466280511"	"74.805551772299637"	"211151.13746927775"	"209.45554496243898"	"794.80191815687147"	"316.3623321291077"	"2056"	"12"	"63238144"	"2599432192"	" "	" "	" "
"06/09/2016 14:05:42.428"	"204803.80621724171"	"78.774529875661401"	"211215.45466155186"	"211.39494093215464"	"796.15976652395159"	"325.63090255089213"	"2056"	"12"	"47751168"	"2583932928"	" "	" "	" "
"06/09/2016 14:05:43.430"	"210140.54108617298"	"71.848378595735923"	"211014.69635908777"	"205.56619431557777"	"806.12713000928954"	"319.64421982960226"	"2059"	"12"	"62689280"	"2605211648"	" "	" "	" "
"06/09/2016 14:05:44.428"	"211087.45043650753"	"69.143290197574274"	"213089.59962222859"	"219.45479062708355"	"790.6965534974579"	"308.44994265148358"	"2060"	"12"	"47177728"	"2589978624"	" "	" "	" "
"06/09/2016 14:05:45.431"	"210465.07013449896"	"81.78591078889238"	"210668.53752231525"	"201.47260950434466"	"805.70557990853922"	"316.36021802985192"	"2060"	"12"	"49156096"	"2593271808"	" "	" "	" "
"06/09/2016 14:05:46.433"	"210404.46853668793"	"82.780647171268285"	"210781.46955633539"	"203.46086774624976"	"797.91767424552143"	"338.17995177984017"	"2060"	"12"	"47759360"	"2590560256"	" "	" "	" "
"06/09/2016 14:05:47.436"	"210152.39194523811"	"72.813038046069053"	"210559.34700719421"	"199.48777546868234"	"796.36392760530134"	"322.59752057592436"	"2060"	"12"	"49676288"	"2593792000"	" "	" "	" "
"06/09/2016 14:05:48.439"	"209923.95729589954"	"68.819024750646477"	"210486.47801994829"	"198.47805688954563"	"796.34335587705016"	"321.03078534378142"	"2060"	"12"	"47845376"	"2591887360"	" "	" "	" "
"06/09/2016 14:05:49.441"	"209874.95625875151"	"73.807618800066592"	"211648.33391046122"	"211.44885385965023"	"797.92053928257576"	"325.71365763683264"	"2060"	"12"	"49590272"	"2593648640"	" "	" "	" "
"06/09/2016 14:05:50.428"	"212851.34826380678"	"61.815297004876179"	"205972.62308234611"	"204.69983598336046"	"798.03760778827962"	"340.43270967158753"	"2060"	"12"	"54034432"	"2598096896"	" "	" "	" "
"06/09/2016 14:05:51.430"	"210364.30747226145"	"74.864163782086536"	"227634.97096236362"	"216.60698054283705"	"797.00273567523743"	"329.09506306746596"	"2060"	"12"	"50298880"	"2593021952"	" "	" "	" "
"06/09/2016 14:05:52.433"	"210029.89792636648"	"70.813180264274678"	"226729.8400439019"	"204.46059090389167"	"805.66226797300692"	"335.04330292881332"	"2058"	"12"	"50302976"	"2595659776"	" "	" "	" "
"06/09/2016 14:05:53.420"	"205653.74645942496"	"77.003383344252455"	"205866.51896603408"	"196.56126801032863"	"794.71729189324026"	"316.62043501722724"	"2057"	"12"	"48001024"	"2591916032"	" "	" "	" "
"06/09/2016 14:05:54.422"	"201402.41213358767"	"68.817677072030492"	"210841.40482648183"	"204.45831593864133"	"793.22615656300798"	"322.58902634291292"	"2053"	"12"	"51257344"	"2595106816"	" "	" "	" "
"06/09/2016 14:05:55.425"	"209330.86308052682"	"60.839817840082219"	"211263.77401452814"	"211.44330134585951"	"797.88902500654024"	"330.37592441677054"	"2053"	"12"	"48586752"	"2592428032"	" "	" "	" "
"06/09/2016 14:05:56.427"	"218004.5634788711"	"66.855424637417215"	"219010.38837490868"	"206.55332686485619"	"798.27333477687762"	"325.85766986009264"	"2053"	"12"	"49958912"	"2593746944"	" "	" "	" "
"06/09/2016 14:05:57.430"	"209634.4637291322"	"63.828417390576789"	"210534.04548673064"	"199.46380434555246"	"797.85910466445387"	"331.92185408892317"	"2053"	"12"	"48041984"	"2590515200"	" "	" "	" "
"06/09/2016 14:05:58.432"	"209503.38442435453"	"59.860960357451646"	"210850.25603239718"	"203.5272652153356"	"809.05797741267259"	"335.15889237711872"	"2053"	"12"	"49958912"	"2592436224"	" "	" "	" "
"06/09/2016 14:05:59.419"	"212749.10011280124"	"64.840908649075089"	"214603.14484448574"	"214.78550990006124"	"797.85504144084416"	"334.02264631749625"	"2053"	"12"	"48041984"	"2590519296"	" "	" "	" "
"06/09/2016 14:06:00.422"	"209487.25580662521"	"64.830179718860762"	"211446.12462151507"	"214.43828676238559"	"796.35963843140485"	"330.38795175627752"	"2053"	"12"	"50589696"	"2594459648"	" "	" "	" "
"06/09/2016 14:06:01.424"	"209451.16435258748"	"59.846039626435775"	"211216.62252156733"	"210.45857268629916"	"797.93613817860103"	"339.74624633385747"	"2053"	"12"	"48115712"	"2591977472"	" "	" "	" "
"06/09/2016 14:06:02.427"	"210507.92781926374"	"74.798860051189536"	"219840.83091738418"	"215.42071694742589"	"797.85807022467486"	"331.92142374581198"	"2053"	"12"	"50032640"	"2593898496"	" "	" "	" "
"06/09/2016 14:06:03.430"	"210085.62590144514"	"75.800698679772083"	"211204.68358458599"	"210.44667659778827"	"796.33660476929765"	"335.05356169354008"	"2053"	"12"	"48353280"	"2592219136"	" "	" "	" "
"06/09/2016 14:06:04.432"	"201539.64190922867"	"66.835395711251067"	"202517.23426440815"	"197.51355747504047"	"804.26635745597059"	"331.99367081031346"	"2053"	"12"	"49553408"	"2593423360"	" "	" "	" "
"06/09/2016 14:06:05.419"	"221407.11467191609"	"68.895272034458856"	"213940.08298229901"	"203.64631880773868"	"796.28175742619658"	"324.52835044208803"	"2053"	"12"	"49561600"	"2593550336"	" "	" "	" "
"06/09/2016 14:06:06.421"	"201209.60272573464"	"58.866475066785398"	"202658.31665449688"	"199.54737310774712"	"798.22004911248405"	"335.19005968590642"	"2053"	"12"	"51871744"	"2595856384"	" "	" "	" "
"06/09/2016 14:06:07.424"	"217575.75727462242"	"59.841511590438529"	"219023.92185511105"	"208.44793204002755"	"797.86053697011459"	"325.68916450537881"	"2053"	"12"	"48021504"	"2592014336"	" "	" "	" "
"06/09/2016 14:06:08.426"	"201897.8785585016"	"74.8257673737331"	"210609.59323460076"	"199.53537966328827"	"796.5986317185409"	"325.81039927431516"	"2053"	"12"	"54112256"	"2598105088"	" "	" "	" "
"06/09/2016 14:06:09.429"	"218065.81148452661"	"66.824657056244945"	"210427.85292129192"	"197.48182234532089"	"797.91807216610425"	"328.82951802157811"	"2053"	"12"	"52391936"	"2596343808"	" "	" "	" "
"06/09/2016 14:06:10.431"	"202156.93780021917"	"75.839786324767289"	"210654.9854362944"	"199.57838506517709"	"807.64929574977145"	"327.42539016882625"	"2053"	"12"	"53972992"	"2597933056"	" "	" "	" "
"06/09/2016 14:06:11.418"	"214725.05513318643"	"87.12969525223545"	"214317.7744646818"	"201.6140622697076"	"793.08404874896735"	"330.84743750206422"	"2053"	"12"	"51163136"	"2593857536"	" "	" "	" "
"06/09/2016 14:06:12.421"	"210299.09388694295"	"75.799990208426991"	"210005.86760903141"	"190.49734381328361"	"797.89753998214701"	"330.37945014885776"	"2053"	"12"	"49246208"	"2593226752"	" "	" "	" "
"06/09/2016 14:06:13.423"	"209951.39539524657"	"68.845682876657449"	"210927.20811775918"	"204.54152159006921"	"796.64822807973292"	"338.3026721982427"	"2053"	"12"	"51163136"	"2595135488"	" "	" "	" "
"06/09/2016 14:06:14.426"	"200981.21423961589"	"56.852118129953283"	"202489.29147843149"	"197.48630508299561"	"794.79240545997322"	"327.2674610717537"	"2053"	"12"	"48144384"	"2592665600"	" "	" "	" "
"06/09/2016 14:06:15.428"	"218039.18917660759"	"72.804061776240488"	"211293.34432928578"	"212.42828984026335"	"796.33056858164673"	"336.60939885251599"	"2053"	"12"	"51175424"	"2595037184"	" "	" "	" "
"06/09/2016 14:06:16.430"	"209790.24231414322"	"63.873417067567843"	"210862.11809430833"	"202.59849476119174"	"795.2768910873599"	"335.26378741918114"	"2053"	"12"	"49258496"	"2593701888"	" "	" "	" "
"06/09/2016 14:06:17.432"	"210641.55743884924"	"80.835581335797556"	"211210.40041861968"	"208.57575924915665"	"809.30004322254786"	"341.49655003032365"	"2053"	"12"	"51298304"	"2594738176"	" "	" "	" "
"06/09/2016 14:06:18.417"	"213666.81879923097"	"70.046040865214735"	"222506.83218842358"	"205.06232253294749"	"793.08118511961436"	"323.57712352880264"	"2046"	"12"	"55033856"	"2581196800"	" "	" "	" "
"06/09/2016 14:06:19.419"	"210103.96530655786"	"68.867238959628764"	"211376.51211342055"	"207.59979280583744"	"795.35031344911806"	"333.73522956492405"	"2046"	"12"	"54304768"	"2580848640"	" "	" "	" "
"06/09/2016 14:06:20.422"	"209910.25454910522"	"62.853056955972782"	"211409.748907912"	"209.51018985324259"	"796.56596825757879"	"327.35587736612831"	"2046"	"12"	"53035008"	"2579677184"	" "	" "	" "
"06/09/2016 14:06:21.424"	"210410.15989978824"	"75.840022728446726"	"210416.14727000362"	"195.58742703652049"	"796.75467445208983"	"335.229461853619"	"2046"	"12"	"51773440"	"2578415616"	" "	" "	" "
"06/09/2016 14:06:22.426"	"209476.58813691404"	"60.835214889983796"	"210110.87004953748"	"192.47863071748969"	"793.17038474192748"	"338.14926029272743"	"2046"	"12"	"55508992"	"2582159360"	" "	" "	" "
"06/09/2016 14:06:23.428"	"210255.897542044"	"72.848900388098329"	"218790.19611901682"	"202.57981888745149"	"795.22633675863199"	"325.88687133834134"	"2048"	"12"	"55619584"	"2586480640"	" "	" "	" "
"06/09/2016 14:06:24.427"	"211487.2679367548"	"92.134733022291343"	"253811.1601866252"	"242.35440642820114"	"794.9390698606976"	"339.57042944836888"	"2048"	"12"	"55508992"	"2586398720"	" "	" "	" "
"06/09/2016 14:06:25.429"	"201337.88894982665"	"63.84458495743359"	"218891.15952656107"	"205.49975783173937"	"807.39156188906327"	"338.23160025082382"	"2048"	"12"	"53821440"	"2584707072"	" "	" "	" "
"06/09/2016 14:06:26.432"	"218230.98132421798"	"69.817955633890577"	"201650.21426053517"	"183.52148338051236"	"799.48009419864081"	"330.38943463959424"	"2048"	"12"	"55754752"	"2586640384"	" "	" "	" "
"06/09/2016 14:06:27.435"	"210088.43105886248"	"75.801710804667479"	"218911.35124015313"	"206.45992284955486"	"794.79866795982184"	"336.62061231239511"	"2048"	"12"	"55865344"	"2586759168"	" "	" "	" "
"06/09/2016 14:06:28.437"	"210186.43008351515"	"68.823650140052408"	"219425.75575376596"	"211.45817144479872"	"796.40570975327739"	"331.96558938835244"	"2048"	"12"	"55754752"	"2586660864"	" "	" "	" "
"06/09/2016 14:06:29.440"	"210060.19332293957"	"66.822872572664849"	"210745.37710588615"	"199.47126141093983"	"797.8829770968689"	"327.25668982488764"	"2048"	"12"	"55865344"	"2586771456"	" "	" "	" "
"06/09/2016 14:06:30.442"	"210146.03145447691"	"73.808242969032008"	"210732.5077634741"	"202.47396382045267"	"797.91377464481366"	"328.827746972765"	"2048"	"12"	"53948416"	"2586955776"	" "	" "	" "
"06/09/2016 14:06:31.429"	"204327.46147898838"	"61.80503976980895"	"205208.94319373812"	"192.50750092235575"	"797.88244531972282"	"335.61721906305809"	"2048"	"12"	"50102272"	"2583130112"	" "	" "	" "
"06/09/2016 14:06:32.432"	"209915.18091542652"	"66.855781874303972"	"210465.99273027154"	"196.57595566026689"	"801.39486861814021"	"333.65467292661873"	"2051"	"12"	"52019200"	"2585022464"	" "	" "	" "
"06/09/2016 14:06:33.417"	"221770.1813668838"	"70.023074700567349"	"205660.81487707503"	"194.84681655810044"	"789.67093669967335"	"313.96555314565325"	"2051"	"12"	"53198848"	"2586390528"	" "	" "	" "
"06/09/2016 14:06:34.435"	"239573.69238751032"	"75.673885080478044"	"216175.72023171783"	"211.29721158834781"	"792.3569713359891"	"343.96891778926653"	"2050"	"12"	"49360896"	"2582482944"	" "	" "	" "
"06/09/2016 14:06:35.421"	"213025.05035676461"	"71.952173464745471"	"197363.79840290296"	"195.58830251684333"	"796.49738264942789"	"300.86382247195087"	"2048"	"12"	"50487296"	"2584244224"	" "	" "	" "
"06/09/2016 14:06:36.423"	"209981.38006978037"	"66.876865610146439"	"224135.31968697257"	"218.59751594958311"	"796.95524294364907"	"325.95625396325374"	"2048"	"12"	"49664000"	"2581966848"	" "	" "	" "
"06/09/2016 14:06:37.426"	"211611.46873858073"	"92.758677768346857"	"205824.52413200063"	"188.50957094857588"	"796.3659927795818"	"335.06592651195712"	"2048"	"12"	"51580928"	"2583937024"	" "	" "	" "
"06/09/2016 14:06:38.428"	"210700.17263949482"	"80.788413760812119"	"210853.77036442279"	"202.46972831413407"	"796.36035329051231"	"328.82981319823506"	"2048"	"12"	"49664000"	"2581999616"	" "	" "	" "
"06/09/2016 14:06:39.430"	"201331.14649542473"	"59.905126653734115"	"210706.29881673411"	"198.6853367348848"	"798.72188523924012"	"329.160776924765"	"2048"	"12"	"51236864"	"2581655552"	" "	" "	" "
"06/09/2016 14:06:40.432"	"218043.20169510011"	"65.836709511568117"	"210577.71784684894"	"199.50518033808521"	"807.39945501347302"	"330.44147579701985"	"2048"	"12"	"49393664"	"2579800064"	" "	" "	" "
"06/09/2016 14:06:41.419"	"213355.7111491391"	"72.966376301420297"	"213872.55631460747"	"201.6709567219811"	"796.48269189589405"	"338.86142358990321"	"2048"	"12"	"53493760"	"2583879680"	" "	" "	" "
"06/09/2016 14:06:42.422"	"201515.2389592829"	"70.814188820796886"	"210368.00994482366"	"196.48443940418292"	"797.91624173470973"	"333.5040541625545"	"2048"	"12"	"52785152"	"2583183360"	" "	" "	" "
"06/09/2016 14:06:43.424"	"216309.32543996695"	"74.829565262301642"	"210380.82841611898"	"195.55459721881496"	"796.60395667292596"	"327.37148904366819"	"2053"	"12"	"57167872"	"2598158336"	" "	" "	" "
"06/09/2016 14:06:44.426"	"203391.24390220013"	"59.856163596880556"	"202469.45898280817"	"196.52773714309117"	"788.74439673486506"	"330.46207926440985"	"2053"	"12"	"49520640"	"2590511104"	" "	" "	" "
"06/09/2016 14:06:45.429"	"217623.99691220387"	"58.842634106395003"	"193993.19398818823"	"188.49589569675686"	"797.86905133768732"	"319.45928813325372"	"2053"	"12"	"55279616"	"2596286464"	" "	" "	" "
"06/09/2016 14:06:46.432"	"211167.23300299206"	"81.804843867347671"	"210855.97554827729"	"195.53352924390418"	"810.55078746630102"	"327.33781801523696"	"2053"	"12"	"55173120"	"2596216832"	" "	" "	" "
"06/09/2016 14:06:47.418"	"204390.67606061755"	"60.794371225644724"	"204913.5076531581"	"187.44931127907122"	"797.91348915562116"	"329.29763044517694"	"2050"	"12"	"50110464"	"2591064064"	" "	" "	" "
"06/09/2016 14:06:48.421"	"209817.17440626668"	"66.824567829802376"	"218490.4048816094"	"199.47632188000711"	"797.92022094410925"	"324.15508975854436"	"2050"	"12"	"52027392"	"2592948224"	" "	" "	" "
"06/09/2016 14:06:49.424"	"210633.49084928626"	"82.785989736103005"	"210615.53726115072"	"200.48173418020124"	"796.35924128801071"	"317.92032333219998"	"2050"	"12"	"50229248"	"2591150080"	" "	" "	" "
"06/09/2016 14:06:50.426"	"218336.56253076624"	"78.793778390604885"	"210908.00479085199"	"205.46225757550133"	"794.79985705321974"	"317.91994282128792"	"2050"	"12"	"52834304"	"2593751040"	" "	" "	" "
"06/09/2016 14:06:51.429"	"201450.08299349819"	"64.826255728389441"	"201934.78392094432"	"188.49480511793237"	"797.89777872240006"	"331.93794310131096"	"2050"	"12"	"56676352"	"2597597184"	" "	" "	" "
"06/09/2016 14:06:52.432"	"218830.05961564826"	"80.791793890751379"	"218979.67404877927"	"207.46534727501589"	"808.82565621163144"	"327.27049673303009"	"2050"	"12"	"66523136"	"2607443968"	" "	" "	" "
"06/09/2016 14:06:53.419"	"204598.24958788438"	"64.843752345419347"	"204537.45857006055"	"181.35986984109473"	"796.2907932649515"	"324.53203304038777"	"2050"	"12"	"50913280"	"2591875072"	" "	" "	" "
"06/09/2016 14:06:54.421"	"205856.59484095144"	"64.855264083550693"	"202264.61098401633"	"192.5702456634659"	"788.85394401030248"	"325.83097687382059"	"2050"	"12"	"51748864"	"2592784384"	" "	" "	" "
"06/09/2016 14:06:55.423"	"214778.76890902352"	"88.763921211530501"	"211006.80093124814"	"200.4668332979509"	"796.32381769070355"	"300.76418163269233"	"2050"	"12"	"50221056"	"2591256576"	" "	" "	" "
"06/09/2016 14:06:56.425"	"209776.80295956437"	"64.883951579674161"	"211202.25346503782"	"207.6286450549573"	"798.58419008939052"	"325.98456197008323"	"2050"	"12"	"52531200"	"2593497088"	" "	" "	" "
"06/09/2016 14:06:57.428"	"209819.60244154508"	"69.817520587295391"	"210729.22499548242"	"202.47080970315662"	"796.3536018945623"	"322.59333775376592"	"2050"	"12"	"50536448"	"2591502336"	" "	" "	" "
"06/09/2016 14:06:58.430"	"209595.67636862918"	"67.81998740467273"	"210421.48445055669"	"197.4758456783118"	"796.31285766446535"	"333.48522806300508"	"2050"	"12"	"52023296"	"2592989184"	" "	" "	" "
"06/09/2016 14:06:59.433"	"209741.19655814036"	"68.82974680163457"	"219301.54863563116"	"212.47443577895888"	"810.50275910102323"	"331.99439940099609"	"2050"	"12"	"50302976"	"2591256576"	" "	" "	" "
"06/09/2016 14:07:00.418"	"213515.42072932888"	"67.004658596839519"	"214313.38529989123"	"203.04441999042277"	"797.88883753072139"	"322.01080321816391"	"2050"	"12"	"52416512"	"2593419264"	" "	" "	" "
"06/09/2016 14:07:01.420"	"210246.16030412319"	"72.845526655976457"	"211072.40819550879"	"206.56197284639902"	"796.75610559037261"	"330.55243519600583"	"2050"	"12"	"50618368"	"2591596544"	" "	" "	" "
"06/09/2016 14:07:02.423"	"209948.66144784307"	"69.806708314012326"	"210816.25910831723"	"204.43393149103611"	"796.23098469521267"	"324.10184895617266"	"2050"	"12"	"56381440"	"2597363712"	" "	" "	" "
"06/09/2016 14:07:03.425"	"209794.47943097437"	"67.852028048752246"	"211059.72018929524"	"206.549555971937"	"796.69584321714296"	"333.64561731598553"	"2050"	"12"	"53133312"	"2594115584"	" "	" "	" "
"06/09/2016 14:07:04.428"	"210626.66524937877"	"76.774976918644626"	"211547.96497240249"	"210.38337830953267"	"791.43386878300657"	"314.70401868930577"	"2050"	"12"	"56664064"	"2597638144"	" "	" "	" "
"06/09/2016 14:07:05.430"	"210606.3626687685"	"82.82396022585587"	"211250.99252787576"	"209.55459816180402"	"802.99903393135241"	"322.75883499765047"	"2050"	"12"	"56688640"	"2597662720"	" "	" "	" "
"06/09/2016 14:07:06.428"	"210670.01825463877"	"67.113417190775678"	"211577.55192590508"	"202.34194436621922"	"791.95096349818505"	"317.71945768800703"	"2050"	"12"	"57987072"	"2598961152"	" "	" "	" "
"06/09/2016 14:07:07.431"	"209705.07044760947"	"64.828448488036784"	"205601.92833868973"	"201.46687068589895"	"804.14571150214124"	"327.26860351831328"	"2050"	"12"	"56070144"	"2597011456"	" "	" "	" "
"06/09/2016 14:07:08.434"	"209660.35765543903"	"63.833871963445844"	"216013.82272430073"	"206.46267963177016"	"793.24063478600249"	"335.06235064634683"	"2050"	"12"	"53514240"	"2594459648"	" "	" "	" "
"06/09/2016 14:07:09.436"	"209844.81997628312"	"67.830885678369583"	"218818.44714632156"	"204.49017005979067"	"796.44511290555545"	"319.51320576445966"	"2050"	"12"	"51724288"	"2592645120"	" "	" "	" "
"06/09/2016 14:07:10.439"	"201335.83050170096"	"64.824149664707903"	"202765.95097276542"	"202.45080587593392"	"797.83889378839535"	"328.796887869827"	"2050"	"12"	"56709120"	"2597625856"	" "	" "	" "
"06/09/2016 14:07:11.441"	"218162.68009616723"	"68.815686279745719"	"219083.21456625714"	"209.43904519922611"	"796.3478831546023"	"322.5910211604749"	"2050"	"12"	"55836672"	"2596753408"	" "	" "	" "
"06/09/2016 14:07:12.428"	"205360.48810007735"	"77.008536473426787"	"206342.34694011355"	"207.72039443490118"	"797.88503221378494"	"334.03520197839015"	"2050"	"12"	"51994624"	"2592911360"	" "	" "	" "
"06/09/2016 14:07:13.428"	"218938.85058763315"	"70.999302970763608"	"211361.92497341518"	"200.99802672004907"	"798.43606281508698"	"332.81190093857833"	"2050"	"12"	"67604480"	"2608525312"	" "	" "	" "
"06/09/2016 14:07:14.423"	"245189.41744508306"	"75.419382298775474"	"212642.43441198749"	"207.15190338063664"	"801.33023584525245"	"340.95815917337211"	"2050"	"12"	"53911552"	"2594643968"	" "	" "	" "
"06/09/2016 14:07:15.434"	"208839.50034240665"	"79.154593392677938"	"209344.11087528497"	"205.80194282096264"	"803.93829830454604"	"324.6673896999128"	"2050"	"12"	"65687552"	"2606419968"	" "	" "	" "
"06/09/2016 14:07:16.421"	"204765.81081700631"	"72.950441760059249"	"213825.85040337365"	"201.62691542016375"	"797.87347216095338"	"326.11495092292938"	"2050"	"12"	"53911552"	"2594594816"	" "	" "	" "
"06/09/2016 14:07:17.423"	"217307.72778734926"	"54.855036342167814"	"202480.91014620985"	"197.47813083180415"	"797.87796376756376"	"333.48805516847392"	"2050"	"12"	"51269632"	"2591952896"	" "	" "	" "
"06/09/2016 14:07:18.426"	"201132.58846657112"	"60.838653498660349"	"210721.15919995014"	"202.46306000373852"	"797.89960906908652"	"335.05549990205782"	"2050"	"12"	"53514240"	"2594201600"	" "	" "	" "
"06/09/2016 14:07:19.428"	"218555.98696422949"	"79.792624071933517"	"210852.00911008433"	"204.46859918432963"	"797.91807216610425"	"335.06325296037579"	"2050"	"12"	"51597312"	"2592280576"	" "	" "	" "
"06/09/2016 14:07:20.431"	"209872.52756562267"	"71.811987267133816"	"219389.610655942"	"214.43857308935793"	"810.37794431501663"	"338.17694983915118"	"2050"	"12"	"53514240"	"2594197504"	" "	" "	" "
"06/09/2016 14:07:21.418"	"213629.69404219059"	"70.946719468985719"	"205360.34712579838"	"190.54261800241881"	"796.57383174576864"	"335.73290721690444"	"2050"	"12"	"50810880"	"2591494144"	" "	" "	" "
"06/09/2016 14:07:22.420"	"202212.68840505506"	"73.832659541691086"	"211245.21633520274"	"206.531898988244"	"796.65784603773636"	"330.51166998043072"	"2050"	"12"	"58384384"	"2599063552"	" "	" "	" "
"06/09/2016 14:07:23.423"	"217949.65472627874"	"64.82738094178427"	"210718.90839046432"	"202.4608974028032"	"796.30364512216613"	"328.80639749662828"	"2050"	"12"	"52736000"	"2594729984"	" "	" "	" "
"06/09/2016 14:07:24.425"	"210184.78692231412"	"72.842931690050847"	"210166.82565148643"	"191.58688882862688"	"792.03152919111403"	"321.17813979009742"	"2043"	"12"	"56954880"	"2581639168"	" "	" "	" "
"06/09/2016 14:07:25.427"	"210384.7881076702"	"76.808981566799773"	"209618.69333048444"	"183.54354036741762"	"796.46561044166845"	"331.99055777705559"	"2043"	"12"	"56963072"	"2581651456"	" "	" "	" "
"06/09/2016 14:07:26.430"	"201694.23343780037"	"67.846016234172424"	"210741.69924973385"	"201.54257763680633"	"796.63980262140456"	"328.94520225658778"	"2043"	"12"	"53682176"	"2580869120"	" "	" "	" "
"06/09/2016 14:07:27.431"	"217535.69701470924"	"66.892895760980707"	"210822.44580430872"	"200.67868728294209"	"809.64579110487125"	"333.84238785441704"	"2043"	"12"	"57114624"	"2584309760"	" "	" "	" "
"06/09/2016 14:07:28.418"	"205779.4579176179"	"73.996228876483826"	"205878.79532076715"	"200.70210024032599"	"795.05384522755844"	"318.33829261103438"	"2043"	"12"	"51458048"	"2577350656"	" "	" "	" "
"06/09/2016 14:07:29.420"	"209762.10211441721"	"71.811060377521414"	"210665.72462416766"	"201.46991939249062"	"797.89746040209445"	"324.14584328835087"	"2043"	"12"	"54489088"	"2580381696"	" "	" "	" "
"06/09/2016 14:07:30.423"	"210052.05994853456"	"68.814920621074677"	"218979.05059316123"	"204.45012648290302"	"796.30189793991497"	"331.9223175365986"	"2043"	"12"	"51556352"	"2579476480"	" "	" "	" "
"06/09/2016 14:07:31.426"	"210059.81936087724"	"66.82275361048147"	"210505.63683645762"	"195.48148817394579"	"797.92412060782669"	"331.94890173724036"	"2043"	"12"	"54128640"	"2580742144"	" "	" "	" "
"06/09/2016 14:07:32.428"	"210153.60796525326"	"73.810904018324095"	"210740.10541880428"	"202.48126372594314"	"796.36170358343941"	"333.50568408386698"	"2043"	"12"	"52211712"	"2578825216"	" "	" "	" "
"06/09/2016 14:07:33.431"	"210088.24404603741"	"71.812083153631789"	"210967.94206466939"	"206.45973906669138"	"808.8127489086171"	"328.82368019213527"	"2043"	"12"	"54128640"	"2580758528"	" "	" "	" "
"06/09/2016 14:07:34.417"	"213235.79944263989"	"71.967893217730037"	"214038.59622332218"	"203.74009206709491"	"793.53144338408799"	"327.86628499103034"	"2043"	"12"	"55001088"	"2581704704"	" "	" "	" "
"06/09/2016 14:07:35.420"	"209725.1389724708"	"65.832108685356573"	"202379.87157309253"	"195.50141367166498"	"796.36488076133048"	"324.15635068171576"	"2043"	"12"	"53837824"	"2581127168"	" "	" "	" "
"06/09/2016 14:07:36.423"	"210092.17138528329"	"75.803060346573417"	"210852.19680612657"	"204.46878119799408"	"797.9167192377422"	"330.38739155937765"	"2043"	"12"	"53846016"	"2578444288"	" "	" "	" "
"06/09/2016 14:07:37.425"	"209699.75059904653"	"66.821474793760672"	"219000.90095616013"	"208.44310793874595"	"796.31389011783381"	"316.34387415639969"	"2043"	"12"	"54099968"	"2578739200"	" "	" "	" "
"06/09/2016 14:07:38.428"	"209854.72185071389"	"75.814567142598946"	"219367.45490692207"	"213.47786011205491"	"798.05585612888444"	"317.97538017635236"	"2044"	"12"	"52707328"	"2579464192"	" "	" "	" "
"06/09/2016 14:07:39.430"	"210416.24952455811"	"70.812297800883641"	"211128.36192779517"	"202.46333033210394"	"796.3281064787484"	"333.4916140635072"	"2044"	"12"	"56745984"	"2583470080"	" "	" "	" "
"06/09/2016 14:07:40.433"	"209984.63817082281"	"71.813489518354842"	"210493.31705491117"	"198.48450575211962"	"810.38917930466516"	"331.94787536902629"	"2044"	"12"	"52772864"	"2579496960"	" "	" "	" "
"06/09/2016 14:07:41.418"	"214338.23614785765"	"84.26362516943685"	"214862.09193806766"	"212.18189952303979"	"797.9025271359194"	"326.77519003976022"	"2044"	"12"	"56406016"	"2584449024"	" "	" "	" "
"06/09/2016 14:07:42.420"	"209457.34280185818"	"59.863199108830749"	"210858.14166100483"	"203.53487697002453"	"796.61532211220049"	"328.93509386629023"	"2044"	"12"	"56475648"	"2583195648"	" "	" "	" "
"06/09/2016 14:07:43.422"	"209443.19045053198"	"59.874555355065795"	"218905.36601514422"	"204.57139746314147"	"796.76421547108919"	"327.43734882373525"	"2049"	"12"	"60203008"	"2597474304"	" "	" "	" "
"06/09/2016 14:07:44.425"	"210356.79035102983"	"78.793532904068869"	"210428.6021784867"	"197.48252550640044"	"786.99961660495501"	"321.03350697152621"	"2049"	"12"	"58286080"	"2596900864"	" "	" "	" "
"06/09/2016 14:07:45.427"	"210127.80467138361"	"71.825605713782039"	"210947.8136699493"	"205.50103856998749"	"794.94130527491882"	"330.4461896436917"	"2049"	"12"	"54546432"	"2593157120"	" "	" "	" "
"06/09/2016 14:07:46.430"	"209335.14888433224"	"60.841063463966734"	"210789.35004056935"	"203.46847453523301"	"804.15036340115955"	"333.5042204803259"	"2049"	"12"	"52629504"	"2591240192"	" "	" "	" "
"06/09/2016 14:07:47.429"	"210162.69622829015"	"60.080244011860998"	"211682.72640179025"	"205.27416704052507"	"794.85421147057491"	"317.62874985930455"	"2049"	"12"	"56471552"	"2595086336"	" "	" "	" "
"06/09/2016 14:07:48.431"	"210700.07092529404"	"74.806883600940395"	"211561.84622437687"	"209.4592740826331"	"810.40389033764166"	"335.07083927421724"	"2049"	"12"	"56471552"	"2595094528"	" "	" "	" "
"06/09/2016 14:07:49.433"	"210166.35085883632"	"71.838781520125593"	"210866.77897865753"	"203.54321430702251"	"796.64266407783271"	"321.1514457926292"	"2049"	"12"	"58392576"	"2597015552"	" "	" "	" "
"06/09/2016 14:07:50.436"	"209821.84375475688"	"70.815670190274844"	"211389.76253699791"	"213.44441437632136"	"797.91663965386374"	"335.06265141714982"	"2049"	"12"	"56475648"	"2595102720"	" "	" "	" "
"06/09/2016 14:07:51.438"	"209951.48887569964"	"67.847949565860873"	"210927.30203269099"	"204.54161266178644"	"790.39496326281619"	"327.38252916211326"	"2041"	"12"	"56668160"	"2591748096"	" "	" "	" "
"06/09/2016 14:07:52.441"	"209597.35548704473"	"62.833726996097198"	"211021.5866322896"	"207.45103516171773"	"797.91775382960623"	"336.62155239686513"	"2040"	"12"	"56672256"	"2591641600"	" "	" "	" "
"06/09/2016 14:07:53.428"	"204354.81069370435"	"69.919976286858471"	"206026.81012665096"	"205.70659690191695"	"797.97881845024301"	"321.4081352091257"	"2040"	"12"	"51949568"	"2586910720"	" "	" "	" "
"06/09/2016 14:07:54.430"	"210192.31361746823"	"73.805582111606626"	"210246.17174495506"	"194.48768259139584"	"791.67020320914924"	"341.29089469055845"	"2040"	"12"	"67624960"	"2602647552"	" "	" "	" "
"06/09/2016 14:07:55.433"	"209538.46202658684"	"66.821564011943565"	"210657.47388959283"	"201.46202881212835"	"810.53421137714713"	"325.77240418812255"	"2040"	"12"	"65097728"	"2600132608"	" "	" "	" "
"06/09/2016 14:07:56.419"	"213503.61042640434"	"71.984368899226467"	"214756.7467638613"	"214.93924234698608"	"796.61848093046763"	"316.74691090674656"	"2040"	"12"	"53956608"	"2588958720"	" "	" "	" "
"06/09/2016 14:07:57.422"	"210736.2912802847"	"75.800833628196486"	"211731.67591134968"	"212.44181003691912"	"797.91098923907327"	"327.26817918008862"	"2040"	"12"	"52629504"	"2587631616"	" "	" "	" "
"06/09/2016 14:07:58.425"	"210020.36356612641"	"74.799259523323144"	"210355.4642487909"	"196.4727216812621"	"797.85162492955214"	"338.15195822209535"	"2040"	"12"	"55005184"	"2590007296"	" "	" "	" "
"06/09/2016 14:07:59.427"	"210728.64393878702"	"84.775776600422631"	"210722.6597663211"	"202.46450176336228"	"794.80017414539338"	"313.24477451612569"	"2040"	"12"	"53088256"	"2588082176"	" "	" "	" "
"06/09/2016 14:08:00.429"	"201305.23737349446"	"62.875450930721016"	"211221.59420599675"	"208.58681340509034"	"798.40024542823539"	"324.35009970522066"	"2040"	"12"	"55005184"	"2590052352"	" "	" "	" "
"06/09/2016 14:08:01.432"	"218157.2965318161"	"69.814164695787312"	"210539.57381829576"	"199.46904198796378"	"807.21585902029244"	"319.458013704942"	"2042"	"12"	"51871744"	"2587058176"	" "	" "	" "
"06/09/2016 14:08:02.419"	"205069.05361459428"	"79.019998725130435"	"205184.54438196178"	"192.48461227916388"	"796.2356939715504"	"319.76065642595069"	"2042"	"12"	"59125760"	"2594312192"	" "	" "	" "
"06/09/2016 14:08:03.422"	"218218.25785051432"	"69.813885052723961"	"218780.75829579626"	"204.45494908297732"	"796.31531967307126"	"317.9027890671361"	"2042"	"12"	"51511296"	"2586697728"	" "	" "	" "
"06/09/2016 14:08:04.424"	"209278.58833719065"	"56.850751735802028"	"210547.2577443475"	"199.47632188000711"	"790.11644676972719"	"313.24143155959598"	"2042"	"12"	"57356288"	"2591555584"	" "	" "	" "
"06/09/2016 14:08:05.427"	"209801.95377315962"	"68.814338731879431"	"211130.369703462"	"209.4349439665896"	"797.85870680268295"	"319.455146278418"	"2042"	"12"	"57446400"	"2591780864"	" "	" "	" "
"06/09/2016 14:08:06.429"	"202315.79586297181"	"70.845152873233104"	"211405.9274499458"	"205.55072523783127"	"798.22116413572348"	"319.60027079652991"	"2042"	"12"	"53837824"	"2589061120"	" "	" "	" "
"06/09/2016 14:08:07.432"	"217542.32913313698"	"56.854775195502974"	"219505.31505567644"	"216.44712662147623"	"810.46273981093714"	"335.09517126798369"	"2042"	"12"	"52379648"	"2587590656"	" "	" "	" "
"06/09/2016 14:08:08.419"	"203878.42199949274"	"52.683333551853174"	"205258.32008213934"	"193.50993670007608"	"794.65336447749769"	"315.01199109765349"	"2042"	"12"	"53989376"	"2589208576"	" "	" "	" "
"06/09/2016 14:08:09.422"	"209434.10522216512"	"59.841165357064177"	"219082.49578323576"	"209.44407874972464"	"796.32246752625031"	"316.34728162001721"	"2042"	"12"	"53981184"	"2589167616"	" "	" "	" "
"06/09/2016 14:08:10.424"	"210354.42490367242"	"84.778908393015541"	"216382.70398987696"	"198.48238553188344"	"797.91767424552143"	"321.03718924722153"	"2042"	"12"	"66150400"	"2601369600"	" "	" "	" "
"06/09/2016 14:08:11.426"	"210048.39864117309"	"69.839870350458924"	"204515.08548454958"	"194.553924547707"	"796.61810391247434"	"321.14154482577243"	"2042"	"12"	"54374400"	"2591506432"	" "	" "	" "
"06/09/2016 14:08:12.429"	"211532.27063375185"	"89.760789251271433"	"219066.19287824188"	"218.41792051142716"	"797.86586837526988"	"333.48299967247607"	"2055"	"12"	"52588544"	"2591928320"	" "	" "	" "
"06/09/2016 14:08:13.431"	"209353.59708102644"	"56.87112794106843"	"218748.30832125625"	"202.54103459713843"	"810.66805233533262"	"328.94415200529841"	"2055"	"12"	"54124544"	"2593488896"	" "	" "	" "
"06/09/2016 14:08:14.418"	"213562.85344571114"	"71.93772906525551"	"206207.98055437749"	"205.68111267953336"	"791.56760884067285"	"315.0439083185878"	"2055"	"12"	"52133888"	"2591514624"	" "	" "	" "
"06/09/2016 14:08:15.421"	"201909.70646902561"	"69.811461573346136"	"219096.29100178953"	"206.44246493832358"	"794.7283592288868"	"327.24108909424751"	"2055"	"12"	"53846016"	"2593251328"	" "	" "	" "
"06/09/2016 14:08:16.424"	"218194.66548074066"	"68.816023174958659"	"202971.36435403678"	"205.45073585567368"	"797.87223432550081"	"322.57725098706771"	"2055"	"12"	"51929088"	"2591207424"	" "	" "	" "
"06/09/2016 14:08:17.426"	"209385.37362393795"	"60.84000738825268"	"210785.69117103805"	"203.46494274104177"	"797.89220815372039"	"311.67664381004698"	"2055"	"12"	"53649408"	"2591625216"	" "	" "	" "
"06/09/2016 14:08:18.429"	"210295.81800330683"	"75.79880945228129"	"219501.38394073522"	"216.42554804138211"	"797.90955675226473"	"324.15075743060754"	"2055"	"12"	"52453376"	"2590429184"	" "	" "	" "
"06/09/2016 14:08:19.432"	"210569.41422873849"	"81.784600361666875"	"211263.58595863753"	"211.44311313016314"	"808.79758335396218"	"328.81751461981889"	"2055"	"12"	"56295424"	"2594263040"	" "	" "	" "
"06/09/2016 14:08:20.417"	"205793.06379269355"	"85.239730565021006"	"213972.01889214676"	"198.89270465171566"	"797.50798510022958"	"318.68609344959475"	"2055"	"12"	"55091200"	"2593058816"	" "	" "	" "
"06/09/2016 14:08:21.419"	"209427.65121715315"	"58.902587650576507"	"211110.86753543912"	"205.65988230540273"	"795.55755668612778"	"338.5019407860583"	"2055"	"12"	"67158016"	"2605133824"	" "	" "	" "
"06/09/2016 14:08:22.421"	"218021.0707442252"	"65.846294188984871"	"210787.95509467763"	"202.52723818733227"	"798.1400941386288"	"322.68554587245342"	"2055"	"12"	"68427776"	"2606407680"	" "	" "	" "
"06/09/2016 14:08:23.424"	"210553.59737404995"	"76.779964660427297"	"211118.97711382218"	"206.40847642478505"	"794.61162823812651"	"316.28658927909743"	"2054"	"12"	"58580992"	"2596536320"	" "	" "	" "
"06/09/2016 14:08:24.430"	"251055.28430769229"	"78.545812434141197"	"210506.75432665963"	"205.80991359325606"	"790.73800158701897"	"369.73604003479471"	"2054"	"12"	"58073088"	"2596073472"	" "	" "	" "
"06/09/2016 14:08:25.422"	"211788.88698005161"	"67.487184569882331"	"212514.12239632496"	"199.43973947517463"	"797.96468451945236"	"328.94402182360068"	"2054"	"12"	"56745984"	"2594451456"	" "	" "	" "
"06/09/2016 14:08:26.429"	"209289.55081943804"	"71.557419647264453"	"217836.68705508352"	"200.75831623260308"	"795.06479430232719"	"321.4422117589487"	"2054"	"12"	"54816768"	"2592841728"	" "	" "	" "
"06/09/2016 14:08:27.427"	"202545.79809675322"	"75.105976749018552"	"202882.27287258883"	"191.26988745416722"	"799.58818736043042"	"312.95036687296687"	"2054"	"12"	"56016896"	"2594418688"	" "	" "	" "
"06/09/2016 14:08:28.430"	"218866.77535841"	"81.782816792085683"	"219381.40869334555"	"214.43055622315148"	"804.11531507307552"	"321.02278082374715"	"2054"	"12"	"58658816"	"2597064704"	" "	" "	" "
"06/09/2016 14:08:29.432"	"208995.28856448384"	"75.873404209821018"	"211047.86381521268"	"204.65852451333302"	"800.2337119213546"	"316.66168327492198"	"2054"	"12"	"56393728"	"2594799616"	" "	" "	" "
"06/09/2016 14:08:30.434"	"210546.28993697389"	"71.840412842096356"	"210751.83334038322"	"201.55226936254812"	"793.54479960440131"	"311.80542224141499"	"2048"	"12"	"56143872"	"2579439616"	" "	" "	" "
"06/09/2016 14:08:31.436"	"210047.25656606152"	"69.875336037221899"	"210604.26281618679"	"197.64737907671338"	"792.32365894915972"	"333.77413979354367"	"2048"	"12"	"52301824"	"2574876672"	" "	" "	" "
"06/09/2016 14:08:32.437"	"210962.95740453395"	"82.86015675152882"	"219976.74481790207"	"217.63270086546123"	"795.54270463255193"	"313.53741888459399"	"2048"	"12"	"56524800"	"2578968576"	" "	" "	" "
"06/09/2016 14:08:33.439"	"210650.24434037859"	"74.858295114065427"	"211383.85563249642"	"207.60700511634144"	"795.38175030198306"	"325.95056041787149"	"2048"	"12"	"57397248"	"2579836928"	" "	" "	" "
"06/09/2016 14:08:34.442"	"201790.99887080083"	"72.811287985846064"	"211092.89026471865"	"208.4597149183812"	"790.11573752463664"	"325.70845984743409"	"2048"	"12"	"59314176"	"2582007808"	" "	" "	" "
"06/09/2016 14:08:35.429"	"204482.44653673185"	"63.828577461076293"	"205503.70377610906"	"197.56464452237901"	"796.29829639404215"	"329.28438498998167"	"2048"	"12"	"55468032"	"2578137088"	" "	" "	" "
"06/09/2016 14:08:36.431"	"218558.51619275255"	"75.803870094782837"	"210555.22338169283"	"199.48386867048114"	"810.37648944705302"	"324.15059577882118"	"2048"	"12"	"67248128"	"2588483584"	" "	" "	" "
"06/09/2016 14:08:37.418"	"204366.83549935033"	"62.81352270949693"	"214763.4866291061"	"217.82108681519097"	"796.27522270630686"	"324.525687186467"	"2048"	"12"	"55468032"	"2576703488"	" "	" "	" "
"06/09/2016 14:08:38.421"	"218560.55907391035"	"75.804578638657503"	"210617.03717551209"	"200.48316192592313"	"797.91592339967247"	"311.685907577997"	"2049"	"12"	"53551104"	"2576891904"	" "	" "	" "
"06/09/2016 14:08:39.424"	"202158.57388587476"	"81.784199961723857"	"202362.03701748687"	"195.48418527436434"	"796.34089369507967"	"316.35460160489464"	"2049"	"12"	"54759424"	"2578071552"	" "	" "	" "
"06/09/2016 14:08:40.426"	"218232.53543794932"	"70.815859305733099"	"219034.45023910157"	"208.45795204081995"	"797.91878842415326"	"324.15450779731225"	"2049"	"12"	"52908032"	"2576220160"	" "	" "	" "
"06/09/2016 14:08:41.429"	"202233.04097681347"	"73.808407225777515"	"218784.07759173986"	"197.48735987437766"	"797.92443894940482"	"321.03991098354959"	"2049"	"12"	"54824960"	"2580201472"	" "	" "	" "
"06/09/2016 14:08:42.431"	"218551.12322775015"	"75.801305951465892"	"211026.84622646254"	"207.45620576190666"	"807.26617856174312"	"321.03635672532647"	"2048"	"12"	"53039104"	"2578325504"	" "	" "	" "
"06/09/2016 14:08:43.418"	"212713.8280562837"	"58.782563665604748"	"205451.14096615053"	"195.60404805968474"	"796.55905743961716"	"326.2249817744754"	"2054"	"12"	"55021568"	"2592989184"	" "	" "	" "
"06/09/2016 14:08:44.420"	"209940.23719838681"	"66.848191411777165"	"211794.02734231341"	"216.50832143814395"	"790.37990116603328"	"318.02268212597789"	"2054"	"12"	"55029760"	"2593054720"	" "	" "	" "
"06/09/2016 14:08:45.423"	"210081.97930879166"	"74.80202265573817"	"210933.72500676502"	"205.45622222776083"	"797.89037784098844"	"330.37648457478429"	"2054"	"12"	"56946688"	"2594971648"	" "	" "	" "
"06/09/2016 14:08:46.426"	"210843.02165728356"	"85.775849184586065"	"210489.94432459353"	"198.48132543875147"	"797.91910676147677"	"322.5962013664564"	"2054"	"12"	"57032704"	"2595057664"	" "	" "	" "
"06/09/2016 14:08:47.428"	"201400.26085617466"	"64.827554055004327"	"210240.74453530632"	"194.48266216501295"	"797.88536441868109"	"328.81603885222989"	"2052"	"12"	"55169024"	"2593099776"	" "	" "	" "
"06/09/2016 14:08:48.431"	"218440.78054920337"	"76.797768666620982"	"211143.99515225535"	"209.44845999987538"	"810.37802514116777"	"336.6185642894082"	"2052"	"12"	"58978304"	"2596970496"	" "	" "	" "
"06/09/2016 14:08:49.418"	"204686.62984083159"	"65.885384179413549"	"205294.80261787234"	"192.58804606290113"	"796.61089102337667"	"327.82992930783098"	"2052"	"12"	"53317632"	"2591309824"	" "	" "	" "
"06/09/2016 14:08:50.420"	"210361.54966072744"	"70.812014156607475"	"211546.40420746052"	"209.44398553362774"	"796.32064084045385"	"324.1383430426896"	"2051"	"12"	"57290752"	"2595209216"	" "	" "	" "
"06/09/2016 14:08:51.423"	"210518.36696280778"	"79.790919396525439"	"210667.97493667627"	"201.47207147622672"	"797.9138542281205"	"331.94463076287047"	"2051"	"12"	"55373824"	"2593308672"	" "	" "	" "
"06/09/2016 14:08:52.425"	"209871.59346784797"	"68.819514828684788"	"227750.70394348571"	"221.41930857924672"	"794.7947836128501"	"328.82686145551247"	"2051"	"12"	"54829056"	"2594078720"	" "	" "	" "
"06/09/2016 14:08:53.428"	"209711.23060948084"	"70.814693109831353"	"210848.25525941333"	"204.46495897909051"	"797.90279230071678"	"324.1480093721662"	"2051"	"12"	"53108736"	"2592354304"	" "	" "	" "
"06/09/2016 14:08:54.430"	"210049.89495284812"	"69.840367865384351"	"210858.04778100472"	"203.5347863505487"	"788.81537863986227"	"324.25612402587223"	"2051"	"12"	"55025664"	"2594304000"	" "	" "	" "
"06/09/2016 14:08:55.433"	"217664.97420283314"	"60.848754967199902"	"219418.61537057636"	"214.46692324504883"	"810.49629106921873"	"319.52257628690353"	"2051"	"12"	"54587392"	"2593849344"	" "	" "	" "
"06/09/2016 14:08:56.420"	"204804.83849128895"	"69.926932831406489"	"214118.29519738498"	"205.72706325761618"	"796.49237804615427"	"327.78115756571356"	"2051"	"12"	"55169024"	"2594402304"	" "	" "	" "
"06/09/2016 14:08:57.422"	"209756.12725485198"	"66.822277765983628"	"210899.0874088791"	"205.4535704446661"	"797.88862711492845"	"327.25900721510737"	"2051"	"12"	"56360960"	"2594279424"	" "	" "	" "
"06/09/2016 14:08:58.424"	"201521.11556716863"	"64.849113876261001"	"210789.55045809885"	"202.52877102893822"	"793.49848311774451"	"328.9355205065699"	"2051"	"12"	"54628352"	"2582384640"	" "	" "	" "
"06/09/2016 14:08:59.427"	"219593.44651200261"	"85.777910811276357"	"211620.0904768242"	"210.45510675789899"	"796.34399128132054"	"327.26465395122761"	"2051"	"12"	"52973568"	"2586685440"	" "	" "	" "
"06/09/2016 14:09:00.430"	"209544.24409848682"	"62.833950719210407"	"211201.8635603174"	"210.44386669449835"	"797.88114682648757"	"319.46413105357414"	"2051"	"12"	"55087104"	"2588872704"	" "	" "	" "
"06/09/2016 14:09:01.432"	"209536.82473508269"	"61.836751552073522"	"211202.4275591466"	"210.44442866915344"	"810.36064788957151"	"314.79394398787201"	"2050"	"12"	"53170176"	"2586918912"	" "	" "	" "
"06/09/2016 14:09:02.418"	"205709.72484415449"	"81.194262929152572"	"214677.6311846794"	"210.09015532918229"	"797.67164878951814"	"329.8522921435781"	"2050"	"12"	"66867200"	"2600624128"	" "	" "	" "
"06/09/2016 14:09:03.419"	"209645.81636517216"	"61.898379040147979"	"211173.30862213066"	"206.66071711791341"	"797.12137290120279"	"322.90435262338355"	"2050"	"12"	"69517312"	"2603274240"	" "	" "	" "
"06/09/2016 14:09:04.422"	"209816.42732979407"	"78.792866591181792"	"219088.05375804252"	"209.4493922044073"	"791.67059800727407"	"316.35655786511148"	"2050"	"12"	"66928640"	"2600660992"	" "	" "	" "
"06/09/2016 14:09:05.425"	"209708.05714756221"	"67.821496651927276"	"211563.17455598258"	"216.43036431570911"	"797.90525932270009"	"321.03219418061764"	"2050"	"12"	"55148544"	"2590208000"	" "	" "	" "
"06/09/2016 14:09:06.427"	"209715.33590750434"	"63.850610820244327"	"210427.6692844677"	"196.54016143106458"	"798.11668406062211"	"319.55843795396004"	"2050"	"12"	"67260416"	"2602319872"	" "	" "	" "
"06/09/2016 14:09:07.430"	"218637.40922050778"	"73.806370493805403"	"210972.51790638757"	"203.46621055049056"	"805.71241060176658"	"331.9472794162017"	"2050"	"12"	"69505024"	"2604552192"	" "	" "	" "
"06/09/2016 14:09:08.428"	"202645.96133957154"	"71.104900270869237"	"212036.81556266928"	"207.30583600098498"	"793.38805480453016"	"325.49253530442263"	"2050"	"12"	"53891072"	"2588942336"	" "	" "	" "
"06/09/2016 14:09:09.431"	"209820.44292838813"	"71.81259455261231"	"211268.66358519916"	"211.44819507158067"	"802.57336125179052"	"331.93810863423573"	"2050"	"12"	"55808000"	"2592145408"	" "	" "	" "
"06/09/2016 14:09:10.433"	"209550.9591630997"	"61.838568040210667"	"211029.10041851248"	"207.45842181231967"	"796.34867741912967"	"324.14975519213101"	"2050"	"12"	"53891072"	"2590228480"	" "	" "	" "
"06/09/2016 14:09:11.436"	"202000.23678628306"	"78.793357557479681"	"210906.87834309688"	"205.46116021317488"	"796.35892357358057"	"333.50451985273241"	"2050"	"12"	"55808000"	"2592145408"	" "	" "	" "
"06/09/2016 14:09:12.439"	"217898.99841689545"	"63.830974105537038"	"210362.95403656049"	"196.47971716860619"	"796.32238810495448"	"321.02233258242785"	"2049"	"12"	"54284288"	"2590568448"	" "	" "	" "
"06/09/2016 14:09:13.441"	"209761.44859757344"	"79.789818499034183"	"219086.88363464805"	"209.44827355996475"	"797.91202381607809"	"327.26860351831328"	"2049"	"12"	"55738368"	"2592149504"	" "	" "	" "
"06/09/2016 14:09:14.428"	"213027.94485034811"	"83.079480061488383"	"205992.53131928746"	"205.67237137173342"	"789.93020904865023"	"308.69016185267895"	"2047"	"12"	"57257984"	"2593165312"	" "	" "	" "
"06/09/2016 14:09:15.431"	"200698.61000261767"	"54.868394224793576"	"210654.7295364984"	"200.51904071242743"	"807.44335326598173"	"325.78312902044439"	"2047"	"12"	"57647104"	"2593509376"	" "	" "	" "
"06/09/2016 14:09:16.418"	"213775.32693921434"	"74.975114071432316"	"214149.18933235432"	"203.64862065348507"	"794.7126217841685"	"307.12001718352326"	"2047"	"12"	"57647104"	"2593476608"	" "	" "	" "
"06/09/2016 14:09:17.420"	"210495.66447651421"	"72.84588347825003"	"210618.40480073099"	"195.58620769502747"	"795.1866596841586"	"319.63385340245594"	"2047"	"12"	"53805056"	"2589634560"	" "	" "	" "
"06/09/2016 14:09:18.422"	"209312.87137825671"	"67.833059714249089"	"211180.27561039015"	"209.48444911753393"	"798.0601551808021"	"317.97709307985082"	"2047"	"12"	"55234560"	"2591055872"	" "	" "	" "
"06/09/2016 14:09:19.425"	"209726.7259499291"	"64.835143093053318"	"218807.63583791614"	"204.48006667809125"	"796.39260271401122"	"324.1676347642159"	"2047"	"12"	"54714368"	"2590543872"	" "	" "	" "
"06/09/2016 14:09:20.427"	"210088.24404603741"	"71.812083153631789"	"210728.56845415727"	"202.47017889148964"	"797.90852218165742"	"313.24143155959598"	"2047"	"12"	"57155584"	"2592985088"	" "	" "	" "
"06/09/2016 14:09:21.430"	"209921.71495179439"	"70.813022679913161"	"211022.80758614122"	"207.452235456647"	"797.9048614148968"	"327.26566581470371"	"2046"	"12"	"53645312"	"2589487104"	" "	" "	" "
"06/09/2016 14:09:22.433"	"210087.12197607878"	"72.809084325970389"	"219149.35951287011"	"210.44817524355824"	"808.81097418666843"	"331.93976397256336"	"2046"	"12"	"55414784"	"2591264768"	" "	" "	" "
"06/09/2016 14:09:23.420"	"213141.02849040719"	"67.883180468784616"	"205023.4159244982"	"189.46499623377198"	"796.30152358982627"	"329.28571949638939"	"2046"	"12"	"53628928"	"2589487104"	" "	" "	" "
"06/09/2016 14:09:24.422"	"210197.83327287593"	"74.804919170307826"	"218793.41718500541"	"204.46677906550806"	"790.12164793929799"	"317.91876958504292"	"2047"	"12"	"55545856"	"2593366016"	" "	" "	" "
"06/09/2016 14:09:25.425"	"209842.80308810715"	"64.827554055004327"	"202202.1278324858"	"189.49592723770493"	"796.31992605264077"	"330.37147617056723"	"2046"	"12"	"53760000"	"2588815360"	" "	" "	" "
"06/09/2016 14:09:26.427"	"210552.57253278335"	"79.793298859404956"	"210609.42525822067"	"195.49358220554214"	"797.92913451718755"	"317.92488953419189"	"2046"	"12"	"55775232"	"2592174080"	" "	" "	" "
"06/09/2016 14:09:27.430"	"209930.23101100378"	"67.858494204195779"	"218608.13491688154"	"199.58380648292876"	"798.3248749149659"	"310.28642599234024"	"2046"	"12"	"53858304"	"2590277632"	" "	" "	" "
"06/09/2016 14:09:28.432"	"201313.41450033928"	"61.858473832213441"	"202492.71637243082"	"196.55031201525884"	"810.65907430815366"	"330.49946875640109"	"2046"	"12"	"55681024"	"2592096256"	" "	" "	" "
"06/09/2016 14:09:29.419"	"213953.77351476869"	"85.104115841804401"	"222612.10415743606"	"213.77343384072296"	"796.26441241752536"	"327.68734268474702"	"2046"	"12"	"57724928"	"2594140160"	" "	" "	" "
"06/09/2016 14:09:30.421"	"217740.72117933951"	"60.839817840082219"	"203081.31720206855"	"207.45380509405084"	"794.804058545055"	"319.48006274850252"	"2046"	"12"	"59920384"	"2596339712"	" "	" "	" "
"06/09/2016 14:09:31.424"	"209997.27399212302"	"70.806215705035498"	"210625.55449767475"	"201.44867003404465"	"797.81581963059728"	"314.76327258863409"	"2046"	"12"	"54157312"	"2590576640"	" "	" "	" "
"06/09/2016 14:09:32.427"	"210399.31824327633"	"77.791956954217127"	"210836.15000155769"	"204.45322020018602"	"797.88043063601549"	"324.13892494588129"	"2046"	"12"	"59920384"	"2595020800"	" "	" "	" "
"06/09/2016 14:09:33.429"	"210953.65081259888"	"87.771847412831562"	"219333.86742581037"	"213.44517439029494"	"797.90884051078933"	"322.59205075338554"	"2046"	"12"	"58003456"	"2593099776"	" "	" "	" "
"06/09/2016 14:09:34.432"	"202536.28489152892"	"74.838261880165291"	"203344.5381198347"	"203.56007231404959"	"802.95248028060962"	"324.29925417158603"	"2046"	"12"	"59920384"	"2596478976"	" "	" "	" "
"06/09/2016 14:09:35.419"	"213472.48445175696"	"75.989768638020294"	"214068.24423787906"	"205.67897378024159"	"793.13250217859718"	"332.4507494161785"	"2046"	"12"	"57999360"	"2596343808"	" "	" "	" "
"06/09/2016 14:09:36.421"	"210403.80086605137"	"77.813532286836008"	"210774.9115584963"	"202.51470582343217"	"794.96041733090021"	"319.54291284869521"	"2039"	"12"	"66936832"	"2584629248"	" "	" "	" "
"06/09/2016 14:09:37.424"	"209485.35170477635"	"62.83244061911271"	"211196.78770640169"	"210.43880905766318"	"794.76014325878839"	"325.6958234138956"	"2039"	"12"	"68853760"	"2585419776"	" "	" "	" "
"06/09/2016 14:09:38.426"	"210031.58055038899"	"70.813747573783459"	"210288.90374579793"	"195.48583837269803"	"796.34017887090772"	"319.47110894038371"	"2041"	"12"	"66936832"	"2587815936"	" "	" "	" "
"06/09/2016 14:09:39.429"	"209918.81866155734"	"68.8173401606238"	"210900.21377341318"	"205.45466772592036"	"793.22686859440466"	"322.58931591167345"	"2039"	"12"	"68919296"	"2585571328"	" "	" "	" "
"06/09/2016 14:09:40.432"	"210130.78655143839"	"72.805552267077061"	"210537.69977506806"	"199.46726648514266"	"807.19895306233468"	"333.47601535779842"	"2039"	"12"	"53305344"	"2569957376"	" "	" "	" "
"06/09/2016 14:09:41.417"	"213181.37006029798"	"62.942258887273084"	"214612.79885112145"	"208.11553341759651"	"799.46276102459149"	"329.93701248633937"	"2039"	"12"	"55681024"	"2573443072"	" "	" "	" "
"06/09/2016 14:09:42.418"	"209809.42030209713"	"62.897300425559209"	"210636.07053626163"	"197.67722990890039"	"797.1377668711167"	"319.79108064301158"	"2039"	"12"	"57675776"	"2577072128"	" "	" "	" "
"06/09/2016 14:09:43.422"	"201603.08742472177"	"63.737304974372854"	"218750.41425360853"	"202.1667642155889"	"796.71165232618887"	"326.77626364941341"	"2045"	"12"	"61407232"	"2593222656"	" "	" "	" "
"06/09/2016 14:09:44.424"	"218658.48355305515"	"76.874307053298594"	"211414.32807281183"	"210.65556867851953"	"790.9095483517732"	"338.51552661210019"	"2045"	"12"	"54288384"	"2586095616"	" "	" "	" "
"06/09/2016 14:09:45.426"	"209381.84411575587"	"62.866043517989112"	"210711.01189299335"	"200.5726150335843"	"796.75038106808836"	"328.99086185003256"	"2045"	"12"	"56205312"	"2588082176"	" "	" "	" "
"06/09/2016 14:09:46.428"	"210569.00586282782"	"82.824181515215471"	"211071.93824214913"	"206.56151293553739"	"798.30113535385351"	"319.63229052253894"	"2045"	"12"	"59949056"	"2591825920"	" "	" "	" "
"06/09/2016 14:09:47.427"	"202158.82498535814"	"74.081654825868114"	"211633.26797552052"	"205.22620593652653"	"800.8959623130396"	"331.62098439524294"	"2045"	"12"	"57606144"	"2589487104"	" "	" "	" "
"06/09/2016 14:09:48.430"	"217842.52325849468"	"63.830207069542716"	"210420.2669926894"	"197.47470312139777"	"800.98221238542658"	"316.34122395766843"	"2045"	"12"	"55689216"	"2587570176"	" "	" "	" "
"06/09/2016 14:09:49.432"	"200866.43157878341"	"53.858007632993228"	"210724.44171664462"	"202.46621387958567"	"807.27044594741506"	"331.94711387413014"	"2045"	"12"	"57790464"	"2589671424"	" "	" "	" "
"06/09/2016 14:09:50.435"	"217574.6920858103"	"61.835925910925589"	"210780.71906475828"	"203.46014331981968"	"794.75419842151223"	"313.22665467200778"	"2045"	"12"	"58249216"	"2590130176"	" "	" "	" "
"06/09/2016 14:09:51.438"	"201729.77581964093"	"69.816495141772307"	"218609.40958791744"	"201.47045740911435"	"797.90812427059973"	"325.70858979014719"	"2045"	"12"	"60170240"	"2591936512"	" "	" "	" "
"06/09/2016 14:09:52.440"	"219498.3283634308"	"83.787886530252521"	"211871.63573949854"	"214.45709052386061"	"796.41524241645618"	"328.85247778839971"	"2048"	"12"	"58253312"	"2588241920"	" "	" "	" "
