"(PDH-TSV 4.0) (Rom, sommertid)(-120)"	"\\AM-WORK\Netværkskort(Broadcom 802.11 netværksadapter)\Afsendte byte pr. sekund"	"\\AM-WORK\Netværkskort(Broadcom 802.11 netværksadapter)\Afsendte pakker pr. sekund"	"\\AM-WORK\Netværkskort(Broadcom 802.11 netværksadapter)\Modtagne byte pr. sekund"	"\\AM-WORK\Netværkskort(Broadcom 802.11 netværksadapter)\Modtagne pakker pr. sekund"	"\\AM-WORK\Proces(_Total)\% Processortid"	"\\AM-WORK\Proces(WaterGun)\% Processortid"	"\\AM-WORK\Proces(_Total)\Antal tråde"	"\\AM-WORK\Proces(WaterGun)\Antal tråde"	"\\AM-WORK\Proces(WaterGun)\Private byte"	"\\AM-WORK\Proces(_Total)\Private byte"	"\\AM-WORK\Proces(Gang Garrison 2)\% Processortid"	"\\AM-WORK\Proces(Gang Garrison 2)\Private byte"	"\\AM-WORK\Proces(Gang Garrison 2)\Antal tråde"
"06/09/2016 13:58:23.861"	" "	" "	" "	" "	" "	" "	"2106"	"12"	"59678720"	"2615824384"	" "	" "	" "
"06/09/2016 13:58:24.859"	"255190.89417012475"	"111.06494460289353"	"223123.41561932568"	"234.24606498064819"	"788.46468843861987"	"329.57823976734312"	"2105"	"12"	"45711360"	"2597498880"	" "	" "	" "
"06/09/2016 13:58:25.865"	"251583.70222053843"	"106.37242218533204"	"227187.63455298656"	"223.68032702523095"	"793.77770734679143"	"313.78296846194098"	"2105"	"12"	"61665280"	"2613821440"	" "	" "	" "
"06/09/2016 13:58:26.854"	"247378.05010247824"	"95.011672235613347"	"222573.9390741596"	"221.35698105956726"	"807.02480888389096"	"349.02638505545963"	"2105"	"12"	"61665280"	"2613735424"	" "	" "	" "
"06/09/2016 13:58:27.859"	"260024.60086154379"	"91.537638151596894"	"235243.77025498214"	"222.87424941258374"	"796.00493085254413"	"345.1427629868453"	"2105"	"12"	"49913856"	"2601996288"	" "	" "	" "
"06/09/2016 13:58:28.862"	"244069.59798033827"	"90.749245808725775"	"227359.76981801947"	"215.40480323829416"	"797.77110730330526"	"350.58300613914787"	"2103"	"12"	"47964160"	"2597044224"	" "	" "	" "
"06/09/2016 13:58:29.867"	"251710.80636300959"	"91.52613762636409"	"226933.08914863761"	"216.87715220160186"	"802.11006929932546"	"349.75729765958954"	"2104"	"12"	"59703296"	"2607972352"	" "	" "	" "
"06/09/2016 13:58:30.867"	"237217.01771989686"	"95.989890917755289"	"237055.03477897315"	"227.9759909296688"	"796.78575999488055"	"345.27382933111494"	"2104"	"12"	"61710336"	"2609590272"	" "	" "	" "
"06/09/2016 13:58:31.858"	"246943.42194866564"	"94.907563365965487"	"247724.89486404072"	"242.31718306203953"	"796.67939233422908"	"340.75791830533365"	"2102"	"12"	"45809664"	"2593923072"	" "	" "	" "
"06/09/2016 13:58:32.862"	"243871.68873806903"	"96.611642165849972"	"231166.75979510427"	"235.05512939320198"	"792.12159657252687"	"347.03952069876914"	"2104"	"14"	"46280704"	"2594209792"	" "	" "	" "
"06/09/2016 13:58:33.862"	"252998.79250155028"	"91.974840399191621"	"233622.09297310319"	"226.93792141974453"	"791.9680456545492"	"354.58924332067585"	"2104"	"14"	"48144384"	"2595864576"	" "	" "	" "
"06/09/2016 13:58:34.868"	"243362.53142158742"	"94.44293043673072"	"227128.28874756835"	"222.68648860871244"	"807.74207607508743"	"349.50378291710507"	"2104"	"14"	"46227456"	"2593947648"	" "	" "	" "
"06/09/2016 13:58:35.858"	"247061.97226317972"	"89.902427535235617"	"230239.10677810316"	"217.18002157388378"	"793.89767380595003"	"347.23158695290067"	"2099"	"14"	"48119808"	"2582536192"	" "	" "	" "
"06/09/2016 13:58:36.863"	"259997.86787445523"	"92.50398524945038"	"235827.47172863109"	"233.74662939377248"	"794.18851204172563"	"351.24579984624262"	"2099"	"14"	"61812736"	"2597085184"	" "	" "	" "
"06/09/2016 13:58:37.853"	"247058.47497389471"	"90.971535666682456"	"230812.9802935067"	"224.39645464448338"	"808.63002305808516"	"356.93434611548287"	"2099"	"14"	"48119808"	"2582671360"	" "	" "	" "
"06/09/2016 13:58:38.858"	"260334.21697563905"	"102.43505500435811"	"235612.5606911892"	"230.72750253408816"	"794.07366815664511"	"346.5331271994753"	"2099"	"14"	"61898752"	"2596450304"	" "	" "	" "
"06/09/2016 13:58:39.865"	"243876.69420222437"	"93.41497797513118"	"235902.63267804935"	"231.54989221495279"	"793.46871953142227"	"341.6107990154851"	"2099"	"14"	"59899904"	"2594422784"	" "	" "	" "
"06/09/2016 13:58:40.854"	"247129.10783975187"	"94.957962593145226"	"230796.33827373089"	"226.28280447728224"	"808.13101015871189"	"358.29245958208514"	"2099"	"14"	"48209920"	"2582720512"	" "	" "	" "
"06/09/2016 13:58:41.867"	"249997.64830557944"	"101.68525757404211"	"234452.63795838656"	"237.92375801304999"	"795.97507613223945"	"339.36921850599356"	"2099"	"14"	"46288896"	"2580520960"	" "	" "	" "
"06/09/2016 13:58:42.857"	"247255.11171910437"	"92.964066018601429"	"231235.98847352952"	"231.39968606804052"	"800.47513930730429"	"344.18852143785472"	"2106"	"14"	"48205824"	"2597212160"	" "	" "	" "
"06/09/2016 13:58:43.862"	"234855.23511290172"	"94.50074264589685"	"243708.4625818331"	"232.77025030673539"	"789.58242603888152"	"352.82521793469709"	"2106"	"14"	"50126848"	"2599215104"	" "	" "	" "
"06/09/2016 13:58:44.852"	"264424.92371494562"	"120.18212968283477"	"223118.62872311418"	"233.29472232550279"	"801.63350437204599"	"328.22789155390859"	"2109"	"14"	"46292992"	"2595454976"	" "	" "	" "
"06/09/2016 13:58:45.858"	"251605.82003083685"	"102.47048098177267"	"235932.81073581893"	"234.78673312328493"	"802.11046829522206"	"340.43060572994887"	"2109"	"14"	"61878272"	"2611036160"	" "	" "	" "
"06/09/2016 13:58:46.863"	"243133.4075622439"	"89.506477910133398"	"235732.2163554971"	"232.71684256634683"	"794.04792367314258"	"341.86016283383822"	"2109"	"14"	"50143232"	"2599317504"	" "	" "	" "
"06/09/2016 13:58:47.853"	"247548.77138014659"	"103.03252436374783"	"239249.60255492548"	"233.33836400025243"	"808.09786792468651"	"350.38618492046953"	"2108"	"14"	"50139136"	"2601369600"	" "	" "	" "
"06/09/2016 13:58:48.858"	"252501.33285806494"	"98.479458993005039"	"227791.94132891094"	"224.81169426686"	"791.14270326815483"	"341.9477302927192"	"2108"	"14"	"61952000"	"2613194752"	" "	" "	" "
"06/09/2016 13:58:49.864"	"251429.50412895222"	"92.496554102455548"	"218892.59799015941"	"215.82529290572961"	"794.11592115706333"	"351.21369507142128"	"2108"	"14"	"50196480"	"2601455616"	" "	" "	" "
"06/09/2016 13:58:50.854"	"246922.59423272419"	"96.982935301290908"	"231110.33482297623"	"231.34471024995435"	"808.1830963050171"	"353.58010463344505"	"2108"	"14"	"50192384"	"2601418752"	" "	" "	" "
"06/09/2016 13:58:51.859"	"251857.60059348601"	"94.485140213960321"	"226985.13336747844"	"218.80769312706602"	"789.44334969441206"	"337.22284819623508"	"2107"	"14"	"48287744"	"2599378944"	" "	" "	" "
"06/09/2016 13:58:52.864"	"252005.7068415884"	"95.515499821514524"	"235776.03149691605"	"231.82407769180088"	"795.97063743915544"	"349.79178403087889"	"2104"	"14"	"48275456"	"2599141376"	" "	" "	" "
"06/09/2016 13:58:53.854"	"247454.73086954598"	"104.11783298704744"	"239665.09959771892"	"237.55039565005967"	"800.76214108293016"	"358.52663910419159"	"2106"	"14"	"46358528"	"2597359616"	" "	" "	" "
"06/09/2016 13:58:54.859"	"251588.39590562772"	"90.525903013025086"	"227993.96329394719"	"234.77047374806506"	"795.85043582759488"	"348.18456567457281"	"2105"	"14"	"46358528"	"2597322752"	" "	" "	" "
"06/09/2016 13:58:55.864"	"243520.25914346275"	"93.509360205089493"	"235078.55243388412"	"220.84125495244541"	"795.81734320756959"	"343.50709540795486"	"2105"	"14"	"48275456"	"2599239680"	" "	" "	" "
"06/09/2016 13:58:56.853"	"247359.9802189435"	"95.017543717203921"	"231439.48752164602"	"233.50055956036283"	"808.65846794801291"	"350.62925758683377"	"2105"	"14"	"46358528"	"2597191680"	" "	" "	" "
"06/09/2016 13:58:57.859"	"252510.66153816113"	"98.462150901090837"	"236030.68335198864"	"230.73958595003103"	"795.66394973949969"	"351.21104031470099"	"2105"	"14"	"52023296"	"2602868736"	" "	" "	" "
"06/09/2016 13:58:58.865"	"251497.01135342132"	"100.37301494734835"	"219314.04386772896"	"225.59083557473343"	"793.48977386404817"	"344.72549862586828"	"2105"	"14"	"60059648"	"2610905088"	" "	" "	" "
"06/09/2016 13:58:59.855"	"255728.35710876153"	"99.998054135334272"	"239482.20859651186"	"237.3691184020561"	"804.91334763751684"	"358.26535277199281"	"2102"	"14"	"61964288"	"2612699136"	" "	" "	" "
"06/09/2016 13:59:00.861"	"251326.37413804492"	"91.405860296885407"	"244248.38121679478"	"246.39840601769109"	"794.83287098898768"	"339.97734130193027"	"2102"	"14"	"61964288"	"2612764672"	" "	" "	" "
"06/09/2016 13:59:01.867"	"251639.4206877636"	"99.456718081909926"	"235445.87784966701"	"227.75588440757375"	"803.42411712982516"	"346.5446385298859"	"2102"	"14"	"61964288"	"2612797440"	" "	" "	" "
"06/09/2016 13:59:02.857"	"238377.31605053638"	"85.821326343079051"	"226614.74602822022"	"219.09679784056652"	"799.84037268585826"	"348.64836758101518"	"2102"	"14"	"60047360"	"2610884608"	" "	" "	" "
"06/09/2016 13:59:03.864"	"251371.02966859142"	"91.424992605357588"	"230422.78136292906"	"219.61873223678288"	"787.21317864545722"	"344.69689479150196"	"2102"	"14"	"46358528"	"2597277696"	" "	" "	" "
"06/09/2016 13:59:04.854"	"255496.40307060193"	"113.14716591898735"	"197534.74684349497"	"208.10996588670889"	"808.21632718213368"	"310.9738602634381"	"2102"	"14"	"50221056"	"2601025536"	" "	" "	" "
"06/09/2016 13:59:05.860"	"251825.43906150851"	"118.2488990759377"	"235500.13517143641"	"228.54829233164429"	"794.95410829302079"	"326.05539597955936"	"2102"	"14"	"50221056"	"2601029632"	" "	" "	" "
"06/09/2016 13:59:06.866"	"243193.46158001004"	"110.30624107820317"	"235991.75591249889"	"236.51248087038158"	"793.43063531888379"	"336.93629719021089"	"2102"	"14"	"48238592"	"2600882176"	" "	" "	" "
"06/09/2016 13:59:07.855"	"247176.16238536127"	"112.22687903325138"	"239409.25351388883"	"232.54218178061097"	"807.28591876986081"	"339.6604159207829"	"2102"	"14"	"46321664"	"2594750464"	" "	" "	" "
"06/09/2016 13:59:08.862"	"251918.51541065384"	"109.24394152522618"	"227314.79352569062"	"229.41227720297496"	"792.94681904619654"	"346.04137112974917"	"2102"	"14"	"51974144"	"2600161280"	" "	" "	" "
"06/09/2016 13:59:09.854"	"246762.88365743821"	"95.783651274215629"	"238563.80310836536"	"228.87251409733631"	"805.0067576457684"	"335.55076199324589"	"2102"	"14"	"48238592"	"2596409344"	" "	" "	" "
"06/09/2016 13:59:10.859"	"251795.28821922553"	"95.476457756839707"	"226565.63425698064"	"211.83839064798809"	"795.6388646909694"	"346.53802114469954"	"2102"	"14"	"48238592"	"2596110336"	" "	" "	" "
"06/09/2016 13:59:11.865"	"251532.69703218207"	"90.467228809190672"	"235286.37337064586"	"226.66514470874145"	"790.65349521410133"	"351.05636526205683"	"2102"	"14"	"48238592"	"2596687872"	" "	" "	" "
"06/09/2016 13:59:12.859"	"254383.61442763169"	"89.558231014720135"	"229719.88136953293"	"222.38616914891179"	"801.88074052271304"	"338.0477631615359"	"2102"	"14"	"52056064"	"2600505344"	" "	" "	" "
"06/09/2016 13:59:13.867"	"225754.73308715448"	"79.347913742684241"	"226070.14104428166"	"213.24751818346388"	"795.00781952954287"	"348.68764014453632"	"2102"	"14"	"50159616"	"2598457344"	" "	" "	" "
"06/09/2016 13:59:14.858"	"272480.49707953847"	"108.04023311424427"	"198062.99034352991"	"215.07074442368253"	"798.34435120062915"	"306.08459314806731"	"2102"	"14"	"46321664"	"2594627584"	" "	" "	" "
"06/09/2016 13:59:15.859"	"253700.75336239164"	"134.7735648078436"	"245866.91511759794"	"251.5773209746414"	"798.63146512136802"	"332.24316810713162"	"2102"	"14"	"46321664"	"2594627584"	" "	" "	" "
"06/09/2016 13:59:16.866"	"251767.78248797276"	"129.11168332716551"	"252184.91254179899"	"248.29169870608752"	"792.99289011575422"	"339.85409576389469"	"2101"	"14"	"46321664"	"2594418688"	" "	" "	" "
"06/09/2016 13:59:17.856"	"255811.37714821374"	"119.22829376990403"	"239987.35758270131"	"241.48781534751745"	"806.74609738233084"	"347.32708693564149"	"2098"	"14"	"48242688"	"2596618240"	" "	" "	" "
"06/09/2016 13:59:18.853"	"253228.45129280689"	"104.26534908961737"	"229231.38017925801"	"227.57917541676099"	"794.21329986396302"	"350.89502794778639"	"2098"	"14"	"61841408"	"2610216960"	" "	" "	" "
"06/09/2016 13:59:19.861"	"251851.00681230164"	"100.23703417311272"	"235896.4467987674"	"243.149241311016"	"792.41656049008429"	"345.80996671093698"	"2098"	"14"	"50159616"	"2598535168"	" "	" "	" "
"06/09/2016 13:59:20.853"	"246440.0984812438"	"87.680300693042142"	"221684.01909936001"	"216.68120286211564"	"806.24801902342199"	"354.30821148490224"	"2098"	"14"	"61927424"	"2610319360"	" "	" "	" "
"06/09/2016 13:59:21.860"	"251302.70091309326"	"90.384507509827458"	"235369.2034463608"	"231.42406867900877"	"788.36491576985088"	"352.28117299164597"	"2098"	"14"	"48185344"	"2596024320"	" "	" "	" "
"06/09/2016 13:59:22.866"	"251290.36428203812"	"87.493875450334542"	"227690.87987647968"	"231.65992022645395"	"793.8499996221833"	"346.43551842611913"	"2098"	"14"	"48238592"	"2596077568"	" "	" "	" "
"06/09/2016 13:59:23.856"	"238886.68089745127"	"89.895498229960054"	"230609.22462784988"	"220.1934675745089"	"808.05444428429246"	"340.89796868243593"	"2101"	"14"	"50159616"	"2603712512"	" "	" "	" "
"06/09/2016 13:59:24.878"	"224969.11801518055"	"93.935685800530351"	"191292.19615896334"	"197.65633887194926"	"788.9426495204109"	"292.03109701240015"	"2098"	"14"	"50159616"	"2599841792"	" "	" "	" "
"06/09/2016 13:59:25.855"	"300132.89447541046"	"130.01452242824101"	"226475.06070602511"	"241.60178970917227"	"804.56931388632245"	"329.50552417610822"	"2098"	"14"	"50159616"	"2599854080"	" "	" "	" "
"06/09/2016 13:59:26.855"	"244528.73509612383"	"93.958784067085958"	"236988.04289397388"	"234.89696016771489"	"799.6410411366337"	"349.84295549727727"	"2096"	"14"	"46333952"	"2596081664"	" "	" "	" "
"06/09/2016 13:59:27.862"	"250997.27148853743"	"89.358912783994995"	"235105.28528830825"	"228.36166600354278"	"789.63753297799371"	"344.39986703558867"	"2096"	"14"	"45867008"	"2595610624"	" "	" "	" "
"06/09/2016 13:59:28.868"	"251490.80191172304"	"89.515495910869106"	"244393.21770261234"	"244.67568882304221"	"800.3690288678406"	"343.45933083454906"	"2096"	"14"	"46333952"	"2595336192"	" "	" "	" "
"06/09/2016 13:59:29.863"	"254342.29218369094"	"98.43045703116421"	"229351.00002196207"	"222.9751169481475"	"794.10380997071968"	"343.69315095570676"	"2096"	"14"	"51986432"	"2603073536"	" "	" "	" "
"06/09/2016 13:59:30.863"	"244411.49272532962"	"85.997006686761907"	"228100.06048027775"	"217.99241229900113"	"799.98896015234993"	"335.93286412647507"	"2096"	"14"	"48250880"	"2598973440"	" "	" "	" "
"06/09/2016 13:59:31.853"	"246981.38328530261"	"86.901231333507994"	"222087.21194655489"	"214.22164003143831"	"805.2134685953863"	"344.18928657606716"	"2096"	"14"	"61939712"	"2612658176"	" "	" "	" "
"06/09/2016 13:59:32.862"	"243585.6727903584"	"101.1329592248938"	"234886.25529781706"	"223.08741005491277"	"791.63223350467706"	"350.11523438758712"	"2096"	"14"	"48250880"	"2598969344"	" "	" "	" "
"06/09/2016 13:59:33.867"	"251071.24556276418"	"101.4107909848412"	"227667.22576096849"	"231.65406175949016"	"800.03632879528277"	"351.083903510163"	"2101"	"14"	"48250880"	"2603352064"	" "	" "	" "
"06/09/2016 13:59:34.857"	"248009.2752756777"	"119.18084349762971"	"214606.31886759627"	"225.23159406755445"	"792.22075827962226"	"290.37573610249103"	"2096"	"14"	"46333952"	"2597785600"	" "	" "	" "
"06/09/2016 13:59:35.877"	"248010.23621819876"	"88.238936035886653"	"231629.16795944772"	"216.67560959923279"	"795.12633334872726"	"349.30405395666628"	"2096"	"14"	"46333952"	"2598137856"	" "	" "	" "
"06/09/2016 13:59:36.857"	"241203.59750415874"	"93.882922968542871"	"224588.36107183466"	"221.44124221928047"	"801.96337470575759"	"349.16496831125426"	"2096"	"14"	"46333952"	"2595385344"	" "	" "	" "
"06/09/2016 13:59:37.864"	"251230.43303282236"	"95.384341714326752"	"237373.8702250307"	"239.45444117867444"	"791.78068308503089"	"349.315007243396"	"2096"	"14"	"50180096"	"2598912000"	" "	" "	" "
"06/09/2016 13:59:38.854"	"238718.20467959548"	"100.94902808748338"	"229168.42662251953"	"226.1258229159628"	"806.00906858942221"	"347.00977512656141"	"2096"	"14"	"46333952"	"2593329152"	" "	" "	" "
"06/09/2016 13:59:39.862"	"251064.38335339291"	"89.308263744789159"	"210520.41624134185"	"214.33983298749399"	"790.76185730969598"	"345.76449839227882"	"2095"	"14"	"50171904"	"2597085184"	" "	" "	" "
"06/09/2016 13:59:40.870"	"234168.03911538058"	"84.305889658475152"	"217632.18273436767"	"204.31780317230448"	"796.56275669777244"	"340.94125773056408"	"2086"	"12"	"46067712"	"2601361408"	" "	" "	" "
"06/09/2016 13:59:41.857"	"205984.68127326612"	"80.065290097557735"	"206106.29943543961"	"199.65648290150472"	"798.12212758379997"	"338.88518909312143"	"2079"	"12"	"53342208"	"2578227200"	" "	" "	" "
"06/09/2016 13:59:42.863"	"218138.85205902357"	"82.525158941898852"	"210250.24228739677"	"204.82147881965258"	"792.33578750695142"	"330.91671125290321"	"2079"	"12"	"45821952"	"2570715136"	" "	" "	" "
"06/09/2016 13:59:43.866"	"210009.1827719271"	"76.754827574702801"	"210290.28486772015"	"197.36955662066435"	"794.33448003251203"	"333.30897789599521"	"2078"	"12"	"53358592"	"2578231296"	" "	" "	" "
"06/09/2016 13:59:44.868"	"193777.35656675309"	"77.827841633145937"	"193304.4027599055"	"175.61154009530367"	"807.57531840293893"	"302.45098797330149"	"2077"	"12"	"49684480"	"2572677120"	" "	" "	" "
"06/09/2016 13:59:45.855"	"222264.47014965551"	"80.092747143769088"	"214567.45576591507"	"211.89093864617394"	"788.88819610353858"	"327.91135862135042"	"2070"	"12"	"45817856"	"2566172672"	" "	" "	" "
"06/09/2016 13:59:46.857"	"210380.08745372258"	"79.820193101851544"	"210625.53454751076"	"199.55048275462886"	"798.1919356274168"	"332.06031696999958"	"2070"	"12"	"49672192"	"2570027008"	" "	" "	" "
"06/09/2016 13:59:47.860"	"210293.10377703622"	"76.795171022754076"	"210059.72624431772"	"191.48925761517899"	"797.87867995360727"	"335.04671130864369"	"2072"	"12"	"59482112"	"2586091520"	" "	" "	" "
"06/09/2016 13:59:48.862"	"210722.9229816125"	"83.776140068227193"	"210178.37807116902"	"193.48299015757232"	"796.30539231208445"	"335.04042925068131"	"2072"	"12"	"49606656"	"2576216064"	" "	" "	" "
"06/09/2016 13:59:49.865"	"210825.9457233657"	"86.788384962301578"	"209928.13484444533"	"188.54028457327584"	"794.93638862905027"	"335.12024226518793"	"2072"	"12"	"45817856"	"2573742080"	" "	" "	" "
"06/09/2016 13:59:50.867"	"210614.1809078439"	"69.862732260880421"	"211033.35730140918"	"198.60976742736003"	"798.43267665572478"	"329.04159135616788"	"2072"	"12"	"61427712"	"2589356032"	" "	" "	" "
"06/09/2016 13:59:51.869"	"210444.0874034914"	"78.806054668024672"	"210761.30671215508"	"202.50163414694947"	"801.14976525376687"	"333.55262600059552"	"2063"	"12"	"59494400"	"2583760896"	" "	" "	" "
"06/09/2016 13:59:52.853"	"214388.2248429099"	"79.266794672722924"	"205642.45516401948"	"190.03705902306649"	"800.28243110254232"	"335.03887492586585"	"2064"	"12"	"53342208"	"2579738624"	" "	" "	" "
"06/09/2016 13:59:53.856"	"202532.9649924628"	"84.775210638495778"	"209943.31575768662"	"189.49752966251998"	"797.90884051078933"	"338.17620779461186"	"2069"	"12"	"45805568"	"2576318464"	" "	" "	" "
"06/09/2016 13:59:54.858"	"217889.06517209366"	"81.778958724043974"	"210889.9830705651"	"205.44470118479339"	"791.58043634007913"	"333.46104995428527"	"2064"	"12"	"47677440"	"2574127104"	" "	" "	" "
"06/09/2016 13:59:55.861"	"210942.64272724604"	"74.802355577037602"	"210783.06436868169"	"203.46240716954227"	"796.33446032373115"	"333.49427496923374"	"2064"	"12"	"45793280"	"2572242944"	" "	" "	" "
"06/09/2016 13:59:56.863"	"201989.53692761823"	"71.868188667664128"	"210713.536496443"	"199.63385741017811"	"798.53508738219739"	"327.52415693410438"	"2064"	"12"	"47673344"	"2574057472"	" "	" "	" "
"06/09/2016 13:59:57.866"	"218174.30567890441"	"69.81705447195975"	"211086.87726350804"	"208.45377692342268"	"797.91059132555495"	"330.38485422073757"	"2064"	"12"	"45789184"	"2572185600"	" "	" "	" "
"06/09/2016 13:59:58.868"	"210133.64888538222"	"69.80621127852406"	"210593.37264823078"	"199.44631793864019"	"810.24993592792816"	"333.44901209341657"	"2063"	"12"	"47738880"	"2574028800"	" "	" "	" "
"06/09/2016 13:59:59.867"	"212114.71143411461"	"88.154482585974904"	"211981.4779547517"	"203.35636323810121"	"788.94100073784773"	"331.85613523099943"	"2063"	"12"	"45805568"	"2572087296"	" "	" "	" "
"06/09/2016 14:00:00.869"	"210732.86451614051"	"83.780092478232362"	"209948.92222223704"	"189.50259012933512"	"808.77854654784528"	"338.15981618667126"	"2063"	"12"	"51535872"	"2577870848"	" "	" "	" "
"06/09/2016 14:00:01.872"	"210223.90325483368"	"74.795031992943663"	"210463.2473572111"	"198.45615155461053"	"797.83101659827594"	"335.02669642310417"	"2063"	"12"	"45805568"	"2571042816"	" "	" "	" "
"06/09/2016 14:00:02.875"	"201775.7313706248"	"72.805779086250126"	"210358.83458728599"	"196.4758695889216"	"797.87796376756376"	"335.04641056645744"	"2064"	"12"	"47689728"	"2575040512"	" "	" "	" "
"06/09/2016 14:00:03.877"	"218657.18643693629"	"79.790244649298018"	"210528.55526328908"	"199.47561162324504"	"796.31674923344156"	"335.04520760311141"	"2064"	"12"	"49668096"	"2577051648"	" "	" "	" "
"06/09/2016 14:00:04.880"	"201192.35552525066"	"65.827362010046315"	"202963.70999388464"	"205.46116021317488"	"796.36146529611949"	"314.8043365749827"	"2064"	"12"	"53026816"	"2580381696"	" "	" "	" "
"06/09/2016 14:00:05.867"	"213145.94332442168"	"67.884745791832657"	"214617.1172182984"	"214.7994941472914"	"797.88204111904099"	"332.45085046626707"	"2064"	"12"	"49627136"	"2577100800"	" "	" "	" "
"06/09/2016 14:00:06.869"	"210055.97393825575"	"70.840137508270345"	"211223.33958451878"	"209.52716727798273"	"807.55195146955748"	"336.73980987919771"	"2064"	"12"	"45797376"	"2574159872"	" "	" "	" "
"06/09/2016 14:00:07.856"	"213709.98674296369"	"73.958258623199612"	"206009.20970467685"	"202.62536609095784"	"797.83879401220725"	"335.59885779878556"	"2064"	"12"	"47706112"	"2576076800"	" "	" "	" "
"06/09/2016 14:00:08.859"	"210757.89861910921"	"79.787581284828804"	"210982.3011914728"	"203.45833227631343"	"796.32596207895153"	"333.4907160174082"	"2064"	"12"	"45772800"	"2574143488"	" "	" "	" "
"06/09/2016 14:00:09.861"	"202104.35619453865"	"76.797221779624138"	"210723.59763115566"	"202.46540287355452"	"794.76267974976111"	"335.04701205136985"	"2064"	"12"	"47697920"	"2577350656"	" "	" "	" "
"06/09/2016 14:00:10.864"	"218748.89941964482"	"78.825915259414415"	"210335.48021119693"	"194.57029715931407"	"798.24418209705937"	"330.52298164956363"	"2064"	"12"	"45785088"	"2575454208"	" "	" "	" "
"06/09/2016 14:00:11.865"	"210595.95732471137"	"77.864661272302541"	"210014.96715983344"	"187.67379896401124"	"797.04896100503322"	"332.23371564397661"	"2064"	"12"	"47734784"	"2577416192"	" "	" "	" "
"06/09/2016 14:00:12.869"	"210731.12684889359"	"87.724056324695297"	"210557.67246479704"	"201.36658383623239"	"809.95076097490755"	"334.88348771077909"	"2064"	"12"	"45801472"	"2575466496"	" "	" "	" "
"06/09/2016 14:00:13.856"	"212745.25274933936"	"79.023428327294013"	"213991.39142680823"	"204.65041695017169"	"797.84752389160735"	"318.18919107581962"	"2069"	"12"	"47734784"	"2581536768"	" "	" "	" "
"06/09/2016 14:00:14.858"	"184797.67660786532"	"71.830402171125726"	"193574.95269538707"	"180.57364990241331"	"791.89474898208482"	"299.29880276488245"	"2064"	"12"	"45867008"	"2575589376"	" "	" "	" "
"06/09/2016 14:00:15.861"	"226949.6644502836"	"88.762854576786552"	"211076.07351270906"	"208.44310793874595"	"797.8445431821392"	"317.89118517413357"	"2064"	"12"	"51580928"	"2581303296"	" "	" "	" "
"06/09/2016 14:00:16.863"	"218026.52610608164"	"80.781222935968444"	"210793.11610664238"	"200.45710876703279"	"797.85982081664145"	"324.13055220676057"	"2064"	"12"	"45834240"	"2575716352"	" "	" "	" "
"06/09/2016 14:00:17.866"	"210331.91342784569"	"84.776267106871856"	"226933.10126306783"	"204.46040890480859"	"796.32707398851562"	"321.02422160789479"	"2064"	"12"	"49676288"	"2579558400"	" "	" "	" "
"06/09/2016 14:00:18.869"	"210450.62276779755"	"78.790201452322421"	"223880.86141029091"	"215.42637359116006"	"805.66933899134915"	"336.60459810857139"	"2064"	"12"	"49651712"	"2579570688"	" "	" "	" "
"06/09/2016 14:00:19.856"	"205363.00935494679"	"79.027858670721344"	"209219.16358700788"	"198.582824352069"	"796.27417393409064"	"329.2744098971985"	"2064"	"12"	"45772800"	"2575695872"	" "	" "	" "
"06/09/2016 14:00:20.858"	"209938.86976742526"	"67.843871573242907"	"210914.62427328751"	"204.52931871345288"	"798.1617536651338"	"327.37103177671503"	"2064"	"12"	"61476864"	"2591354880"	" "	" "	" "
"06/09/2016 14:00:21.861"	"210304.33551305116"	"76.799272646024932"	"211088.28652993139"	"208.45516861063908"	"797.91982302138319"	"330.38867671979148"	"2064"	"12"	"59478016"	"2589356032"	" "	" "	" "
"06/09/2016 14:00:22.863"	"209964.26542142587"	"70.809209352212207"	"210532.73372185911"	"199.46256155552734"	"797.85067007987186"	"331.91834516994669"	"2064"	"12"	"61415424"	"2590994432"	" "	" "	" "
"06/09/2016 14:00:23.865"	"209872.21897158149"	"65.865119932879281"	"210950.01184321041"	"204.58105433697349"	"796.79371456684862"	"332.1273213360837"	"2069"	"12"	"45789184"	"2579824640"	" "	" "	" "
"06/09/2016 14:00:24.868"	"201176.95472027612"	"62.830399302882192"	"194227.71309579228"	"192.48042961041688"	"791.63530461079313"	"311.66744276015481"	"2064"	"12"	"61370368"	"2591272960"	" "	" "	" "
"06/09/2016 14:00:25.871"	"227719.57064977204"	"89.76174803559627"	"211307.13369784123"	"205.45466772592036"	"808.78322500188506"	"302.31974113750613"	"2064"	"12"	"59510784"	"2589417472"	" "	" "	" "
"06/09/2016 14:00:26.857"	"204417.20538349534"	"63.85947030813427"	"206211.35240643815"	"207.79668909789723"	"798.23287965324164"	"331.01323779271326"	"2064"	"12"	"47706112"	"2577641472"	" "	" "	" "
"06/09/2016 14:00:27.860"	"202039.61785082475"	"78.787711814433308"	"211190.96017499236"	"210.43300244108136"	"797.85130664607152"	"335.03521665801827"	"2064"	"12"	"45821952"	"2575757312"	" "	" "	" "
"06/09/2016 14:00:28.862"	"218704.71773972095"	"79.787936389818213"	"210121.53048258627"	"192.48839654043644"	"796.33025089009459"	"331.93413588960891"	"2064"	"12"	"47706112"	"2577641472"	" "	" "	" "
"06/09/2016 14:00:29.865"	"209906.39354908193"	"69.810560579048129"	"211246.75631219964"	"211.42626918226006"	"796.26894116562949"	"335.02509266264258"	"2064"	"12"	"45772800"	"2575708160"	" "	" "	" "
"06/09/2016 14:00:30.867"	"210023.77417705418"	"69.867524272147364"	"210820.26395375666"	"201.61771289962525"	"798.50161172559694"	"332.18914706553153"	"2064"	"12"	"47718400"	"2577514496"	" "	" "	" "
"06/09/2016 14:00:31.870"	"210464.0397259384"	"78.793357557479681"	"210966.72139946965"	"206.45854448605436"	"808.79726068876539"	"336.60926456411045"	"2064"	"12"	"45772800"	"2575568896"	" "	" "	" "
"06/09/2016 14:00:32.854"	"205914.6544513159"	"78.245089236724226"	"205689.06471351651"	"191.0399581364176"	"800.22436767032582"	"336.60231338513705"	"2064"	"12"	"47726592"	"2577522688"	" "	" "	" "
"06/09/2016 14:00:33.857"	"210248.65659266457"	"75.781810641688125"	"218734.22512635886"	"204.4114629150798"	"797.70929797992085"	"338.09163605789615"	"2069"	"12"	"61427712"	"2595295232"	" "	" "	" "
"06/09/2016 14:00:34.859"	"211588.97799489013"	"89.802635269978921"	"211565.0306254848"	"208.54167523806217"	"793.58969612867418"	"336.7689083768048"	"2065"	"12"	"59494400"	"2589818880"	" "	" "	" "
"06/09/2016 14:00:35.862"	"219135.28000922166"	"87.766612843788437"	"210540.13603776976"	"199.4695746449737"	"797.87080197784189"	"333.48506176417612"	"2065"	"12"	"61378560"	"2591715328"	" "	" "	" "
"06/09/2016 14:00:36.864"	"202214.59177249839"	"78.792936728849753"	"210427.01001332561"	"197.48103129509181"	"797.88791091102735"	"333.4922127635935"	"2065"	"12"	"47726592"	"2575347712"	" "	" "	" "
"06/09/2016 14:00:37.866"	"219083.30610503742"	"88.808387123778587"	"210406.02819011183"	"195.57802108157981"	"796.73050489326624"	"336.77845216623388"	"2065"	"12"	"61444096"	"2589052928"	" "	" "	" "
"06/09/2016 14:00:38.865"	"202628.41564102829"	"72.092652623705504"	"211551.88397689583"	"203.26122892516969"	"801.02771856291622"	"334.80455424309389"	"2065"	"12"	"45821952"	"2573430784"	" "	" "	" "
"06/09/2016 14:00:39.868"	"210652.75397260176"	"82.772395185037993"	"210760.45781211965"	"203.44058575599701"	"800.94299100959267"	"344.37432103719834"	"2065"	"12"	"47689728"	"2577895424"	" "	" "	" "
"06/09/2016 14:00:40.870"	"209819.88260307795"	"66.825430362061823"	"210968.8810475122"	"206.46065798428054"	"802.57264083413793"	"333.49620415243788"	"2065"	"12"	"45805568"	"2576011264"	" "	" "	" "
"06/09/2016 14:00:41.873"	"209862.25294740207"	"67.819112072042557"	"210239.24742333195"	"194.48127726541617"	"797.87541733871046"	"335.04534126527881"	"2065"	"12"	"47689728"	"2576580608"	" "	" "	" "
"06/09/2016 14:00:42.875"	"209965.41839352748"	"68.850281192809661"	"211001.16610190624"	"205.55301341621436"	"796.70148745882716"	"330.52977561892635"	"2069"	"12"	"45821952"	"2583138304"	" "	" "	" "
"06/09/2016 14:00:43.877"	"211332.59324734283"	"85.838582247539236"	"211170.89731334164"	"200.6227329273882"	"796.93567472098823"	"333.74605555830038"	"2074"	"12"	"47706112"	"2588651520"	" "	" "	" "
"06/09/2016 14:00:44.879"	"210903.21371347344"	"85.822259767950769"	"210783.46172309958"	"201.58251712937275"	"790.54569470124443"	"333.68200920328661"	"2069"	"12"	"45744128"	"2584182784"	" "	" "	" "
"06/09/2016 14:00:45.866"	"214244.30818908874"	"86.168099725903957"	"214001.01002515675"	"202.74846994330343"	"795.17893718372784"	"332.6445753159021"	"2069"	"12"	"51552256"	"2589982720"	" "	" "	" "
"06/09/2016 14:00:46.869"	"209811.89874244333"	"73.766512604481306"	"210553.55124754785"	"201.36264251493546"	"809.93606638824144"	"334.87741206436903"	"2069"	"12"	"45760512"	"2584195072"	" "	" "	" "
"06/09/2016 14:00:47.853"	"214618.52028489858"	"85.346707430367928"	"214301.51822872862"	"200.15834956883907"	"798.50922930619674"	"338.13611499447302"	"2062"	"12"	"51544064"	"2571567104"	" "	" "	" "
"06/09/2016 14:00:48.858"	"251479.84219832259"	"86.546358243554394"	"210238.01553095158"	"202.93628829523101"	"795.8201140151582"	"354.3886445223751"	"2062"	"12"	"47607808"	"2567942144"	" "	" "	" "
"06/09/2016 14:00:49.864"	"251751.2282736951"	"93.510896113800797"	"210538.78780345531"	"207.91252433813156"	"794.29991232669897"	"340.41424814001385"	"2062"	"12"	"47624192"	"2567954432"	" "	" "	" "
"06/09/2016 14:00:50.853"	"255685.35772391094"	"92.991195883142822"	"213616.94932547177"	"206.19786913218624"	"808.60305130404436"	"341.12941226889365"	"2062"	"12"	"47640576"	"2567933952"	" "	" "	" "
"06/09/2016 14:00:51.858"	"251965.82824572179"	"94.507454954195055"	"210752.61936317029"	"209.90603152984377"	"794.30599678830526"	"352.85217469852313"	"2062"	"12"	"47591424"	"2567917568"	" "	" "	" "
"06/09/2016 14:00:52.875"	"249486.34846662171"	"92.44824757705733"	"208193.45354353311"	"199.6488750866238"	"799.09918655145077"	"354.98444633343297"	"2062"	"12"	"61296640"	"2581684224"	" "	" "	" "
"06/09/2016 14:00:53.862"	"213068.11548248312"	"65.868103806531934"	"213676.12874838957"	"198.61766686277321"	"796.42934157416141"	"323.00514051914297"	"2067"	"12"	"45789184"	"2570235904"	" "	" "	" "
"06/09/2016 14:00:54.864"	"196441.01450231276"	"70.811478390285558"	"193337.2775903329"	"177.52736835874407"	"790.08090727692752"	"313.22734193819019"	"2062"	"12"	"47505408"	"2566615040"	" "	" "	" "
"06/09/2016 14:00:55.867"	"224243.42477027178"	"89.777970575024966"	"202096.19696241952"	"190.52880422033076"	"798.02855026941438"	"324.19909854694964"	"2062"	"12"	"45830144"	"2564939776"	" "	" "	" "
"06/09/2016 14:00:56.869"	"210405.16315054049"	"75.860527911121281"	"210413.148469268"	"194.64214398248225"	"807.89356556881648"	"315.04729777007901"	"2062"	"12"	"47697920"	"2566758400"	" "	" "	" "
"06/09/2016 14:00:57.856"	"212865.05948780887"	"64.809585869193882"	"213770.36839041917"	"202.52995584123087"	"797.47901440302803"	"314.8776267186559"	"2065"	"12"	"49643520"	"2577264640"	" "	" "	" "
"06/09/2016 14:00:58.859"	"209758.64785722233"	"65.825721343213829"	"210363.04766228277"	"196.47980461535039"	"797.87478073403679"	"331.9283755788083"	"2065"	"12"	"47747072"	"2575368192"	" "	" "	" "
"06/09/2016 14:00:59.861"	"209211.13491735002"	"59.839008147058273"	"210174.54294851766"	"193.47945967548841"	"796.29403571466332"	"321.01090285170375"	"2065"	"12"	"51437568"	"2579062784"	" "	" "	" "
"06/09/2016 14:01:00.864"	"209740.44481765965"	"75.799585373604373"	"214917.75597126991"	"196.48050419210608"	"797.90955675226473"	"325.70917453363933"	"2065"	"12"	"47747072"	"2575454208"	" "	" "	" "
"06/09/2016 14:01:01.866"	"211696.07067954264"	"84.848924699330524"	"207053.33716452395"	"207.6303098524794"	"797.00806603356875"	"325.97785871040287"	"2065"	"12"	"51449856"	"2579156992"	" "	" "	" "
"06/09/2016 14:01:02.868"	"209944.01070249185"	"67.845532918465963"	"216902.16874033571"	"207.52751245648415"	"809.09906510427004"	"333.61695555359114"	"2065"	"12"	"53399552"	"2581164032"	" "	" "	" "
"06/09/2016 14:01:03.856"	"204493.86494294557"	"64.810669500973162"	"207155.15305932928"	"190.38134165910867"	"795.86463797532133"	"318.02940801797138"	"2070"	"12"	"47714304"	"2579611648"	" "	" "	" "
"06/09/2016 14:01:04.858"	"209802.93899015829"	"68.817278904358815"	"201862.02341571619"	"187.50215121767332"	"790.08973275057394"	"311.67247840259324"	"2065"	"12"	"59518976"	"2588561408"	" "	" "	" "
"06/09/2016 14:01:05.861"	"210105.88270571225"	"75.79145585632574"	"219300.58300828229"	"213.41278359544353"	"797.80476042122496"	"316.31712180763412"	"2065"	"12"	"61313024"	"2590347264"	" "	" "	" "
"06/09/2016 14:01:06.864"	"210226.14860300286"	"81.776775073274365"	"210405.65859706615"	"197.4609934696137"	"797.81438748548351"	"320.99563246486247"	"2065"	"12"	"47697920"	"2576736256"	" "	" "	" "
"06/09/2016 14:01:07.866"	"210309.20297126216"	"77.798466387919831"	"210434.87741696573"	"197.48841467702727"	"797.95818459725251"	"313.26092793759329"	"2065"	"12"	"47726592"	"2576801792"	" "	" "	" "
"06/09/2016 14:01:08.869"	"209866.43692556786"	"65.859547329647469"	"210710.63657770242"	"200.57225777665366"	"809.23737320263865"	"328.99631164885693"	"2065"	"12"	"59482112"	"2588540928"	" "	" "	" "
"06/09/2016 14:01:09.853"	"214637.27804158002"	"79.265320874591012"	"214731.78669339206"	"203.24441249895131"	"797.05794543942125"	"322.31626080518424"	"2066"	"12"	"47742976"	"2578325504"	" "	" "	" "
"06/09/2016 14:01:10.856"	"210108.80216675228"	"72.767887494356245"	"211947.93576164389"	"221.29412361297381"	"794.33740971093744"	"323.96506121544115"	"2064"	"12"	"45793280"	"2574749696"	" "	" "	" "
"06/09/2016 14:01:11.859"	"201189.35314886476"	"60.823250478658053"	"210249.0261627842"	"195.43208350519637"	"797.68623131744062"	"325.61801239325212"	"2064"	"12"	"47742976"	"2576703488"	" "	" "	" "
"06/09/2016 14:01:12.861"	"209480.193104173"	"61.865387415491988"	"210282.44748291583"	"193.57879288073298"	"798.26162565780498"	"327.41199489870911"	"2065"	"12"	"45809664"	"2576871424"	" "	" "	" "
"06/09/2016 14:01:13.863"	"218225.05646867288"	"69.816060113377972"	"210305.92050724113"	"195.48496831745834"	"797.90207607138552"	"328.82292588098113"	"2070"	"12"	"47693824"	"2582888448"	" "	" "	" "
"06/09/2016 14:01:14.866"	"209539.72114537936"	"78.769833123096475"	"202723.63786399344"	"202.40855853150106"	"794.56955643201252"	"316.26984305038928"	"2065"	"12"	"49655808"	"2579955712"	" "	" "	" "
"06/09/2016 14:01:15.865"	"202314.91438892664"	"76.142607031725021"	"211856.78530169177"	"206.3865401123073"	"799.94932422785826"	"319.35354626709017"	"2065"	"12"	"51576832"	"2582179840"	" "	" "	" "
"06/09/2016 14:01:16.867"	"210029.97705066041"	"72.826620076465161"	"210538.76576626312"	"198.52736157830913"	"804.31289282891089"	"333.57162609571105"	"2065"	"12"	"47718400"	"2578264064"	" "	" "	" "
"06/09/2016 14:01:17.869"	"218565.6853434417"	"73.84784999915388"	"211204.8509975801"	"208.57027905166433"	"803.03445357731107"	"325.8916520342874"	"2065"	"12"	"47747072"	"2578386944"	" "	" "	" "
"06/09/2016 14:01:18.872"	"210639.58931608062"	"90.707426344830964"	"235396.73599879013"	"215.30553945586252"	"795.90651727506531"	"327.08487011304055"	"2065"	"12"	"49680384"	"2580287488"	" "	" "	" "
"06/09/2016 14:01:19.875"	"211362.92670921405"	"92.75859519688224"	"245341.4972745064"	"246.3588496089238"	"796.33160108094148"	"324.14280435388616"	"2065"	"12"	"47714304"	"2578325504"	" "	" "	" "
"06/09/2016 14:01:20.878"	"210122.27655537866"	"72.802603746429114"	"211187.38862114833"	"210.42944370543211"	"796.28522067703204"	"319.44906113266455"	"2065"	"12"	"47702016"	"2578309120"	" "	" "	" "
"06/09/2016 14:01:21.880"	"210142.58527557651"	"71.830658000178076"	"210304.20425607692"	"194.54136541714894"	"798.13300726939542"	"333.5946553821301"	"2065"	"12"	"51576832"	"2582183936"	" "	" "	" "
"06/09/2016 14:01:22.867"	"204639.73063441808"	"65.852678307030914"	"205679.18983354137"	"200.59738930449419"	"796.21585041298113"	"330.83322611593053"	"2065"	"12"	"61435904"	"2592055296"	" "	" "	" "
"06/09/2016 14:01:23.869"	"218355.00962940074"	"71.835838930596893"	"210918.00486011367"	"204.53259695517173"	"809.08025627172822"	"328.93243559409376"	"2070"	"12"	"59469824"	"2594725888"	" "	" "	" "
"06/09/2016 14:01:24.856"	"204874.62033514885"	"73.983177433148654"	"214125.55791884448"	"205.73404135519419"	"794.95707105129941"	"329.38460314476151"	"2065"	"12"	"47730688"	"2578898944"	" "	" "	" "
"06/09/2016 14:01:25.858"	"210437.33554619894"	"75.849817890631044"	"210922.37517113113"	"203.59687960116756"	"795.29395561623483"	"319.676982159467"	"2065"	"12"	"45797376"	"2576965632"	" "	" "	" "
"06/09/2016 14:01:26.861"	"210025.00455887141"	"69.815842601213788"	"210396.02589383788"	"195.48435928339862"	"797.89714208204282"	"327.26249968208788"	"2065"	"12"	"47747072"	"2578944000"	" "	" "	" "
"06/09/2016 14:01:27.863"	"210633.17841805451"	"72.807528881660971"	"203127.02139937808"	"201.46740868623993"	"797.88647850708253"	"321.02463783683402"	"2065"	"12"	"45780992"	"2576973824"	" "	" "	" "
"06/09/2016 14:01:28.866"	"209711.32394805009"	"64.830381701813252"	"218432.50637267556"	"198.4807070563206"	"797.91695798947262"	"327.27062730036965"	"2065"	"12"	"47714304"	"2578862080"	" "	" "	" "
"06/09/2016 14:01:29.868"	"209967.25566919736"	"69.812890784419395"	"211074.28865163602"	"208.44134534205222"	"807.21875725561881"	"314.78414858230695"	"2065"	"12"	"45780992"	"2576928768"	" "	" "	" "
"06/09/2016 14:01:30.855"	"213011.83829036535"	"66.867610284826085"	"213613.64678292879"	"198.57653963372593"	"796.2677200120321"	"324.52262942836296"	"2065"	"12"	"47714304"	"2578866176"	" "	" "	" "
"06/09/2016 14:01:31.858"	"209974.73166126871"	"69.815376508282952"	"210902.27880630732"	"205.45667943866127"	"797.91449089514742"	"325.7111886661832"	"2065"	"12"	"49623040"	"2580774912"	" "	" "	" "
"06/09/2016 14:01:32.861"	"201625.91771276377"	"68.820433743820004"	"202487.66923094727"	"197.48472291704869"	"797.88822922371367"	"333.49234580834906"	"2065"	"12"	"47726592"	"2578878464"	" "	" "	" "
"06/09/2016 14:01:33.863"	"217891.14334212162"	"63.828673052856075"	"212344.03272462185"	"205.4485413888805"	"797.86483391795218"	"327.24924828666008"	"2070"	"12"	"49639424"	"2584903680"	" "	" "	" "
"06/09/2016 14:01:34.866"	"201214.4759223822"	"66.832093430495775"	"200739.66881084614"	"192.51632883709976"	"791.77807669997867"	"274.31681397479576"	"2065"	"12"	"47706112"	"2579492864"	" "	" "	" "
"06/09/2016 14:01:35.869"	"218155.43924062685"	"78.767274680116643"	"194118.4587597629"	"191.4343890959797"	"808.72200606438651"	"313.2044763370746"	"2065"	"12"	"45838336"	"2577629184"	" "	" "	" "
"06/09/2016 14:01:36.856"	"214281.04124282417"	"80.053921584144092"	"215180.88785506113"	"216.85492682287131"	"797.81244386819594"	"311.84335603578296"	"2065"	"12"	"59494400"	"2589925376"	" "	" "	" "
"06/09/2016 14:01:37.858"	"202598.87913333523"	"88.793520672018687"	"210310.94559170268"	"194.54760147240049"	"798.15259600129536"	"316.4550331802011"	"2065"	"12"	"47755264"	"2578219008"	" "	" "	" "
"06/09/2016 14:01:38.861"	"218212.52791561894"	"69.812051892565478"	"211191.43012528092"	"210.43347070473308"	"797.84669156413747"	"327.24180708685327"	"2065"	"12"	"59482112"	"2589945856"	" "	" "	" "
"06/09/2016 14:01:39.863"	"210228.14976872262"	"75.81325093915386"	"210940.39531044048"	"205.49381175612757"	"798.02783381429481"	"321.08151126122016"	"2065"	"12"	"61415424"	"2591973376"	" "	" "	" "
"06/09/2016 14:01:40.866"	"201678.5194156474"	"69.83604594114982"	"210545.7019345751"	"198.53390203269734"	"798.14327928938906"	"322.68683361895228"	"2065"	"12"	"59465728"	"2589884416"	" "	" "	" "
"06/09/2016 14:01:41.868"	"210812.80866986042"	"86.760808510543612"	"210220.44177037463"	"194.4638811443219"	"810.34222073462786"	"321.02018744487179"	"2065"	"12"	"47726592"	"2578153472"	" "	" "	" "
"06/09/2016 14:01:42.855"	"213040.56276956451"	"65.859586131559468"	"205518.3848089384"	"197.5787583946784"	"796.24722950288037"	"324.5142784256272"	"2068"	"12"	"45375488"	"2582126592"	" "	" "	" "
"06/09/2016 14:01:43.858"	"209644.60368275459"	"77.810934301773258"	"210229.18326609867"	"193.52975967364119"	"798.04272042388834"	"324.20485517220465"	"2073"	"12"	"47726592"	"2588672000"	" "	" "	" "
"06/09/2016 14:01:44.860"	"194266.32685788034"	"79.781651498631547"	"211122.19527825373"	"209.4268351839078"	"793.16476844001807"	"314.77265859505633"	"2068"	"12"	"51433472"	"2588995584"	" "	" "	" "
"06/09/2016 14:01:45.863"	"227454.23344664875"	"84.776455764709866"	"211430.48593705078"	"207.45297410658415"	"796.33017146724626"	"316.35034208972797"	"2068"	"12"	"47677440"	"2585300992"	" "	" "	" "
"06/09/2016 14:01:46.866"	"209862.346348491"	"68.816482582837722"	"210777.90476894093"	"203.45742676665066"	"797.86236714594259"	"324.13158665303916"	"2068"	"12"	"49627136"	"2587262976"	" "	" "	" "
"06/09/2016 14:01:47.868"	"201701.59232965106"	"68.827877860923635"	"210573.40603537651"	"199.501095249054"	"810.47462391483691"	"327.30705965791486"	"2068"	"12"	"47779840"	"2585407488"	" "	" "	" "
"06/09/2016 14:01:48.852"	"214812.14147544574"	"89.422918577817853"	"214696.2981491063"	"206.28241444655708"	"795.46662396064107"	"323.90257742109941"	"2068"	"12"	"61370368"	"2598752256"	" "	" "	" "
"06/09/2016 14:01:49.855"	"218491.0099614629"	"76.758651721580833"	"211036.44895400861"	"209.34177742249318"	"800.60980423900276"	"320.86696434481433"	"2068"	"12"	"59486208"	"2596868096"	" "	" "	" "
"06/09/2016 14:01:50.858"	"202258.25163990364"	"79.807543089344762"	"210951.28827091053"	"205.50442345506275"	"793.39391483514555"	"327.33344226990295"	"2068"	"12"	"61435904"	"2598817792"	" "	" "	" "
"06/09/2016 14:01:51.860"	"218082.03266943447"	"66.846137818193966"	"210555.35709181573"	"198.54300635553133"	"798.17099117372538"	"313.34447114437268"	"2067"	"12"	"59502592"	"2597261312"	" "	" "	" "
"06/09/2016 14:01:52.862"	"201702.4955058326"	"69.844348239979226"	"210989.79826894298"	"205.54193910622459"	"798.22610213322935"	"324.27935399162442"	"2067"	"12"	"61370368"	"2599129088"	" "	" "	" "
"06/09/2016 14:01:53.865"	"252358.30829764533"	"95.759161702394735"	"211432.23907381666"	"210.47065749172177"	"794.85923697503131"	"333.52917002481706"	"2065"	"12"	"59437056"	"2584469504"	" "	" "	" "
"06/09/2016 14:01:54.861"	"203362.59580458992"	"71.280264915734293"	"204142.66292909029"	"200.78947863587123"	"795.32202315766904"	"335.69805316714235"	"2060"	"12"	"47730688"	"2568740864"	" "	" "	" "
"06/09/2016 14:01:55.866"	"225829.78597980953"	"71.640823532337066"	"202122.64345923366"	"199.00228758982519"	"791.34784728510169"	"324.93457776539537"	"2060"	"12"	"49659904"	"2570670080"	" "	" "	" "
"06/09/2016 14:01:56.866"	"202334.73294722204"	"70.008903737873965"	"211217.86270436199"	"200.02543925106846"	"796.99526658572779"	"334.42546480263871"	"2060"	"12"	"47710208"	"2568650752"	" "	" "	" "
"06/09/2016 14:01:57.867"	"218174.75292489197"	"88.880536327129775"	"202983.17181693358"	"201.72885773123835"	"805.1820869980146"	"318.32780183642433"	"2060"	"12"	"49278976"	"2570211328"	" "	" "	" "
"06/09/2016 14:01:58.870"	"202213.61912964177"	"80.747479119632544"	"210142.82220269804"	"194.39207936207836"	"802.14781978777"	"333.31967657200539"	"2062"	"12"	"47669248"	"2574696448"	" "	" "	" "
"06/09/2016 14:01:59.873"	"218534.6854007192"	"75.795604728166055"	"210472.4266030548"	"198.46480711717166"	"797.88186301824555"	"333.48968493340732"	"2062"	"12"	"49635328"	"2578661376"	" "	" "	" "
"06/09/2016 14:02:00.876"	"201565.86798662832"	"66.823586354660094"	"210244.95527704997"	"194.4865573008764"	"794.75023524606968"	"328.8084306606288"	"2048"	"12"	"51605504"	"2577608704"	" "	" "	" "
"06/09/2016 14:02:01.878"	"218543.8250281291"	"76.798930827351441"	"210907.81704872387"	"205.4620746809662"	"797.90247397641087"	"331.93989640034277"	"2048"	"12"	"45760512"	"2571595776"	" "	" "	" "
"06/09/2016 14:02:02.880"	"210891.93037624893"	"83.8302384149315"	"211176.35439944244"	"204.58570089358284"	"798.40454819134925"	"332.1487671186668"	"2048"	"12"	"51556352"	"2577412096"	" "	" "	" "
"06/09/2016 14:02:03.868"	"204965.03283362344"	"68.861429699884852"	"214649.17771921167"	"213.67296568640742"	"797.44873113502126"	"330.68806509368932"	"2053"	"12"	"61415424"	"2591424512"	" "	" "	" "
"06/09/2016 14:02:04.871"	"210075.52795497118"	"72.805066230750853"	"210937.22079364749"	"206.44724259952639"	"799.4178218674939"	"321.01378421969542"	"2048"	"12"	"45813760"	"2571677696"	" "	" "	" "
"06/09/2016 14:02:05.857"	"211736.66157093551"	"88.177155505583215"	"205458.85351114723"	"195.61139094916737"	"796.60443164190087"	"337.32951081456241"	"2048"	"12"	"47697920"	"2573692928"	" "	" "	" "
"06/09/2016 14:02:06.860"	"212569.63995566909"	"80.790067831613797"	"210313.50250585293"	"195.49201598760871"	"797.90915884017522"	"336.61792638569892"	"2048"	"12"	"45801472"	"2571821056"	" "	" "	" "
"06/09/2016 14:02:07.862"	"201658.49238912974"	"66.854293412461743"	"210640.91551299513"	"199.56505496257236"	"798.25628896239061"	"333.64618327724918"	"2048"	"12"	"47697920"	"2573725696"	" "	" "	" "
"06/09/2016 14:02:08.865"	"218763.15067566425"	"79.789605425609281"	"210245.61029648047"	"194.48716322492263"	"797.88544399632087"	"336.60792168594787"	"2048"	"12"	"45813760"	"2571849728"	" "	" "	" "
"06/09/2016 14:02:09.867"	"208023.82287726644"	"80.781690300684517"	"210052.34087815028"	"191.48252515717812"	"797.85305720835811"	"324.12780449089547"	"2048"	"12"	"47681536"	"2573684736"	" "	" "	" "
"06/09/2016 14:02:10.870"	"212645.73561935872"	"91.794407320600413"	"209670.3995038149"	"183.58881464120083"	"809.12893500447808"	"330.51124127350545"	"2048"	"12"	"45846528"	"2571837440"	" "	" "	" "
"06/09/2016 14:02:11.857"	"205272.91401599423"	"73.95688773976309"	"205336.73982322169"	"191.47742168240035"	"796.26086283447637"	"330.85192909026955"	"2048"	"12"	"51560448"	"2577567744"	" "	" "	" "
"06/09/2016 14:02:12.859"	"218796.16126801155"	"77.794899914323551"	"219648.91305553395"	"215.43203053197291"	"797.88751302052685"	"324.14180216458902"	"2049"	"12"	"45813760"	"2573975552"	" "	" "	" "
"06/09/2016 14:02:13.862"	"209960.90149448754"	"70.808074887705388"	"209871.14477984115"	"188.48910075741293"	"797.8410421399692"	"339.7057562236588"	"2054"	"12"	"51544064"	"2583801856"	" "	" "	" "
"06/09/2016 14:02:14.864"	"200317.91707532326"	"83.818368107551379"	"193492.70710085123"	"178.61295108632973"	"793.61258184967801"	"296.24045294978157"	"2049"	"12"	"45830144"	"2574045184"	" "	" "	" "
"06/09/2016 14:02:15.867"	"211746.34274316239"	"92.706810575070151"	"211391.46505967071"	"215.31904391629197"	"792.79569079998635"	"299.05063385775514"	"2049"	"12"	"51576832"	"2579795968"	" "	" "	" "
"06/09/2016 14:02:16.870"	"218065.91613633622"	"67.838827623572001"	"211557.37920374528"	"215.48804068664049"	"808.99921877174472"	"344.48714325347896"	"2047"	"12"	"45780992"	"2573803520"	" "	" "	" "
"06/09/2016 14:02:17.857"	"204908.64057115189"	"71.929761102302905"	"214229.11665764748"	"208.69761671935771"	"797.80525041967087"	"329.25296049065781"	"2047"	"12"	"45408256"	"2573426688"	" "	" "	" "
"06/09/2016 14:02:18.859"	"210024.6632684806"	"71.808759237789204"	"210898.33650587371"	"205.45283893034136"	"797.87048367906061"	"331.92658793679669"	"2046"	"12"	"49643520"	"2577571840"	" "	" "	" "
"06/09/2016 14:02:19.862"	"210602.83841610083"	"82.773942307136011"	"243491.01997519398"	"219.40081093457738"	"797.82218478220011"	"333.4647412956852"	"2046"	"12"	"59518976"	"2587455488"	" "	" "	" "
"06/09/2016 14:02:20.864"	"219112.86882380492"	"80.812224525449167"	"236530.39741349986"	"227.47144681237543"	"796.58480306503134"	"333.5991151779192"	"2046"	"12"	"61403136"	"2589335552"	" "	" "	" "
"06/09/2016 14:02:21.867"	"201814.748294752"	"71.841500431237733"	"210994.49557207682"	"205.54651512270797"	"798.24282806258577"	"333.64055704178395"	"2046"	"12"	"45817856"	"2573750272"	" "	" "	" "
"06/09/2016 14:02:22.869"	"210505.15645347207"	"79.785912333717562"	"210235.87899934576"	"194.47816131343654"	"807.21336333432703"	"336.59862254867693"	"2046"	"12"	"61452288"	"2589442048"	" "	" "	" "
"06/09/2016 14:02:23.856"	"213111.85045152673"	"66.878011591243393"	"205777.56184702038"	"201.64733797965812"	"796.40270944371605"	"335.66078409953838"	"2051"	"12"	"49610752"	"2581716992"	" "	" "	" "
"06/09/2016 14:02:24.859"	"196122.84710185108"	"84.77041913033726"	"203041.11060193519"	"198.4625106698484"	"796.26640003366822"	"300.74249551173773"	"2049"	"12"	"47747072"	"2575667200"	" "	" "	" "
"06/09/2016 14:02:25.861"	"227359.72162623634"	"87.799085058402653"	"186361.53977146494"	"192.55935700308765"	"798.16677056137462"	"318.01957264554773"	"2049"	"12"	"45772800"	"2574012416"	" "	" "	" "
"06/09/2016 14:02:26.864"	"210509.09132542435"	"79.78740373351944"	"210598.85215462456"	"200.4658518804676"	"797.85767236393554"	"336.59620552853534"	"2048"	"12"	"47722496"	"2575904768"	" "	" "	" "
"06/09/2016 14:02:27.867"	"209586.90807620436"	"73.801016395937808"	"210711.8749207262"	"202.4541395726402"	"797.86053697011459"	"333.48077131172761"	"2048"	"12"	"45772800"	"2573938688"	" "	" "	" "
"06/09/2016 14:02:28.869"	"210276.4966679826"	"75.799754054254947"	"211279.84604401657"	"211.44141920397431"	"810.37293312513316"	"335.05803965750698"	"2048"	"12"	"47722496"	"2575884288"	" "	" "	" "
"06/09/2016 14:02:29.853"	"215593.07484958929"	"94.509337548959721"	"215349.17978494681"	"210.35949325413617"	"800.2770635410842"	"335.03662779200152"	"2048"	"12"	"61378560"	"2589540352"	" "	" "	" "
"06/09/2016 14:02:30.856"	"235440.70990466562"	"84.744697615484142"	"210705.22816536963"	"203.38727427716194"	"794.4755250193366"	"328.69477603741177"	"2048"	"12"	"61362176"	"2589532160"	" "	" "	" "
"06/09/2016 14:02:31.862"	"251467.94508042661"	"88.493934948787171"	"211510.44766635963"	"225.70924981319874"	"795.45848884961094"	"334.03042012239518"	"2048"	"12"	"49610752"	"2577657856"	" "	" "	" "
"06/09/2016 14:02:32.871"	"242310.27625741673"	"84.266318148598401"	"209456.32586395141"	"201.24779510782912"	"805.48079867609681"	"342.32933943734116"	"2048"	"12"	"47706112"	"2575753216"	" "	" "	" "
"06/09/2016 14:02:33.858"	"213174.82533694941"	"68.889603382310597"	"213740.12531764543"	"200.59031573084556"	"797.82012241144093"	"322.92719240463089"	"2053"	"12"	"51474432"	"2583617536"	" "	" "	" "
"06/09/2016 14:02:34.860"	"210507.00894850006"	"78.791148257321225"	"202312.72952973866"	"193.48712356861162"	"796.31071334679336"	"297.64255626073879"	"2048"	"12"	"47689728"	"2576535552"	" "	" "	" "
"06/09/2016 14:02:35.863"	"210350.30453331122"	"75.818448521401791"	"210176.72019064383"	"192.53895479777034"	"794.98730264985795"	"316.43612242729637"	"2048"	"12"	"45805568"	"2574651392"	" "	" "	" "
"06/09/2016 14:02:36.865"	"210345.64950411857"	"77.79202619777935"	"210477.29754845327"	"198.46940017125758"	"797.85273892373448"	"324.12767518776718"	"2048"	"12"	"47689728"	"2575155200"	" "	" "	" "
"06/09/2016 14:02:37.868"	"210178.61001284613"	"76.832067200548579"	"210160.64926986417"	"191.58125847409516"	"796.71953366954835"	"325.85984840887596"	"2048"	"12"	"45821952"	"2573283328"	" "	" "	" "
"06/09/2016 14:02:38.870"	"211012.24791850167"	"79.789854011382317"	"211431.14465206143"	"207.45362042959403"	"810.34157418300629"	"327.25332803544478"	"2048"	"12"	"47706112"	"2575167488"	" "	" "	" "
"06/09/2016 14:02:39.854"	"205983.8187133946"	"79.266758725774963"	"205093.59203847437"	"180.8908083742044"	"800.27665691057427"	"325.50935449735664"	"2048"	"12"	"61411328"	"2588844032"	" "	" "	" "
"06/09/2016 14:02:40.857"	"217998.29032298242"	"69.777954029451323"	"218967.20705607708"	"209.33386208835398"	"794.35506741962479"	"322.41470383502417"	"2048"	"12"	"59461632"	"2586894336"	" "	" "	" "
"06/09/2016 14:02:41.860"	"202070.81014165582"	"80.773278563123014"	"210868.11709824685"	"205.4233998025104"	"797.76004933348145"	"331.88064552349914"	"2048"	"12"	"61460480"	"2588913664"	" "	" "	" "
"06/09/2016 14:02:42.862"	"210207.8131474329"	"73.848869496055002"	"210848.50198819596"	"202.58541226620494"	"798.37466884915682"	"324.33970921996996"	"2053"	"12"	"59461632"	"2597462016"	" "	" "	" "
"06/09/2016 14:02:43.865"	"218502.41870213617"	"74.805684953029683"	"210971.97975019788"	"206.46369047036194"	"797.91592339967247"	"333.50392110845684"	"2058"	"12"	"61411328"	"2603540480"	" "	" "	" "
"06/09/2016 14:02:44.868"	"201866.73331935963"	"72.799752656891314"	"210401.25774727299"	"197.45686337074631"	"800.98396984859482"	"330.3669291982531"	"2053"	"12"	"59461632"	"2597457920"	" "	" "	" "
"06/09/2016 14:02:45.866"	"210783.8630684774"	"71.103851640386054"	"203192.7758088418"	"196.28668903543192"	"790.14887568918516"	"314.49489903668552"	"2053"	"12"	"47722496"	"2585714688"	" "	" "	" "
"06/09/2016 14:02:46.869"	"210228.43051787859"	"73.818263968583096"	"218885.11828435646"	"205.49408618281242"	"807.39011214829452"	"330.43765207613603"	"2053"	"12"	"45789184"	"2583785472"	" "	" "	" "
"06/09/2016 14:02:47.871"	"209869.11699399634"	"75.795267404549236"	"202935.84463878023"	"198.46392386191181"	"797.83889378839535"	"325.68032969096612"	"2052"	"12"	"47656960"	"2585620480"	" "	" "	" "
"06/09/2016 14:02:48.874"	"211419.45789039406"	"87.764816046128885"	"219256.45703233132"	"212.43074792983467"	"794.75134493120936"	"328.80888976565717"	"2052"	"12"	"45723648"	"2583687168"	" "	" "	" "
"06/09/2016 14:02:49.877"	"210184.45562516246"	"76.794829240590616"	"207124.63048087503"	"202.45909527064799"	"797.88679681862584"	"321.02476590749399"	"2052"	"12"	"47738880"	"2587017216"	" "	" "	" "
"06/09/2016 14:02:50.879"	"210298.71949507619"	"77.794588296242623"	"214615.32177900104"	"207.452235456647"	"793.21136242208013"	"314.79114972349743"	"2052"	"12"	"45805568"	"2585079808"	" "	" "	" "
"06/09/2016 14:02:51.866"	"213022.35876805836"	"66.867096350669897"	"222306.75378256652"	"208.70639163996967"	"797.85972987660989"	"322.94322399767543"	"2052"	"12"	"51523584"	"2590806016"	" "	" "	" "
"06/09/2016 14:02:52.869"	"210244.95527704997"	"76.797255959833251"	"202062.55673296592"	"190.49708945880715"	"808.78395097374232"	"339.72042642056994"	"2052"	"12"	"45793280"	"2585075712"	" "	" "	" "
"06/09/2016 14:02:53.856"	"204927.40134445389"	"72.969016234932099"	"214184.33182070209"	"206.74554599897428"	"798.10109706216701"	"318.29031847122138"	"2057"	"12"	"59478016"	"2602860544"	" "	" "	" "
"06/09/2016 14:02:54.858"	"210179.77852773131"	"75.795807123777337"	"210054.11705802611"	"191.48414431270066"	"791.61248796001041"	"324.12479821984681"	"2051"	"12"	"47788032"	"2587074560"	" "	" "	" "
"06/09/2016 14:02:55.860"	"210336.78707139654"	"71.867356360852057"	"219642.61156239963"	"212.60759590085402"	"795.4012805074758"	"318.16051220299028"	"2051"	"12"	"47693824"	"2586353664"	" "	" "	" "
"06/09/2016 14:02:56.863"	"211316.00506008856"	"89.772296015180274"	"211014.76913345983"	"203.48387096774195"	"797.98413248451766"	"321.06392830431764"	"2051"	"12"	"61411328"	"2599997440"	" "	" "	" "
"06/09/2016 14:02:57.865"	"210695.38533247254"	"81.812601678502247"	"210318.24919302773"	"194.55435765009682"	"796.61277876895178"	"330.49297279651233"	"2051"	"12"	"47759360"	"2585522176"	" "	" "	" "
"06/09/2016 14:02:58.867"	"210153.31598842388"	"79.818949243098842"	"210622.25231522709"	"199.54737310774712"	"795.08327982890557"	"322.71027240114398"	"2051"	"12"	"47722496"	"2585862144"	" "	" "	" "
"06/09/2016 14:02:59.869"	"210524.94910584978"	"77.84135892306513"	"211089.79794111202"	"206.57899098813439"	"807.71764416593589"	"324.33449804346463"	"2043"	"12"	"59478016"	"2578161664"	" "	" "	" "
"06/09/2016 14:03:00.856"	"205136.55766997175"	"74.972368416888457"	"197189.48661778157"	"193.50976172467156"	"796.27207639794597"	"324.52440489379512"	"2044"	"12"	"47738880"	"2569256960"	" "	" "	" "
"06/09/2016 14:03:01.859"	"218736.33545221604"	"80.816866021518294"	"218688.44397605513"	"201.54329551045302"	"795.07082528326714"	"325.8231421258879"	"2043"	"12"	"45776896"	"2565238784"	" "	" "	" "
"06/09/2016 14:03:02.861"	"210456.92367525783"	"78.831039933740627"	"210708.3847140338"	"200.57011426179577"	"798.28257486842813"	"321.18400473221914"	"2044"	"12"	"47726592"	"2569289728"	" "	" "	" "
"06/09/2016 14:03:03.861"	"244198.77736405176"	"82.961534927536491"	"211182.08553602302"	"202.90592277457719"	"796.50255540509261"	"343.58933762572622"	"2048"	"12"	"45285376"	"2568851456"	" "	" "	" "
"06/09/2016 14:03:04.880"	"215282.42824448325"	"79.551268403275245"	"215935.53433692988"	"206.24402919367654"	"791.83115066201992"	"332.99875909623705"	"2042"	"12"	"45797376"	"2565242880"	" "	" "	" "
"06/09/2016 14:03:05.867"	"214099.82115244024"	"81.052748177850646"	"214309.54513835043"	"206.68450785351914"	"797.86546924367929"	"329.27781270374066"	"2041"	"12"	"47755264"	"2567176192"	" "	" "	" "
"06/09/2016 14:03:06.869"	"210412.88699353128"	"82.805154951273053"	"211382.60519368353"	"212.49997595929108"	"809.03925120489794"	"344.5041898194267"	"2040"	"12"	"45821952"	"2565148672"	" "	" "	" "
"06/09/2016 14:03:07.856"	"214281.16033660463"	"89.156330009272764"	"205379.71129726977"	"195.53604195215505"	"796.26150821085866"	"337.18429671752068"	"2040"	"12"	"47706112"	"2567032832"	" "	" "	" "
"06/09/2016 14:03:08.859"	"208998.08117877541"	"66.820344717398129"	"210414.27355935311"	"197.46907841857956"	"797.88082851945228"	"338.16433552484597"	"2037"	"12"	"49651712"	"2571063296"	" "	" "	" "
"06/09/2016 14:03:09.861"	"210721.75618990735"	"75.799551637564349"	"210662.91180113607"	"201.46722935247365"	"797.86801687211607"	"325.69221782475046"	"2037"	"12"	"51601408"	"2572980224"	" "	" "	" "
"06/09/2016 14:03:10.864"	"210662.20508428186"	"81.780742125349093"	"210985.33874828933"	"205.4491814368526"	"796.32238810495448"	"333.48921928465802"	"2034"	"12"	"49668096"	"2570924032"	" "	" "	" "
"06/09/2016 14:03:11.866"	"210497.69745756107"	"77.848258016242937"	"211348.03996820003"	"210.58951847983664"	"796.85152640699221"	"333.71081536418063"	"2034"	"12"	"47693824"	"2568945664"	" "	" "	" "
"06/09/2016 14:03:12.869"	"210384.52425738785"	"77.78648710230398"	"210522.14650379962"	"199.45253103154866"	"807.1864753094934"	"338.14568560262563"	"2035"	"12"	"51462144"	"2574823424"	" "	" "	" "
"06/09/2016 14:03:13.856"	"205502.05797825492"	"79.02639374413377"	"214449.26417254269"	"208.7107321960456"	"797.84097646414716"	"334.01675800383936"	"2040"	"12"	"45826048"	"2573246464"	" "	" "	" "
"06/09/2016 14:03:14.858"	"210492.17544289885"	"74.802122531816849"	"210806.34435753248"	"200.46968838526914"	"794.7817039481414"	"331.93824106069434"	"2035"	"12"	"61464576"	"2584858624"	" "	" "	" "
"06/09/2016 14:03:15.861"	"218443.11390897431"	"73.806436193082234"	"210487.97694848751"	"198.47947030301845"	"797.9039064377879"	"330.38208625939654"	"2034"	"12"	"59514880"	"2582843392"	" "	" "	" "
"06/09/2016 14:03:16.864"	"209862.81335518282"	"71.808663360167486"	"211017.73602422554"	"207.44724970715055"	"796.32556496914538"	"324.14034738470104"	"2034"	"12"	"61399040"	"2584698880"	" "	" "	" "
"06/09/2016 14:03:17.866"	"202366.5323509837"	"80.805353211815785"	"210413.14937575537"	"196.52659978676186"	"798.06978840975216"	"330.450771763413"	"2033"	"12"	"45826048"	"2569093120"	" "	" "	" "
"06/09/2016 14:03:18.869"	"210433.40850977457"	"78.802055689044423"	"210331.66408344186"	"195.50889765889502"	"810.47430053324717"	"342.89297330252765"	"2033"	"12"	"49709056"	"2572980224"	" "	" "	" "
"06/09/2016 14:03:19.853"	"214884.35926662106"	"89.430137033514868"	"206437.27632318268"	"203.25031143980652"	"800.29300378266748"	"338.21906707481781"	"2033"	"12"	"45789184"	"2569052160"	" "	" "	" "
"06/09/2016 14:03:20.856"	"210625.24572954793"	"83.737306973874396"	"209243.58016447898"	"179.43708637258797"	"794.35744295603945"	"336.43374054608728"	"2034"	"12"	"47738880"	"2571034624"	" "	" "	" "
"06/09/2016 14:03:21.858"	"210395.38546172771"	"77.790502867885039"	"210473.1759645956"	"198.46551372704002"	"797.86268543824804"	"336.59832041926092"	"2033"	"12"	"51490816"	"2574737408"	" "	" "	" "
"06/09/2016 14:03:22.861"	"210907.72317778511"	"79.79106145002747"	"211494.18747944283"	"208.45414803819679"	"797.90955675226473"	"328.82600873970284"	"2033"	"12"	"47771648"	"2571018240"	" "	" "	" "
"06/09/2016 14:03:23.864"	"210529.33013363768"	"80.792513103826465"	"210858.48481665328"	"204.47487884301759"	"797.95006627972737"	"331.95969554215219"	"2035"	"12"	"45813760"	"2573062144"	" "	" "	" "
"06/09/2016 14:03:24.866"	"210529.46383222422"	"78.838026008218122"	"211439.59395525578"	"212.56328531329697"	"793.68504880742034"	"332.13146443218182"	"2030"	"12"	"47697920"	"2570825728"	" "	" "	" "
"06/09/2016 14:03:25.865"	"210907.03315460926"	"77.058836480431012"	"211021.12026316472"	"196.14976558655167"	"797.54158525695777"	"331.5270903421079"	"2030"	"12"	"45797376"	"2568925184"	" "	" "	" "
"06/09/2016 14:03:26.867"	"210142.77238515927"	"72.828370873805426"	"210424.10937949372"	"196.53683646766672"	"799.66728852619292"	"333.58440496024423"	"2032"	"12"	"49614848"	"2572206080"	" "	" "	" "
"06/09/2016 14:03:27.870"	"210200.5464301038"	"73.808472928680416"	"210673.3196215659"	"201.47718285937086"	"802.58440781775437"	"335.05951005983923"	"2032"	"12"	"45793280"	"2568384512"	" "	" "	" "
