"(PDH-TSV 4.0) (Rom, sommertid)(-120)"	"\\AM-WORK\Netværkskort(Broadcom 802.11 netværksadapter)\Afsendte byte pr. sekund"	"\\AM-WORK\Netværkskort(Broadcom 802.11 netværksadapter)\Afsendte pakker pr. sekund"	"\\AM-WORK\Netværkskort(Broadcom 802.11 netværksadapter)\Modtagne byte pr. sekund"	"\\AM-WORK\Netværkskort(Broadcom 802.11 netværksadapter)\Modtagne pakker pr. sekund"	"\\AM-WORK\Proces(_Total)\% Processortid"	"\\AM-WORK\Proces(WaterGun)\% Processortid"	"\\AM-WORK\Proces(_Total)\Antal tråde"	"\\AM-WORK\Proces(WaterGun)\Antal tråde"	"\\AM-WORK\Proces(WaterGun)\Private byte"	"\\AM-WORK\Proces(_Total)\Private byte"	"\\AM-WORK\Proces(Gang Garrison 2)\% Processortid"	"\\AM-WORK\Proces(Gang Garrison 2)\Private byte"	"\\AM-WORK\Proces(Gang Garrison 2)\Antal tråde"
"06/09/2016 14:55:58.072"	" "	" "	" "	" "	" "	" "	"2094"	" "	" "	"2513272832"	" "	" "	" "
"06/09/2016 14:55:59.073"	"42.486786545217178"	"1.0115901558385043"	"42.486786545217178"	"1.0115901558385043"	"799.50406762685111"	" "	"2095"	" "	" "	"2513645568"	" "	" "	" "
"06/09/2016 14:56:00.075"	"0"	"0"	"0"	"0"	"798.03993411781323"	" "	"2095"	" "	" "	"2516336640"	" "	" "	" "
"06/09/2016 14:56:01.088"	"0"	"0"	"0"	"0"	"802.03837188480895"	" "	"2096"	" "	" "	"2517528576"	" "	" "	" "
"06/09/2016 14:56:02.075"	"0"	"0"	"0"	"0"	"798.10586927563008"	" "	"2096"	" "	" "	"2516217856"	" "	" "	" "
"06/09/2016 14:56:03.077"	"0"	"0"	"45.881677805987103"	"0.99742777839102403"	"794.80826008131055"	" "	"2096"	" "	" "	"2515918848"	" "	" "	" "
"06/09/2016 14:56:04.088"	"0"	"0"	"0"	"0"	"804.27961887143874"	" "	"2096"	" "	" "	"2514997248"	" "	" "	" "
"06/09/2016 14:56:05.083"	"0"	"0"	"0"	"0"	"787.68398163846496"	" "	"2096"	" "	" "	"2514980864"	" "	" "	" "
"06/09/2016 14:56:06.098"	"54.201007409570387"	"0.98547286199218886"	"65.041208891484459"	"0.98547286199218886"	"800.70513296829711"	" "	"2095"	" "	" "	"2515410944"	" "	" "	" "
"06/09/2016 14:56:07.097"	"0"	"0"	"0"	"0"	"798.07594468155685"	" "	"2096"	" "	" "	"2517516288"	" "	" "	" "
"06/09/2016 14:56:08.090"	"0"	"0"	"0"	"0"	"798.86955554672113"	" "	"2096"	" "	" "	"2518843392"	" "	" "	" "
"06/09/2016 14:56:09.084"	"0"	"0"	"0"	"0"	"792.38425655741992"	" "	"2096"	" "	" "	"2518839296"	" "	" "	" "
"06/09/2016 14:56:10.084"	"0"	"0"	"0"	"0"	"799.9211277768012"	" "	"2096"	" "	" "	"2518802432"	" "	" "	" "
"06/09/2016 14:56:11.084"	"0"	"0"	"0"	"0"	"801.47305560699419"	" "	"2096"	" "	" "	"2518802432"	" "	" "	" "
"06/09/2016 14:56:12.081"	"0"	"0"	"0"	"0"	"800.9709711818482"	" "	"2097"	" "	" "	"2520911872"	" "	" "	" "
"06/09/2016 14:56:13.084"	"0"	"0"	"0"	"0"	"794.46847554073963"	" "	"2097"	" "	" "	"2520924160"	" "	" "	" "
"06/09/2016 14:56:14.097"	"0"	"0"	"0"	"0"	"802.49798610043865"	" "	"2097"	" "	" "	"2520924160"	" "	" "	" "
"06/09/2016 14:56:15.082"	"0"	"0"	"0"	"0"	"791.01587566009084"	" "	"2097"	" "	" "	"2520969216"	" "	" "	" "
"06/09/2016 14:56:16.076"	"0"	"0"	"0"	"0"	"804.77424271749726"	" "	"2097"	" "	" "	"2522284032"	" "	" "	" "
"06/09/2016 14:56:17.083"	"0"	"0"	"85.475911413576426"	"0.99390594666949339"	"792.01810736023481"	" "	"2099"	" "	" "	"2526461952"	" "	" "	" "
"06/09/2016 14:56:18.088"	"0"	"0"	"0"	"0"	"803.13009094377958"	" "	"2099"	" "	" "	"2525147136"	" "	" "	" "
"06/09/2016 14:56:19.075"	"0"	"0"	"259.567124152931"	"2.0278681574447734"	"798.49366072080409"	" "	"2099"	" "	" "	"2525020160"	" "	" "	" "
"06/09/2016 14:56:20.085"	"0"	"0"	"0"	"0"	"791.6966068180318"	" "	"2094"	" "	" "	"2524868608"	" "	" "	" "
"06/09/2016 14:56:21.091"	"0"	"0"	"0"	"0"	"807.39283661201068"	" "	"2094"	" "	" "	"2524868608"	" "	" "	" "
"06/09/2016 14:56:22.079"	"0"	"0"	"0"	"0"	"797.14037657215067"	" "	"2094"	" "	" "	"2524909568"	" "	" "	" "
"06/09/2016 14:56:23.098"	"0"	"0"	"0"	"0"	"794.4222259781933"	" "	"2094"	" "	" "	"2524753920"	" "	" "	" "
"06/09/2016 14:56:24.087"	"0"	"0"	"0"	"0"	"809.10223836111493"	" "	"2094"	" "	" "	"2524749824"	" "	" "	" "
"06/09/2016 14:56:25.083"	"0"	"0"	"0"	"0"	"782.61801315024104"	" "	"2094"	" "	" "	"2524721152"	" "	" "	" "
"06/09/2016 14:56:26.091"	"0"	"0"	"0"	"0"	"806.54191357603122"	" "	"2096"	" "	" "	"2525016064"	" "	" "	" "
"06/09/2016 14:56:27.086"	"103.48247431369815"	"1.004684216637846"	"151.70731671231476"	"1.004684216637846"	"789.51637774029678"	" "	"2103"	" "	" "	"2530742272"	" "	" "	" "
"06/09/2016 14:56:28.091"	"5222.6871529025493"	"41.805386015229097"	"21939.864727325705"	"41.805386015229097"	"740.33859379365822"	" "	"2106"	" "	" "	"2530242560"	" "	" "	" "
"06/09/2016 14:56:29.083"	"2097.4379396364811"	"18.133469218759203"	"15388.263462030378"	"19.140884175356934"	"695.78627299444543"	" "	"2097"	" "	" "	"2526437376"	" "	" "	" "
"06/09/2016 14:56:30.094"	"0"	"0"	"0"	"0"	"803.6356576059095"	" "	"2098"	" "	" "	"2526441472"	" "	" "	" "
"06/09/2016 14:56:31.094"	"0"	"0"	"0"	"0"	"799.85226728623229"	" "	"2098"	" "	" "	"2526359552"	" "	" "	" "
"06/09/2016 14:56:32.080"	"87.264901163040804"	"1.0147081530586139"	"79.147235938571882"	"1.0147081530586139"	"799.0724873913972"	" "	"2099"	" "	" "	"2528460800"	" "	" "	" "
"06/09/2016 14:56:33.080"	"41.997113879926161"	"0.9999312828553848"	"41.997113879926161"	"0.9999312828553848"	"799.88369691046921"	" "	"2099"	" "	" "	"2528460800"	" "	" "	" "
"06/09/2016 14:56:34.089"	"0"	"0"	"0"	"0"	"801.83788425557441"	" "	"2096"	" "	" "	"2528358400"	" "	" "	" "
"06/09/2016 14:56:35.074"	"0"	"0"	"0"	"0"	"790.68969175372001"	" "	"2096"	" "	" "	"2528985088"	" "	" "	" "
"06/09/2016 14:56:36.099"	"118.00074286025132"	"1.950425501822336"	"122.87680661480717"	"1.950425501822336"	"792.41211515713212"	" "	"2096"	" "	" "	"2528985088"	" "	" "	" "
"06/09/2016 14:56:37.090"	"0"	"0"	"0"	"0"	"805.31472670309915"	" "	"2096"	" "	" "	"2528956416"	" "	" "	" "
"06/09/2016 14:56:38.097"	"0"	"0"	"0"	"0"	"794.98231015300723"	" "	"2096"	" "	" "	"2528960512"	" "	" "	" "
"06/09/2016 14:56:39.093"	"0"	"0"	"0"	"0"	"800.13314215485457"	" "	"2096"	" "	" "	"2528960512"	" "	" "	" "
"06/09/2016 14:56:40.082"	"0"	"0"	"0"	"0"	"796.14598618072546"	" "	"2096"	" "	" "	"2528907264"	" "	" "	" "
"06/09/2016 14:56:41.092"	"0"	"0"	"0"	"0"	"804.44206472605208"	" "	"2095"	" "	" "	"2528907264"	" "	" "	" "
"06/09/2016 14:56:42.083"	"0"	"0"	"0"	"0"	"794.73045770419276"	" "	"2095"	" "	" "	"2528907264"	" "	" "	" "
"06/09/2016 14:56:43.093"	"0"	"0"	"0"	"0"	"804.29984139702083"	" "	"2096"	" "	" "	"2529136640"	" "	" "	" "
"06/09/2016 14:56:44.079"	"0"	"0"	"0"	"0"	"794.13173611387265"	" "	"2096"	" "	" "	"2529136640"	" "	" "	" "
"06/09/2016 14:56:45.085"	"0"	"0"	"0"	"0"	"788.76625926744464"	" "	"2096"	" "	" "	"2529021952"	" "	" "	" "
"06/09/2016 14:56:46.085"	"0"	"0"	"0"	"0"	"801.1842609104242"	" "	"2096"	" "	" "	"2529107968"	" "	" "	" "
"06/09/2016 14:56:47.085"	"0"	"0"	"86.026872396736564"	"1.0003124697294949"	"795.53970614007358"	" "	"2098"	" "	" "	"2533318656"	" "	" "	" "
"06/09/2016 14:56:48.093"	"0"	"0"	"0"	"0"	"806.3615725291221"	" "	"2098"	" "	" "	"2533318656"	" "	" "	" "
"06/09/2016 14:56:49.077"	"0"	"0"	"0"	"0"	"798.15380265733234"	" "	"2098"	" "	" "	"2533294080"	" "	" "	" "
"06/09/2016 14:56:50.089"	"0"	"0"	"0"	"0"	"803.4002072129814"	" "	"2098"	" "	" "	"2533294080"	" "	" "	" "
"06/09/2016 14:56:51.084"	"0"	"0"	"0"	"0"	"791.37083215130167"	" "	"2098"	" "	" "	"2533294080"	" "	" "	" "
"06/09/2016 14:56:52.089"	"0"	"0"	"0"	"0"	"808.5552207888154"	" "	"2098"	" "	" "	"2533277696"	" "	" "	" "
"06/09/2016 14:56:53.073"	"0"	"0"	"71.097821480613604"	"1.0156831640087658"	"799.79720189806346"	" "	"2098"	" "	" "	"2533289984"	" "	" "	" "
"06/09/2016 14:56:54.088"	"0"	"0"	"0"	"0"	"797.702380605082"	" "	"2091"	" "	" "	"2515955712"	" "	" "	" "
"06/09/2016 14:56:55.079"	"0"	"0"	"0"	"0"	"785.54113676396128"	" "	"2091"	" "	" "	"2516021248"	" "	" "	" "
"06/09/2016 14:56:56.090"	"0"	"0"	"0"	"0"	"801.59197958758227"	" "	"2091"	" "	" "	"2516008960"	" "	" "	" "
"06/09/2016 14:56:57.080"	"46.463595722987634"	"1.0100781678910355"	"60.60469007346213"	"1.0100781678910355"	"790.78343890749977"	" "	"2092"	" "	" "	"2518036480"	" "	" "	" "
"06/09/2016 14:56:58.092"	"41.501738452902593"	"0.98813662983101413"	"41.501738452902593"	"0.98813662983101413"	"801.28878114188001"	" "	"2091"	" "	" "	"2515951616"	" "	" "	" "
"06/09/2016 14:56:59.080"	"104.2231441268878"	"1.0118751856979398"	"152.79315304038892"	"1.0118751856979398"	"793.69070656104827"	" "	"2091"	" "	" "	"2515959808"	" "	" "	" "
"06/09/2016 14:57:00.089"	"0"	"0"	"0"	"0"	"805.2595889320761"	" "	"2091"	" "	" "	"2517954560"	" "	" "	" "
"06/09/2016 14:57:01.087"	"0"	"0"	"88.236487269515422"	"2.0053747106708051"	"789.57674475405213"	" "	"2092"	" "	" "	"2518016000"	" "	" "	" "
"06/09/2016 14:57:02.087"	"0"	"0"	"45.990867160235609"	"0.99980146000512193"	"812.35678149942157"	" "	"2092"	" "	" "	"2516832256"	" "	" "	" "
"06/09/2016 14:57:03.075"	"46.554456903263805"	"1.0120534109405175"	"0"	"0"	"796.979432769244"	" "	"2092"	" "	" "	"2516828160"	" "	" "	" "
"06/09/2016 14:57:04.088"	"0"	"0"	"0"	"0"	"798.74640113860892"	" "	"2092"	" "	" "	"2516828160"	" "	" "	" "
"06/09/2016 14:57:05.083"	"0"	"0"	"174.95718632342258"	"1.0055010708242678"	"780.83931308563263"	" "	"2092"	" "	" "	"2516832256"	" "	" "	" "
"06/09/2016 14:57:06.095"	"54.354872781380841"	"0.98827041420692441"	"65.225847337657015"	"0.98827041420692441"	"802.97891836911379"	" "	"2092"	" "	" "	"2516832256"	" "	" "	" "
"06/09/2016 14:57:07.084"	"0"	"0"	"0"	"0"	"792.87653940612824"	" "	"2093"	" "	" "	"2518937600"	" "	" "	" "
"06/09/2016 14:57:08.095"	"0"	"0"	"0"	"0"	"802.30978153330352"	" "	"2093"	" "	" "	"2518941696"	" "	" "	" "
"06/09/2016 14:57:09.091"	"0"	"0"	"0"	"0"	"796.56026461355657"	" "	"2093"	" "	" "	"2518794240"	" "	" "	" "
"06/09/2016 14:57:10.075"	"0"	"0"	"42.678229995397459"	"1.0161483332237491"	"800.21648015102403"	" "	"2093"	" "	" "	"2519134208"	" "	" "	" "
"06/09/2016 14:57:11.086"	"41.565154142824404"	"0.98964652721010482"	"59.378791632606287"	"0.98964652721010482"	"790.20091973325236"	" "	"2093"	" "	" "	"2518917120"	" "	" "	" "
"06/09/2016 14:57:12.089"	"0"	"0"	"0"	"0"	"808.43450592620184"	" "	"2094"	" "	" "	"2520887296"	" "	" "	" "
"06/09/2016 14:57:13.075"	"0"	"0"	"0"	"0"	"798.47350117398412"	" "	"2094"	" "	" "	"2520895488"	" "	" "	" "
"06/09/2016 14:57:14.088"	"0"	"0"	"0"	"0"	"797.25634760391563"	" "	"2094"	" "	" "	"2521149440"	" "	" "	" "
"06/09/2016 14:57:15.083"	"0"	"0"	"0"	"0"	"785.56747886383562"	" "	"2094"	" "	" "	"2521219072"	" "	" "	" "
"06/09/2016 14:57:16.083"	"0"	"0"	"0"	"0"	"799.97888055755334"	" "	"2094"	" "	" "	"2521214976"	" "	" "	" "
"06/09/2016 14:57:17.089"	"0"	"0"	"85.504923039790739"	"0.99424329116035737"	"804.72033662887134"	" "	"2094"	" "	" "	"2521214976"	" "	" "	" "
"06/09/2016 14:57:18.085"	"0"	"0"	"0"	"0"	"790.13105740806316"	" "	"2094"	" "	" "	"2521214976"	" "	" "	" "
"06/09/2016 14:57:19.094"	"0"	"0"	"0"	"0"	"801.01873966143557"	" "	"2087"	" "	" "	"2520723456"	" "	" "	" "
"06/09/2016 14:57:20.085"	"0"	"0"	"0"	"0"	"794.65964500358882"	" "	"2087"	" "	" "	"2520715264"	" "	" "	" "
"06/09/2016 14:57:21.093"	"0"	"0"	"0"	"0"	"805.72681864442939"	" "	"2085"	" "	" "	"2520559616"	" "	" "	" "
"06/09/2016 14:57:22.078"	"0"	"0"	"0"	"0"	"799.87185798907444"	" "	"2086"	" "	" "	"2522669056"	" "	" "	" "
"06/09/2016 14:57:23.094"	"0"	"0"	"0"	"0"	"799.451040339168"	" "	"2086"	" "	" "	"2522677248"	" "	" "	" "
"06/09/2016 14:57:24.080"	"0"	"0"	"0"	"0"	"795.68010246381618"	" "	"2084"	" "	" "	"2522517504"	" "	" "	" "
"06/09/2016 14:57:25.083"	"0"	"0"	"0"	"0"	"787.96247479765873"	" "	"2084"	" "	" "	"2522517504"	" "	" "	" "
"06/09/2016 14:57:26.085"	"0"	"0"	"0"	"0"	"800.40487443011182"	" "	"2084"	" "	" "	"2522517504"	" "	" "	" "
"06/09/2016 14:57:27.078"	"0"	"0"	"0"	"0"	"803.85160130511008"	" "	"2084"	" "	" "	"2522513408"	" "	" "	" "
"06/09/2016 14:57:28.091"	"0"	"0"	"0"	"0"	"798.90297974154782"	" "	"2084"	" "	" "	"2522525696"	" "	" "	" "
"06/09/2016 14:57:29.079"	"0"	"0"	"0"	"0"	"793.62292927019973"	" "	"2084"	" "	" "	"2522525696"	" "	" "	" "
"06/09/2016 14:57:30.094"	"0"	"0"	"0"	"0"	"800.9784851756873"	" "	"2084"	" "	" "	"2522521600"	" "	" "	" "
"06/09/2016 14:57:31.099"	"0"	"0"	"0"	"0"	"796.16891479887931"	" "	"2084"	" "	" "	"2522517504"	" "	" "	" "
"06/09/2016 14:57:32.083"	"0"	"0"	"0"	"0"	"799.79508995892047"	" "	"2085"	" "	" "	"2524622848"	" "	" "	" "
"06/09/2016 14:57:33.084"	"0"	"0"	"0"	"0"	"800.74557935993698"	" "	"2085"	" "	" "	"2524631040"	" "	" "	" "
"06/09/2016 14:57:34.083"	"0"	"0"	"0"	"0"	"796.15100623977173"	" "	"2085"	" "	" "	"2524639232"	" "	" "	" "
"06/09/2016 14:57:35.083"	"0"	"0"	"0"	"0"	"788.88436990927448"	" "	"2085"	" "	" "	"2525163520"	" "	" "	" "
"06/09/2016 14:57:36.087"	"54.783717314349424"	"0.99606758753362579"	"65.740460777219312"	"0.99606758753362579"	"809.30236542397336"	" "	"2085"	" "	" "	"2525249536"	" "	" "	" "
"06/09/2016 14:57:37.079"	"0"	"0"	"0"	"0"	"793.94644818604661"	" "	"2085"	" "	" "	"2525216768"	" "	" "	" "
"06/09/2016 14:57:38.094"	"0"	"0"	"236.49455858562359"	"2.9561819823202948"	"797.56167596789874"	" "	"2085"	" "	" "	"2523901952"	" "	" "	" "
"06/09/2016 14:57:39.079"	"0"	"0"	"544.28924197102663"	"7.1082550257410198"	"796.48151909017054"	" "	"2082"	" "	" "	"2523820032"	" "	" "	" "
"06/09/2016 14:57:40.088"	"0"	"0"	"91.214492426605432"	"0.99146187420223297"	"805.5770321015259"	" "	"2082"	" "	" "	"2523770880"	" "	" "	" "
"06/09/2016 14:57:41.085"	"0"	"0"	"0"	"0"	"789.24652363214557"	" "	"2082"	" "	" "	"2523762688"	" "	" "	" "
"06/09/2016 14:57:42.089"	"0"	"0"	"0"	"0"	"809.82183819889246"	" "	"2080"	" "	" "	"2523705344"	" "	" "	" "
"06/09/2016 14:57:43.083"	"103.55745643276769"	"1.0054121983763853"	"151.8172419548342"	"1.0054121983763853"	"791.75895057101661"	" "	"2080"	" "	" "	"2523746304"	" "	" "	" "
"06/09/2016 14:57:44.089"	"0"	"0"	"0"	"0"	"808.11629236046144"	" "	"2081"	" "	" "	"2525569024"	" "	" "	" "
"06/09/2016 14:57:45.077"	"0"	"0"	"0"	"0"	"785.53456154817866"	" "	"2079"	" "	" "	"2523693056"	" "	" "	" "
"06/09/2016 14:57:46.086"	"0"	"0"	"0"	"0"	"793.40435029555806"	" "	"2079"	" "	" "	"2523676672"	" "	" "	" "
"06/09/2016 14:57:47.101"	"0"	"0"	"84.708534461615017"	"0.98498295885598852"	"800.30676620217355"	" "	"2081"	" "	" "	"2527887360"	" "	" "	" "
"06/09/2016 14:57:48.086"	"42.626601919586079"	"1.0149190933234782"	"42.626601919586079"	"1.0149190933234782"	"796.09301147307679"	" "	"2081"	" "	" "	"2527903744"	" "	" "	" "
"06/09/2016 14:57:49.100"	"0"	"0"	"0"	"0"	"801.29295645246452"	" "	"2081"	" "	" "	"2527907840"	" "	" "	" "
"06/09/2016 14:57:50.085"	"0"	"0"	"0"	"0"	"796.59346926903618"	" "	"2081"	" "	" "	"2527903744"	" "	" "	" "
"06/09/2016 14:57:51.081"	"0"	"0"	"0"	"0"	"790.22231587820033"	" "	"2072"	" "	" "	"2524160000"	" "	" "	" "
"06/09/2016 14:57:52.085"	"0"	"0"	"0"	"0"	"796.69784676472955"	" "	"2072"	" "	" "	"2524164096"	" "	" "	" "
"06/09/2016 14:57:53.086"	"0"	"0"	"69.995221032810221"	"0.99993172904014604"	"799.90865043212068"	" "	"2072"	" "	" "	"2524168192"	" "	" "	" "
"06/09/2016 14:57:54.089"	"0"	"0"	"0"	"0"	"810.08125937575585"	" "	"2072"	" "	" "	"2524168192"	" "	" "	" "
"06/09/2016 14:57:55.073"	"0"	"0"	"0"	"0"	"792.16464771679296"	" "	"2072"	" "	" "	"2525487104"	" "	" "	" "
"06/09/2016 14:57:56.090"	"0"	"0"	"58.971887972947194"	"0.98286479954911987"	"798.58497622329946"	" "	"2072"	" "	" "	"2525474816"	" "	" "	" "
"06/09/2016 14:57:57.074"	"0"	"0"	"0"	"0"	"800.24803116120108"	" "	"2070"	" "	" "	"2525376512"	" "	" "	" "
"06/09/2016 14:57:58.078"	"41.841217806715598"	"0.99621947158846658"	"101.61438610202359"	"1.9924389431769332"	"793.91465104916779"	" "	"2070"	" "	" "	"2525384704"	" "	" "	" "
"06/09/2016 14:57:59.082"	"0"	"0"	"0"	"0"	"796.69967161035413"	" "	"2070"	" "	" "	"2525384704"	" "	" "	" "
"06/09/2016 14:58:00.092"	"54.446019778081897"	"0.9899276323287618"	"106.91218429150628"	"1.9798552646575236"	"796.49302050642575"	" "	"2060"	" "	" "	"2507902976"	" "	" "	" "
"06/09/2016 14:58:01.077"	"0"	"0"	"42.664938948101351"	"1.015831879716699"	"798.38723112730679"	" "	"2060"	" "	" "	"2507874304"	" "	" "	" "
"06/09/2016 14:58:02.083"	"45.710611129242814"	"0.99370893759223511"	"41.735775378873875"	"0.99370893759223511"	"793.43804686669296"	" "	"2060"	" "	" "	"2507882496"	" "	" "	" "
"06/09/2016 14:58:03.086"	"0"	"0"	"0"	"0"	"799.25696336348176"	" "	"2060"	" "	" "	"2507878400"	" "	" "	" "
"06/09/2016 14:58:04.078"	"46.359469872604102"	"1.0078145624479153"	"0"	"0"	"804.66796357516625"	" "	"2060"	" "	" "	"2507890688"	" "	" "	" "
"06/09/2016 14:58:05.086"	"45.656655751762024"	"0.99253599460352238"	"0"	"0"	"783.14513368439407"	" "	"2059"	" "	" "	"2507911168"	" "	" "	" "
"06/09/2016 14:58:06.097"	"54.368299930214725"	"0.98851454418572227"	"65.24195991625767"	"0.98851454418572227"	"803.31092631389538"	" "	"2059"	" "	" "	"2508038144"	" "	" "	" "
"06/09/2016 14:58:07.083"	"0"	"0"	"0"	"0"	"799.16371449670805"	" "	"2059"	" "	" "	"2508079104"	" "	" "	" "
"06/09/2016 14:58:08.091"	"0"	"0"	"0"	"0"	"802.90280052496814"	" "	"2059"	" "	" "	"2508079104"	" "	" "	" "
"06/09/2016 14:58:09.087"	"1610.1332469681474"	"16.061179520879275"	"11583.121905714122"	"17.065003240934232"	"803.10141705237288"	" "	"2060"	" "	" "	"2508234752"	" "	" "	" "
"06/09/2016 14:58:10.079"	"0"	"0"	"0"	"0"	"788.8401061349881"	" "	"2060"	" "	" "	"2508328960"	" "	" "	" "
"06/09/2016 14:58:11.087"	"41.689853950322203"	"0.99261557024576663"	"59.556934214746001"	"0.99261557024576663"	"794.10299118744206"	" "	"2060"	" "	" "	"2510598144"	" "	" "	" "
"06/09/2016 14:58:12.092"	"0"	"0"	"0"	"0"	"808.2379189818331"	" "	"2060"	" "	" "	"2510598144"	" "	" "	" "
"06/09/2016 14:58:13.086"	"86.510667332827879"	"1.0059379922421847"	"78.463163394890401"	"1.0059379922421847"	"793.75007041584786"	" "	"2060"	" "	" "	"2510483456"	" "	" "	" "
"06/09/2016 14:58:14.086"	"234"	"3"	"124"	"2"	"798.39366818761653"	" "	"2060"	" "	" "	"2510483456"	" "	" "	" "
"06/09/2016 14:58:15.096"	"93.068532636429723"	"0.99009077272797574"	"190.09742836377134"	"1.9801815454559515"	"792.11042177701654"	" "	"2060"	" "	" "	"2510520320"	" "	" "	" "
"06/09/2016 14:58:16.087"	"0"	"0"	"86.83063690594193"	"1.0096585686737434"	"791.92025783257725"	" "	"2060"	" "	" "	"2510266368"	" "	" "	" "
"06/09/2016 14:58:17.087"	"0"	"0"	"0"	"0"	"809.02590532185366"	" "	"2061"	" "	" "	"2513424384"	" "	" "	" "
"06/09/2016 14:58:18.080"	"0"	"0"	"0"	"0"	"791.04687174459832"	" "	"2061"	" "	" "	"2513063936"	" "	" "	" "
"06/09/2016 14:58:19.085"	"41.822569435804098"	"0.99577546275724049"	"338.56365733746179"	"3.983101851028962"	"796.69752940112653"	" "	"2061"	" "	" "	"2513440768"	" "	" "	" "
"06/09/2016 14:58:20.098"	"0"	"0"	"41.440577711556344"	"0.9866804217037225"	"793.92779357754034"	" "	"2061"	" "	" "	"2513199104"	" "	" "	" "
"06/09/2016 14:58:21.084"	"0"	"0"	"0"	"0"	"800.09062919659414"	" "	"2061"	" "	" "	"2513223680"	" "	" "	" "
"06/09/2016 14:58:22.084"	"0"	"0"	"0"	"0"	"798.7811356445543"	" "	"2061"	" "	" "	"2513207296"	" "	" "	" "
"06/09/2016 14:58:23.085"	"0"	"0"	"0"	"0"	"799.54082370494621"	" "	"2061"	" "	" "	"2513211392"	" "	" "	" "
"06/09/2016 14:58:24.093"	"0"	"0"	"0"	"0"	"805.61161786147545"	" "	"2059"	" "	" "	"2513158144"	" "	" "	" "
"06/09/2016 14:58:25.077"	"0"	"0"	"0"	"0"	"787.5492027715635"	" "	"2060"	" "	" "	"2513166336"	" "	" "	" "
"06/09/2016 14:58:26.078"	"0"	"0"	"0"	"0"	"799.5037480236017"	" "	"2060"	" "	" "	"2513158144"	" "	" "	" "
"06/09/2016 14:58:27.087"	"0"	"0"	"0"	"0"	"804.924931957838"	" "	"2060"	" "	" "	"2513178624"	" "	" "	" "
"06/09/2016 14:58:28.084"	"0"	"0"	"0"	"0"	"785.32632958098873"	" "	"2060"	" "	" "	"2513178624"	" "	" "	" "
"06/09/2016 14:58:29.089"	"0"	"0"	"0"	"0"	"808.74089146239362"	" "	"2060"	" "	" "	"2513162240"	" "	" "	" "
"06/09/2016 14:58:30.083"	"0"	"0"	"0"	"0"	"788.60349192369483"	" "	"2059"	" "	" "	"2513043456"	" "	" "	" "
"06/09/2016 14:58:31.085"	"0"	"0"	"0"	"0"	"797.38073131678584"	" "	"2059"	" "	" "	"2513051648"	" "	" "	" "
"06/09/2016 14:58:32.088"	"0"	"0"	"0"	"0"	"809.85243043442381"	" "	"2059"	" "	" "	"2513088512"	" "	" "	" "
"06/09/2016 14:58:33.074"	"0"	"0"	"0"	"0"	"798.71807523853272"	" "	"2059"	" "	" "	"2513043456"	" "	" "	" "
"06/09/2016 14:58:34.089"	"0"	"0"	"0"	"0"	"800.41477740046366"	" "	"2059"	" "	" "	"2513043456"	" "	" "	" "
"06/09/2016 14:58:35.084"	"0"	"0"	"0"	"0"	"780.02205381307169"	" "	"2059"	" "	" "	"2513694720"	" "	" "	" "
"06/09/2016 14:58:36.085"	"120.99060546849726"	"1.9998447184875581"	"125.99021726471615"	"1.9998447184875581"	"801.50743643911665"	" "	"2059"	" "	" "	"2513698816"	" "	" "	" "
"06/09/2016 14:58:37.081"	"0"	"0"	"0"	"0"	"801.2805234251648"	" "	"2060"	" "	" "	"2515771392"	" "	" "	" "
"06/09/2016 14:58:38.083"	"0"	"0"	"0"	"0"	"795.07899605580951"	" "	"2060"	" "	" "	"2513141760"	" "	" "	" "
"06/09/2016 14:58:39.098"	"0"	"0"	"0"	"0"	"800.89258369524646"	" "	"2059"	" "	" "	"2513104896"	" "	" "	" "
"06/09/2016 14:58:40.086"	"0"	"0"	"0"	"0"	"793.47175695764088"	" "	"2059"	" "	" "	"2513055744"	" "	" "	" "
"06/09/2016 14:58:41.088"	"0"	"0"	"0"	"0"	"809.62016702623157"	" "	"2059"	" "	" "	"2513055744"	" "	" "	" "
"06/09/2016 14:58:42.081"	"0"	"0"	"0"	"0"	"793.1984966395579"	" "	"2059"	" "	" "	"2513051648"	" "	" "	" "
"06/09/2016 14:58:43.091"	"0"	"0"	"0"	"0"	"804.00329319748903"	" "	"2059"	" "	" "	"2513113088"	" "	" "	" "
"06/09/2016 14:58:44.076"	"0"	"0"	"0"	"0"	"800.09160159847636"	" "	"2059"	" "	" "	"2513207296"	" "	" "	" "
"06/09/2016 14:58:45.089"	"0"	"0"	"0"	"0"	"789.40554604760428"	" "	"2059"	" "	" "	"2513076224"	" "	" "	" "
"06/09/2016 14:58:46.087"	"0"	"0"	"0"	"0"	"789.39201478102723"	" "	"2059"	" "	" "	"2513096704"	" "	" "	" "
"06/09/2016 14:58:47.091"	"0"	"0"	"85.585690336247339"	"0.99518244577031789"	"808.57203789709968"	" "	"2061"	" "	" "	"2521403392"	" "	" "	" "
"06/09/2016 14:58:48.090"	"0"	"0"	"0"	"0"	"796.44097722062395"	" "	"2061"	" "	" "	"2521878528"	" "	" "	" "
"06/09/2016 14:58:49.089"	"0"	"0"	"0"	"0"	"800.51080594527355"	" "	"2061"	" "	" "	"2523160576"	" "	" "	" "
"06/09/2016 14:58:50.082"	"0"	"0"	"0"	"0"	"788.56238146065857"	" "	"2061"	" "	" "	"2523160576"	" "	" "	" "
"06/09/2016 14:58:51.082"	"0"	"0"	"0"	"0"	"798.38480660276423"	" "	"2061"	" "	" "	"2523164672"	" "	" "	" "
"06/09/2016 14:58:52.099"	"0"	"0"	"0"	"0"	"798.6841224447146"	" "	"2061"	" "	" "	"2523181056"	" "	" "	" "
"06/09/2016 14:58:53.095"	"0"	"0"	"70.310557642046078"	"1.0044365377435154"	"803.56687263424897"	" "	"2061"	" "	" "	"2523164672"	" "	" "	" "
"06/09/2016 14:58:54.083"	"0"	"0"	"0"	"0"	"797.13714899014622"	" "	"2061"	" "	" "	"2523164672"	" "	" "	" "
"06/09/2016 14:58:55.088"	"0"	"0"	"91.536134385130055"	"0.99495798244706579"	"792.81917494672496"	" "	"2061"	" "	" "	"2522914816"	" "	" "	" "
"06/09/2016 14:58:56.080"	"0"	"0"	"153.23081518563222"	"2.0161949366530556"	"793.87569509487651"	" "	"2061"	" "	" "	"2522914816"	" "	" "	" "
"06/09/2016 14:58:57.080"	"0"	"0"	"183.94344411997469"	"2.9990778932604569"	"799.77294446106748"	" "	"2061"	" "	" "	"2522898432"	" "	" "	" "
"06/09/2016 14:58:58.078"	"42.109496261895494"	"1.0026070538546545"	"42.109496261895494"	"1.0026070538546545"	"798.91246646322122"	" "	"2061"	" "	" "	"2522902528"	" "	" "	" "
"06/09/2016 14:58:59.081"	"0"	"0"	"0"	"0"	"797.06417352963831"	" "	"2061"	" "	" "	"2522902528"	" "	" "	" "
"06/09/2016 14:59:00.085"	"0"	"0"	"45.838893130670542"	"0.99649767675370748"	"797.1786254089526"	" "	"2061"	" "	" "	"2522906624"	" "	" "	" "
"06/09/2016 14:59:01.096"	"45.484951630240062"	"0.98880329630956654"	"0"	"0"	"798.76449518083905"	" "	"2061"	" "	" "	"2522918912"	" "	" "	" "
"06/09/2016 14:59:02.088"	"103.89101083945704"	"1.0086505906743402"	"152.30623919182537"	"1.0086505906743402"	"806.86203889599483"	" "	"2061"	" "	" "	"2522914816"	" "	" "	" "
"06/09/2016 14:59:03.081"	"0"	"0"	"0"	"0"	"791.14489481214298"	" "	"2061"	" "	" "	"2522898432"	" "	" "	" "
"06/09/2016 14:59:04.081"	"0"	"0"	"0"	"0"	"799.91216964377315"	" "	"2061"	" "	" "	"2522898432"	" "	" "	" "
"06/09/2016 14:59:05.093"	"0"	"0"	"0"	"0"	"793.70334444970979"	" "	"2061"	" "	" "	"2523209728"	" "	" "	" "
"06/09/2016 14:59:06.097"	"54.776875573599639"	"0.99594319224726624"	"65.732250688319567"	"0.99594319224726624"	"795.18669726291944"	" "	"2055"	" "	" "	"2508050432"	" "	" "	" "
"06/09/2016 14:59:07.088"	"42.390953271028032"	"1.0093084112149533"	"42.390953271028032"	"1.0093084112149533"	"805.83628585861084"	" "	"2055"	" "	" "	"2508099584"	" "	" "	" "
"06/09/2016 14:59:08.081"	"0"	"0"	"0"	"0"	"788.4352258128846"	" "	"2055"	" "	" "	"2508079104"	" "	" "	" "
"06/09/2016 14:59:09.092"	"106.8045172109444"	"1.9778614298323038"	"53.402258605472198"	"0.98893071491615192"	"802.00310520767607"	" "	"2055"	" "	" "	"2508046336"	" "	" "	" "
"06/09/2016 14:59:10.082"	"0"	"0"	"0"	"0"	"795.63231703891825"	" "	"2055"	" "	" "	"2508009472"	" "	" "	" "
"06/09/2016 14:59:11.087"	"41.788995982651876"	"0.99497609482504457"	"59.698565689502672"	"0.99497609482504457"	"803.82232597386576"	" "	"2055"	" "	" "	"2510106624"	" "	" "	" "
"06/09/2016 14:59:12.085"	"0"	"0"	"0"	"0"	"788.88457131110817"	" "	"2055"	" "	" "	"2510110720"	" "	" "	" "
"06/09/2016 14:59:13.093"	"0"	"0"	"0"	"0"	"806.26939201929258"	" "	"2055"	" "	" "	"2510110720"	" "	" "	" "
"06/09/2016 14:59:14.079"	"42.581666972808293"	"1.0138492136382926"	"42.581666972808293"	"1.0138492136382926"	"798.45471889780595"	" "	"2053"	" "	" "	"2510053376"	" "	" "	" "
"06/09/2016 14:59:15.101"	"0"	"0"	"0"	"0"	"787.58663147087293"	" "	"2053"	" "	" "	"2510094336"	" "	" "	" "
"06/09/2016 14:59:16.089"	"0"	"0"	"87.068011668772755"	"1.0124187403345668"	"805.16522635842534"	" "	"2053"	" "	" "	"2510090240"	" "	" "	" "
"06/09/2016 14:59:17.084"	"0"	"0"	"0"	"0"	"790.85949203622067"	" "	"2055"	" "	" "	"2514276352"	" "	" "	" "
"06/09/2016 14:59:18.084"	"0"	"0"	"0"	"0"	"798.38297044311867"	" "	"2055"	" "	" "	"2514276352"	" "	" "	" "
"06/09/2016 14:59:19.096"	"0"	"0"	"240.20585544494361"	"0.98850146273639339"	"803.22190347081823"	" "	"2055"	" "	" "	"2514280448"	" "	" "	" "
"06/09/2016 14:59:20.101"	"0"	"0"	"0"	"0"	"796.19086367002978"	" "	"2055"	" "	" "	"2514280448"	" "	" "	" "
"06/09/2016 14:59:21.096"	"0"	"0"	"42.204305786054157"	"1.00486442347748"	"799.19916538108134"	" "	"2055"	" "	" "	"2514485248"	" "	" "	" "
"06/09/2016 14:59:22.090"	"0"	"0"	"331.90560269939959"	"5.0288727681727217"	"804.58096216618935"	" "	"2056"	" "	" "	"2516594688"	" "	" "	" "
"06/09/2016 14:59:23.077"	"0"	"0"	"66.889414414414418"	"1.0134759759759759"	"794.97326558750638"	" "	"2056"	" "	" "	"2516590592"	" "	" "	" "
"06/09/2016 14:59:24.083"	"0"	"0"	"0"	"0"	"792.21841935288569"	" "	"2054"	" "	" "	"2516529152"	" "	" "	" "
"06/09/2016 14:59:25.095"	"0"	"0"	"0"	"0"	"793.57205891202295"	" "	"2054"	" "	" "	"2516418560"	" "	" "	" "
"06/09/2016 14:59:26.089"	"0"	"0"	"0"	"0"	"793.61571142113644"	" "	"2054"	" "	" "	"2516783104"	" "	" "	" "
"06/09/2016 14:59:27.092"	"0"	"0"	"0"	"0"	"796.24837434441486"	" "	"2054"	" "	" "	"2516553728"	" "	" "	" "
"06/09/2016 14:59:28.080"	"0"	"0"	"0"	"0"	"793.85562075081668"	" "	"2054"	" "	" "	"2516553728"	" "	" "	" "
"06/09/2016 14:59:29.083"	"0"	"0"	"0"	"0"	"797.69617368079253"	" "	"2054"	" "	" "	"2516541440"	" "	" "	" "
"06/09/2016 14:59:30.085"	"0"	"0"	"45.896733644737054"	"0.99775507923341422"	"798.17417657109354"	" "	"2055"	" "	" "	"2516545536"	" "	" "	" "
"06/09/2016 14:59:31.094"	"0"	"0"	"0"	"0"	"803.37699939638071"	" "	"2055"	" "	" "	"2516545536"	" "	" "	" "
"06/09/2016 14:59:32.085"	"0"	"0"	"0"	"0"	"796.38124362895007"	" "	"2055"	" "	" "	"2516549632"	" "	" "	" "
"06/09/2016 14:59:33.080"	"0"	"0"	"0"	"0"	"802.97390105400461"	" "	"2055"	" "	" "	"2516541440"	" "	" "	" "
"06/09/2016 14:59:34.083"	"0"	"0"	"0"	"0"	"797.49101352235732"	" "	"2055"	" "	" "	"2516541440"	" "	" "	" "
"06/09/2016 14:59:35.095"	"0"	"0"	"0"	"0"	"794.86362152880133"	" "	"2055"	" "	" "	"2517405696"	" "	" "	" "
"06/09/2016 14:59:36.085"	"55.577095643672934"	"1.0104926480667806"	"66.69251477240752"	"1.0104926480667806"	"795.77414121065192"	" "	"2055"	" "	" "	"2517405696"	" "	" "	" "
"06/09/2016 14:59:37.088"	"0"	"0"	"0"	"0"	"808.52582915679113"	" "	"2055"	" "	" "	"2517385216"	" "	" "	" "
"06/09/2016 14:59:38.080"	"103.7559509842263"	"1.0073393299439448"	"152.10823882153565"	"1.0073393299439448"	"790.14996907900775"	" "	"2055"	" "	" "	"2517393408"	" "	" "	" "
"06/09/2016 14:59:39.093"	"0"	"0"	"0"	"0"	"802.65035641627344"	" "	"2055"	" "	" "	"2517393408"	" "	" "	" "
"06/09/2016 14:59:40.084"	"0"	"0"	"0"	"0"	"794.33629646829513"	" "	"2055"	" "	" "	"2517368832"	" "	" "	" "
"06/09/2016 14:59:41.084"	"0"	"0"	"0"	"0"	"795.30931876272496"	" "	"2055"	" "	" "	"2516656128"	" "	" "	" "
"06/09/2016 14:59:42.084"	"0"	"0"	"0"	"0"	"801.50711585829413"	" "	"2055"	" "	" "	"2516656128"	" "	" "	" "
"06/09/2016 14:59:43.087"	"0"	"0"	"0"	"0"	"808.41258497335264"	" "	"2055"	" "	" "	"2516672512"	" "	" "	" "
"06/09/2016 14:59:44.079"	"0"	"0"	"0"	"0"	"793.95925552330993"	" "	"2055"	" "	" "	"2516668416"	" "	" "	" "
"06/09/2016 14:59:45.080"	"0"	"0"	"0"	"0"	"791.21304201745136"	" "	"2055"	" "	" "	"2516705280"	" "	" "	" "
"06/09/2016 14:59:46.073"	"0"	"0"	"0"	"0"	"804.01446594155709"	" "	"2055"	" "	" "	"2516774912"	" "	" "	" "
"06/09/2016 14:59:47.074"	"0"	"0"	"85.953588712860594"	"0.99946033387047206"	"799.53618905672818"	" "	"2056"	" "	" "	"2518917120"	" "	" "	" "
"06/09/2016 14:59:48.074"	"0"	"0"	"41.985198779323078"	"0.99964758998388281"	"799.68452445510241"	" "	"2056"	" "	" "	"2520891392"	" "	" "	" "
"06/09/2016 14:59:49.077"	"0"	"0"	"0"	"0"	"794.62224593278052"	" "	"2055"	" "	" "	"2518831104"	" "	" "	" "
"06/09/2016 14:59:50.092"	"0"	"0"	"0"	"0"	"800.32718360283752"	" "	"2055"	" "	" "	"2518831104"	" "	" "	" "
"06/09/2016 14:59:51.083"	"0"	"0"	"0"	"0"	"790.53962960961928"	" "	"2055"	" "	" "	"2518814720"	" "	" "	" "
"06/09/2016 14:59:52.083"	"0"	"0"	"0"	"0"	"799.42137880602024"	" "	"2055"	" "	" "	"2518818816"	" "	" "	" "
"06/09/2016 14:59:53.093"	"0"	"0"	"69.312815767868798"	"0.9901830823981258"	"804.53303120518763"	" "	"2055"	" "	" "	"2518822912"	" "	" "	" "
"06/09/2016 14:59:54.098"	"0"	"0"	"0"	"0"	"796.16257599993787"	" "	"2055"	" "	" "	"2518822912"	" "	" "	" "
"06/09/2016 14:59:55.088"	"0"	"0"	"0"	"0"	"797.23036425085934"	" "	"2055"	" "	" "	"2518822912"	" "	" "	" "
"06/09/2016 14:59:56.073"	"0"	"0"	"0"	"0"	"796.22788719718346"	" "	"2055"	" "	" "	"2518822912"	" "	" "	" "
"06/09/2016 14:59:57.083"	"45.543008469989658"	"0.99006540152151423"	"104.94693256128051"	"1.9801308030430285"	"795.13996592023921"	" "	"2055"	" "	" "	"2518827008"	" "	" "	" "
"06/09/2016 14:59:58.076"	"42.296064543411447"	"1.0070491557955106"	"42.296064543411447"	"1.0070491557955106"	"802.42198268188326"	" "	"2065"	" "	" "	"2520743936"	" "	" "	" "
"06/09/2016 14:59:59.085"	"0"	"0"	"0"	"0"	"788.54543960097635"	" "	"2057"	" "	" "	"2518773760"	" "	" "	" "
"06/09/2016 15:00:00.096"	"0"	"0"	"59.346292661417436"	"0.98910487769029065"	"803.4880777202892"	" "	"2057"	" "	" "	"2518765568"	" "	" "	" "
"06/09/2016 15:00:01.080"	"0"	"0"	"0"	"0"	"798.49803377082185"	" "	"2054"	" "	" "	"2518786048"	" "	" "	" "
"06/09/2016 15:00:02.095"	"0"	"0"	"0"	"0"	"800.94011146523349"	" "	"2053"	" "	" "	"2518732800"	" "	" "	" "
"06/09/2016 15:00:03.083"	"0"	"0"	"0"	"0"	"796.32092653532447"	" "	"2053"	" "	" "	"2518720512"	" "	" "	" "
"06/09/2016 15:00:04.084"	"0"	"0"	"0"	"0"	"799.59820190354344"	" "	"2053"	" "	" "	"2518720512"	" "	" "	" "
"06/09/2016 15:00:05.089"	"0"	"0"	"45.775282226084613"	"0.99511483100183939"	"802.37301383445333"	" "	"2052"	" "	" "	"2518654976"	" "	" "	" "
"06/09/2016 15:00:06.073"	"55.875819206888053"	"1.0159239855797828"	"67.050983048265664"	"1.0159239855797828"	"795.18825334325709"	" "	"2052"	" "	" "	"2518790144"	" "	" "	" "
"06/09/2016 15:00:07.085"	"0"	"0"	"0"	"0"	"791.95090860265304"	" "	"2052"	" "	" "	"2518790144"	" "	" "	" "
"06/09/2016 15:00:08.078"	"0"	"0"	"0"	"0"	"804.67404572397902"	" "	"2052"	" "	" "	"2518781952"	" "	" "	" "
"06/09/2016 15:00:09.080"	"0"	"0"	"0"	"0"	"795.00784457622831"	" "	"2052"	" "	" "	"2518790144"	" "	" "	" "
"06/09/2016 15:00:10.095"	"0"	"0"	"0"	"0"	"800.80378030635745"	" "	"2052"	" "	" "	"2518740992"	" "	" "	" "
"06/09/2016 15:00:11.100"	"41.773323326277797"	"0.99460293633994745"	"59.676176180396851"	"0.99460293633994745"	"791.01452259149903"	" "	"2052"	" "	" "	"2518757376"	" "	" "	" "
"06/09/2016 15:00:12.090"	"0"	"0"	"0"	"0"	"807.90192716925708"	" "	"2048"	" "	" "	"2507493376"	" "	" "	" "
"06/09/2016 15:00:13.088"	"0"	"0"	"0"	"0"	"800.47679468213232"	" "	"2048"	" "	" "	"2507493376"	" "	" "	" "
"06/09/2016 15:00:14.091"	"0"	"0"	"0"	"0"	"797.33967617045721"	" "	"2048"	" "	" "	"2507509760"	" "	" "	" "
"06/09/2016 15:00:15.086"	"0"	"0"	"0"	"0"	"786.39610705987184"	" "	"2048"	" "	" "	"2507612160"	" "	" "	" "
"06/09/2016 15:00:16.081"	"0"	"0"	"0"	"0"	"801.66083501897992"	" "	"2047"	" "	" "	"2505506816"	" "	" "	" "
"06/09/2016 15:00:17.087"	"0"	"0"	"85.460863464910375"	"0.99373097052221371"	"802.71980474277052"	" "	"2048"	" "	" "	"2507542528"	" "	" "	" "
"06/09/2016 15:00:18.075"	"0"	"0"	"0"	"0"	"797.22535206990074"	" "	"2048"	" "	" "	"2507542528"	" "	" "	" "
"06/09/2016 15:00:19.085"	"0"	"0"	"253.28396293599806"	"1.9787809604374849"	"788.41811196383117"	" "	"2048"	" "	" "	"2507550720"	" "	" "	" "
"06/09/2016 15:00:20.087"	"102.82742157227005"	"0.99832448128417528"	"150.74699667391047"	"0.99832448128417528"	"811.17300208588767"	" "	"2048"	" "	" "	"2507563008"	" "	" "	" "
"06/09/2016 15:00:21.078"	"0"	"0"	"0"	"0"	"794.53224600292265"	" "	"2048"	" "	" "	"2507558912"	" "	" "	" "
"06/09/2016 15:00:22.083"	"0"	"0"	"0"	"0"	"791.3281627008015"	" "	"2050"	" "	" "	"2513649664"	" "	" "	" "
"06/09/2016 15:00:23.089"	"0"	"0"	"0"	"0"	"806.66788753804985"	" "	"2050"	" "	" "	"2513649664"	" "	" "	" "
"06/09/2016 15:00:24.074"	"0"	"0"	"0"	"0"	"798.79334024437492"	" "	"2050"	" "	" "	"2513649664"	" "	" "	" "
"06/09/2016 15:00:25.086"	"41.522061700852028"	"0.98862051668695317"	"41.522061700852028"	"0.98862051668695317"	"780.07579284370263"	" "	"2050"	" "	" "	"2513661952"	" "	" "	" "
"06/09/2016 15:00:26.101"	"0"	"0"	"0"	"0"	"800.31346677866782"	" "	"2050"	" "	" "	"2513653760"	" "	" "	" "
"06/09/2016 15:00:27.094"	"0"	"0"	"0"	"0"	"801.25395835197151"	" "	"2051"	" "	" "	"2515636224"	" "	" "	" "
"06/09/2016 15:00:28.080"	"431.96973050949617"	"4.0560538076009029"	"0"	"0"	"798.49949017708741"	" "	"2055"	" "	" "	"2517823488"	" "	" "	" "
"06/09/2016 15:00:29.091"	"1112.3934006467773"	"12.854323740807205"	"6061.3080408575515"	"15.820706142531945"	"783.32519375540949"	" "	"2065"	" "	" "	"2517549056"	" "	" "	" "
"06/09/2016 15:00:30.081"	"0"	"0"	"0"	"0"	"794.22202999487649"	" "	"2061"	" "	" "	"2517544960"	" "	" "	" "
"06/09/2016 15:00:31.081"	"0"	"0"	"0"	"0"	"798.32669225511495"	" "	"2061"	" "	" "	"2516238336"	" "	" "	" "
"06/09/2016 15:00:32.087"	"0"	"0"	"0"	"0"	"802.56293583669219"	" "	"2061"	" "	" "	"2516156416"	" "	" "	" "
"06/09/2016 15:00:33.083"	"86.419192958713424"	"1.0048743367292259"	"78.380198264879624"	"1.0048743367292259"	"791.33918204167526"	" "	"2061"	" "	" "	"2515972096"	" "	" "	" "
"06/09/2016 15:00:34.085"	"0"	"0"	"0"	"0"	"798.36654205495552"	" "	"2061"	" "	" "	"2515968000"	" "	" "	" "
"06/09/2016 15:00:35.087"	"0"	"0"	"0"	"0"	"789.1835562345376"	" "	"2061"	" "	" "	"2516738048"	" "	" "	" "
"06/09/2016 15:00:36.087"	"120.91307533283866"	"1.9985632286419612"	"125.90948340444356"	"1.9985632286419612"	"811.95907286565682"	" "	"2061"	" "	" "	"2516684800"	" "	" "	" "
"06/09/2016 15:00:37.075"	"0"	"0"	"0"	"0"	"794.36179593467034"	" "	"2061"	" "	" "	"2516668416"	" "	" "	" "
"06/09/2016 15:00:38.079"	"0"	"0"	"0"	"0"	"796.53182079905878"	" "	"2061"	" "	" "	"2516676608"	" "	" "	" "
"06/09/2016 15:00:39.086"	"0"	"0"	"0"	"0"	"792.93351062271449"	" "	"2061"	" "	" "	"2516660224"	" "	" "	" "
"06/09/2016 15:00:40.094"	"0"	"0"	"41.667576738924957"	"0.99208516045059425"	"806.11268552497427"	" "	"2061"	" "	" "	"2516611072"	" "	" "	" "
"06/09/2016 15:00:41.081"	"0"	"0"	"42.533712521432143"	"1.0127074409864796"	"797.48910933682021"	" "	"2061"	" "	" "	"2516615168"	" "	" "	" "
"06/09/2016 15:00:42.084"	"0"	"0"	"41.904593861405452"	"0.99772842527155836"	"795.0464726176267"	" "	"2061"	" "	" "	"2516619264"	" "	" "	" "
"06/09/2016 15:00:43.084"	"0"	"0"	"0"	"0"	"799.79509249730222"	" "	"2061"	" "	" "	"2516623360"	" "	" "	" "
"06/09/2016 15:00:44.089"	"0"	"0"	"41.796066436011976"	"0.99514443895266602"	"808.58290099442252"	" "	"2061"	" "	" "	"2516557824"	" "	" "	" "
"06/09/2016 15:00:45.081"	"0"	"0"	"42.336170333355376"	"1.0080040555560803"	"782.73656951300472"	" "	"2061"	" "	" "	"2516635648"	" "	" "	" "
"06/09/2016 15:00:46.084"	"0"	"0"	"127.5520996662199"	"1.993001557284686"	"797.22295356355676"	" "	"2061"	" "	" "	"2516635648"	" "	" "	" "
"06/09/2016 15:00:47.085"	"0"	"0"	"41.989319590075695"	"0.99974570452561173"	"798.19851936330258"	" "	"2061"	" "	" "	"2516635648"	" "	" "	" "
"06/09/2016 15:00:48.087"	"0"	"0"	"41.903605049170288"	"0.99770488212310204"	"809.03271337961905"	" "	"2064"	" "	" "	"2522923008"	" "	" "	" "
"06/09/2016 15:00:49.081"	"0"	"0"	"42.255560384382612"	"1.0060847710567289"	"789.20795165434083"	" "	"2064"	" "	" "	"2522939392"	" "	" "	" "
"06/09/2016 15:00:50.083"	"0"	"0"	"41.883596296634174"	"0.99722848325319469"	"797.99057992070163"	" "	"2064"	" "	" "	"2522943488"	" "	" "	" "
"06/09/2016 15:00:51.092"	"0"	"0"	"811.38413209341923"	"10.911033561158449"	"805.75166862493256"	" "	"2064"	" "	" "	"2522943488"	" "	" "	" "
"06/09/2016 15:00:52.076"	"0"	"0"	"136.16085127376377"	"2.0322515115487128"	"795.44463812013055"	" "	"2064"	" "	" "	"2522939392"	" "	" "	" "
"06/09/2016 15:00:53.088"	"0"	"0"	"110.64895632327418"	"1.9758742200584674"	"802.68929068249145"	" "	"2064"	" "	" "	"2522947584"	" "	" "	" "
"06/09/2016 15:00:54.078"	"0"	"0"	"42.431870570833084"	"1.010282632638883"	"795.58079367948187"	" "	"2066"	" "	" "	"2523164672"	" "	" "	" "
"06/09/2016 15:00:55.078"	"0"	"0"	"41.998050888412017"	"0.99995359258123862"	"787.44582372732759"	" "	"2066"	" "	" "	"2522079232"	" "	" "	" "
"06/09/2016 15:00:56.085"	"102.24583489483247"	"0.99267800868769396"	"41.692476364883142"	"0.99267800868769396"	"794.15296934787932"	" "	"2066"	" "	" "	"2522025984"	" "	" "	" "
"06/09/2016 15:00:57.088"	"567.6281179148416"	"5.9855337565712654"	"868.899983662262"	"9.9758895942854426"	"807.4462531351362"	" "	"2066"	" "	" "	"2521956352"	" "	" "	" "
"06/09/2016 15:00:58.079"	"42.37522657957367"	"1.0089339661803254"	"84.750453159147341"	"2.0178679323606508"	"792.86867870234812"	" "	"2066"	" "	" "	"2520801280"	" "	" "	" "
"06/09/2016 15:00:59.086"	"0"	"0"	"41.714447423321012"	"0.99320112912669078"	"793.06212491731048"	" "	"2066"	" "	" "	"2521972736"	" "	" "	" "
"06/09/2016 15:01:00.082"	"0"	"0"	"42.161162827888624"	"1.0038372101878243"	"801.46173571354143"	" "	"2066"	" "	" "	"2522038272"	" "	" "	" "
"06/09/2016 15:01:01.082"	"45.980425278706939"	"0.99957446258058569"	"83.964254856769202"	"1.9991489251611714"	"798.20067386006576"	" "	"2066"	" "	" "	"2521997312"	" "	" "	" "
"06/09/2016 15:01:02.083"	"41.969397351498365"	"0.99927136551186579"	"167.87758940599346"	"3.9970854620474632"	"796.25352412442089"	" "	"2066"	" "	" "	"2521997312"	" "	" "	" "
"06/09/2016 15:01:03.094"	"45.504950346444787"	"0.98923805100966933"	"41.547998142406108"	"0.98923805100966933"	"803.74989637809028"	" "	"2066"	" "	" "	"2521997312"	" "	" "	" "
"06/09/2016 15:01:04.086"	"0"	"0"	"42.346170562557873"	"1.0082421562513779"	"794.01425172399399"	" "	"2066"	" "	" "	"2521985024"	" "	" "	" "
"06/09/2016 15:01:05.086"	"45.988425509741106"	"0.99974838064654581"	"41.989431987154923"	"0.99974838064654581"	"787.28853429968706"	" "	"2067"	" "	" "	"2522353664"	" "	" "	" "
"06/09/2016 15:01:06.091"	"54.741914436802062"	"0.99530753521458304"	"107.49321380317497"	"1.9906150704291661"	"808.70780734977541"	" "	"2067"	" "	" "	"2522365952"	" "	" "	" "
"06/09/2016 15:01:07.077"	"0"	"0"	"42.568455245428297"	"1.0135346487006738"	"796.5543749870144"	" "	"2067"	" "	" "	"2522361856"	" "	" "	" "
"06/09/2016 15:01:08.082"	"0"	"0"	"41.79660470499001"	"0.99515725488071449"	"796.13603337561483"	" "	"2067"	" "	" "	"2522378240"	" "	" "	" "
"06/09/2016 15:01:09.098"	"0"	"0"	"41.364938837201429"	"0.98487949612384362"	"798.67575067025984"	" "	"2068"	" "	" "	"2522701824"	" "	" "	" "
