
Image Name                     PID Session Name        Session#    Mem Usage Status          User Name                                              CPU Time Window Title                                                            
========================= ======== ================ =========== ============ =============== ================================================== ============ ========================================================================
System Idle Process              0 Services                   0          4 K Unknown         NT AUTHORITY\SYSTEM                                    17:01:40 N/A                                                                     
System                           4 Services                   0    290.632 K Unknown         N/A                                                     0:17:57 N/A                                                                     
smss.exe                       372 Services                   0        976 K Unknown         N/A                                                     0:00:00 N/A                                                                     
csrss.exe                      504 Services                   0      3.940 K Unknown         N/A                                                     0:00:01 N/A                                                                     
csrss.exe                      596 Console                    1      9.164 K Running         N/A                                                     0:00:59 N/A                                                                     
wininit.exe                    620 Services                   0      4.208 K Unknown         N/A                                                     0:00:00 N/A                                                                     
winlogon.exe                   680 Console                    1      8.896 K Unknown         N/A                                                     0:00:00 N/A                                                                     
services.exe                   736 Services                   0      6.500 K Unknown         N/A                                                     0:00:07 N/A                                                                     
lsass.exe                      744 Services                   0     15.384 K Unknown         N/A                                                     0:00:26 N/A                                                                     
svchost.exe                    836 Services                   0     20.992 K Unknown         N/A                                                     0:00:04 N/A                                                                     
svchost.exe                    892 Services                   0     10.848 K Unknown         N/A                                                     0:00:21 N/A                                                                     
dwm.exe                        992 Console                    1     41.392 K Running         N/A                                                     0:07:11 DWM Notification Window                                                 
svchost.exe                    108 Services                   0     23.004 K Unknown         N/A                                                     0:00:10 N/A                                                                     
svchost.exe                    436 Services                   0     96.236 K Unknown         N/A                                                     0:01:49 N/A                                                                     
svchost.exe                    804 Services                   0     42.116 K Unknown         N/A                                                     0:00:12 N/A                                                                     
nvSCPAPISvr.exe                860 Services                   0      5.564 K Unknown         N/A                                                     0:00:02 N/A                                                                     
nvvsvc.exe                    1028 Services                   0      8.592 K Unknown         N/A                                                     0:00:00 N/A                                                                     
WUDFHost.exe                  1076 Services                   0      6.756 K Unknown         N/A                                                     0:00:00 N/A                                                                     
svchost.exe                   1160 Services                   0      7.884 K Unknown         N/A                                                     0:00:00 N/A                                                                     
svchost.exe                   1188 Services                   0     21.760 K Unknown         N/A                                                     0:00:03 N/A                                                                     
svchost.exe                   1264 Services                   0     14.412 K Unknown         N/A                                                     0:00:02 N/A                                                                     
nvxdsync.exe                  1292 Console                    1     18.724 K Running         N/A                                                     0:00:02 UxdService                                                              
nvvsvc.exe                    1300 Console                    1     11.232 K Running         N/A                                                     0:00:00 NvSvc                                                                   
CTAudSvc.exe                  1560 Services                   0      5.480 K Unknown         N/A                                                     0:00:00 N/A                                                                     
spoolsv.exe                   1768 Services                   0     12.300 K Unknown         N/A                                                     0:00:00 N/A                                                                     
svchost.exe                   2032 Services                   0     33.300 K Unknown         N/A                                                     0:00:06 N/A                                                                     
Jhi_service.exe               2136 Services                   0      4.824 K Unknown         N/A                                                     0:00:00 N/A                                                                     
Amazon1ButtonService64.Ex     2160 Services                   0     13.220 K Unknown         N/A                                                     0:00:12 N/A                                                                     
svchost.exe                   2188 Services                   0     22.188 K Unknown         N/A                                                     0:00:01 N/A                                                                     
ASGT.exe                      2204 Services                   0      3.232 K Unknown         N/A                                                     0:00:00 N/A                                                                     
SkypeC2CAutoUpdateSvc.exe     2228 Services                   0      5.940 K Unknown         N/A                                                     0:00:00 N/A                                                                     
HeciServer.exe                2248 Services                   0      6.080 K Unknown         N/A                                                     0:00:00 N/A                                                                     
PnkBstrA.exe                  2280 Services                   0      5.312 K Unknown         N/A                                                     0:00:00 N/A                                                                     
svchost.exe                   2348 Services                   0      7.744 K Unknown         N/A                                                     0:00:00 N/A                                                                     
ViakaraokeSrv.exe             2360 Services                   0      4.864 K Unknown         N/A                                                     0:00:00 N/A                                                                     
svchost.exe                   2376 Services                   0     18.188 K Unknown         N/A                                                     0:00:04 N/A                                                                     
sqlwriter.exe                 2464 Services                   0      6.848 K Unknown         N/A                                                     0:00:00 N/A                                                                     
avgwdsvc.exe                  2524 Services                   0     23.948 K Unknown         N/A                                                     0:00:04 N/A                                                                     
SkypeC2CPNRSvc.exe            2532 Services                   0      4.672 K Unknown         N/A                                                     0:00:00 N/A                                                                     
nvstreamsvc.exe               2564 Services                   0      9.204 K Unknown         N/A                                                     0:00:00 N/A                                                                     
avgidsagent.exe               2572 Services                   0     29.832 K Unknown         N/A                                                     0:00:37 N/A                                                                     
NvNetworkService.exe          2588 Services                   0      6.020 K Unknown         N/A                                                     0:00:00 N/A                                                                     
dasHost.exe                   2604 Services                   0      4.160 K Unknown         N/A                                                     0:00:00 N/A                                                                     
ToolbarUpdater.exe            2612 Services                   0      8.096 K Unknown         N/A                                                     0:00:00 N/A                                                                     
nvstreamsvc.exe               3248 Services                   0     10.192 K Unknown         N/A                                                     0:00:00 N/A                                                                     
svchost.exe                   3260 Services                   0      5.564 K Unknown         N/A                                                     0:00:00 N/A                                                                     
loggingserver.exe             3332 Services                   0      3.984 K Unknown         N/A                                                     0:00:18 N/A                                                                     
conhost.exe                   3340 Services                   0      7.148 K Unknown         N/A                                                     0:00:00 N/A                                                                     
conhost.exe                   3348 Services                   0      5.192 K Unknown         N/A                                                     0:00:02 N/A                                                                     
avgcsrva.exe                  3584 Services                   0    201.664 K Unknown         N/A                                                     0:00:27 N/A                                                                     
avgnsa.exe                    2860 Services                   0     18.208 K Unknown         N/A                                                     0:01:11 N/A                                                                     
avgemca.exe                   1980 Services                   0      7.692 K Unknown         N/A                                                     0:00:00 N/A                                                                     
avgrsa.exe                    4316 Services                   0     36.424 K Unknown         N/A                                                     0:00:13 N/A                                                                     
sihost.exe                    4860 Console                    1     28.676 K Running         ANDERSGPC\Anders                                        0:00:02 N/A                                                                     
taskhostw.exe                 4872 Console                    1     17.580 K Running         ANDERSGPC\Anders                                        0:00:01 Task Host Window                                                        
GPUTweak.exe                  5044 Console                    1     36.552 K Running         N/A                                                     0:00:04 GPU Tweak                                                               
nvstreamsvc.exe               5088 Console                    1     12.072 K Running         N/A                                                     0:00:00 AWindow                                                                 
conhost.exe                   4108 Console                    1      6.144 K Unknown         N/A                                                     0:00:00 N/A                                                                     
RuntimeBroker.exe             4848 Console                    1     57.020 K Running         ANDERSGPC\Anders                                        0:00:21 N/A                                                                     
NvBackend.exe                 5372 Console                    1     14.192 K Running         ANDERSGPC\Anders                                        0:00:02 Main message window                                                     
explorer.exe                  5420 Console                    1    168.284 K Running         ANDERSGPC\Anders                                        0:04:47 N/A                                                                     
Monitor.exe                   5888 Console                    1     21.004 K Running         N/A                                                     0:02:54 GDI+ Window                                                             
ShellExperienceHost.exe       5952 Console                    1     81.400 K Running         ANDERSGPC\Anders                                        0:00:02 New notification                                                        
SearchIndexer.exe             6212 Services                   0     51.508 K Unknown         N/A                                                     0:00:34 N/A                                                                     
nvtray.exe                    6684 Console                    1     12.064 K Running         ANDERSGPC\Anders                                        0:00:00 NotificationIconWindow                                                  
SettingSyncHost.exe           6708 Console                    1      3.628 K Running         ANDERSGPC\Anders                                        0:00:02 N/A                                                                     
netsession_win.exe            7016 Console                    1      8.280 K Running         ANDERSGPC\Anders                                        0:00:00 Netsession Hidden Window                                                
SpotifyWebHelper.exe          7128 Console                    1      7.228 K Running         ANDERSGPC\Anders                                        0:00:00 N/A                                                                     
netsession_win.exe            3876 Console                    1     16.020 K Running         ANDERSGPC\Anders                                        0:00:05 Netsession Hidden Window                                                
OneDrive.exe                  6460 Console                    1     30.428 K Running         ANDERSGPC\Anders                                        0:05:41 N/A                                                                     
avgui.exe                     2784 Console                    1     26.032 K Running         ANDERSGPC\Anders                                        0:00:17 N/A                                                                     
vprot.exe                     3460 Console                    1     22.736 K Running         ANDERSGPC\Anders                                        0:04:00 VProtector                                                              
Tactic3D.exe                  6748 Console                    1     11.588 K Running         ANDERSGPC\Anders                                        0:00:00 N/A                                                                     
jusched.exe                   6860 Console                    1     10.328 K Not Responding  ANDERSGPC\Anders                                        0:00:00 OleMainThreadWndName                                                    
fontdrvhost.exe               2244 Console                    1      2.632 K Unknown         N/A                                                     0:00:00 N/A                                                                     
svchost.exe                   2732 Console                    1     41.104 K Unknown         ANDERSGPC\Anders                                        0:00:11 N/A                                                                     
ctfmon.exe                    8172 Console                    1      5.184 K Running         ANDERSGPC\Anders                                        0:00:00 N/A                                                                     
DbgSvc.exe                    6652 Services                   0     12.484 K Unknown         N/A                                                     0:00:14 N/A                                                                     
msdtc.exe                     8260 Services                   0      8.488 K Unknown         N/A                                                     0:00:00 N/A                                                                     
LMS.exe                       3048 Services                   0      5.232 K Unknown         N/A                                                     0:00:05 N/A                                                                     
UNS.exe                       7976 Services                   0     10.708 K Unknown         N/A                                                     0:00:00 N/A                                                                     
jucheck.exe                  10892 Console                    1     12.168 K Running         ANDERSGPC\Anders                                        0:00:00 JavaUpdate SysTray Icon                                                 
pageant.exe                   2648 Console                    1      5.736 K Running         ANDERSGPC\Anders                                        0:00:00 Pageant                                                                 
ApplicationFrameHost.exe      7196 Console                    1     22.788 K Running         ANDERSGPC\Anders                                        0:00:00 Lommeregner                                                             
TSVNCache.exe                10664 Console                    1      7.488 K Running         ANDERSGPC\Anders                                        0:00:00 TSVNCacheWindow                                                         
taskhostw.exe                 7104 Console                    1     15.136 K Running         ANDERSGPC\Anders                                        0:00:00 Task Host Window                                                        
SkypeHost.exe                 7520 Console                    1     18.772 K Unknown         ANDERSGPC\Anders                                        0:00:06 N/A                                                                     
TSVNCache.exe                 5860 Console                    1      8.748 K Running         ANDERSGPC\Anders                                        0:00:02 TSVNCacheWindow                                                         
SearchUI.exe                  6340 Console                    1     87.516 K Running         ANDERSGPC\Anders                                        0:00:00 Search                                                                  
Calculator.exe                7996 Console                    1     34.996 K Running         ANDERSGPC\Anders                                        0:00:00 Lommeregner                                                             
dllhost.exe                   8328 Console                    1     18.620 K Running         ANDERSGPC\Anders                                        0:00:01 OleMainThreadWndName                                                    
dllhost.exe                   2088 Services                   0     12.940 K Unknown         N/A                                                     0:00:00 N/A                                                                     
mmc.exe                      10296 Console                    1     50.796 K Running         ANDERSGPC\Anders                                        0:00:13 Performance Monitor                                                     
prevhost.exe                  5360 Console                    1     15.004 K Running         ANDERSGPC\Anders                                        0:00:00 N/A                                                                     
audiodg.exe                   2156 Services                   0     12.116 K Unknown         N/A                                                     0:00:08 N/A                                                                     
SearchProtocolHost.exe       11152 Services                   0     10.228 K Unknown         N/A                                                     0:00:00 N/A                                                                     
SearchFilterHost.exe         11172 Services                   0      5.700 K Unknown         N/A                                                     0:00:00 N/A                                                                     
cmd.exe                       6436 Console                    1      3.408 K Running         ANDERSGPC\Anders                                        0:00:00 C:\WINDOWS\system32\cmd.exe                                             
conhost.exe                   8932 Console                    1      8.160 K Running         ANDERSGPC\Anders                                        0:00:00 CicMarshalWnd                                                           
tasklist.exe                   864 Console                    1      8.780 K Unknown         ANDERSGPC\Anders                                        0:00:00 N/A                                                                     
WmiPrvSE.exe                  9584 Services                   0      8.084 K Unknown         N/A                                                     0:00:00 N/A                                                                     
