
Image Name                     PID Session Name        Session#    Mem Usage Status          User Name                                              CPU Time Window Title                                                            
========================= ======== ================ =========== ============ =============== ================================================== ============ ========================================================================
System Idle Process              0 Services                   0          4 K Unknown         NT AUTHORITY\SYSTEM                                     7:33:22 N/A                                                                     
System                           4 Services                   0    289.588 K Unknown         N/A                                                     0:14:55 N/A                                                                     
smss.exe                       372 Services                   0        976 K Unknown         N/A                                                     0:00:00 N/A                                                                     
csrss.exe                      504 Services                   0      3.884 K Unknown         N/A                                                     0:00:01 N/A                                                                     
csrss.exe                      596 Console                    1      9.456 K Running         N/A                                                     0:00:38 N/A                                                                     
wininit.exe                    620 Services                   0      4.208 K Unknown         N/A                                                     0:00:00 N/A                                                                     
winlogon.exe                   680 Console                    1      8.900 K Unknown         N/A                                                     0:00:00 N/A                                                                     
services.exe                   736 Services                   0      6.408 K Unknown         N/A                                                     0:00:06 N/A                                                                     
lsass.exe                      744 Services                   0     15.272 K Unknown         N/A                                                     0:00:18 N/A                                                                     
svchost.exe                    836 Services                   0     20.884 K Unknown         N/A                                                     0:00:03 N/A                                                                     
svchost.exe                    892 Services                   0     10.012 K Unknown         N/A                                                     0:00:17 N/A                                                                     
dwm.exe                        992 Console                    1     40.736 K Running         N/A                                                     0:05:10 DWM Notification Window                                                 
svchost.exe                    108 Services                   0     19.912 K Unknown         N/A                                                     0:00:04 N/A                                                                     
svchost.exe                    436 Services                   0     92.908 K Unknown         N/A                                                     0:01:19 N/A                                                                     
svchost.exe                    804 Services                   0     42.336 K Unknown         N/A                                                     0:00:09 N/A                                                                     
nvSCPAPISvr.exe                860 Services                   0      5.564 K Unknown         N/A                                                     0:00:01 N/A                                                                     
nvvsvc.exe                    1028 Services                   0      8.592 K Unknown         N/A                                                     0:00:00 N/A                                                                     
WUDFHost.exe                  1076 Services                   0      6.756 K Unknown         N/A                                                     0:00:00 N/A                                                                     
svchost.exe                   1160 Services                   0      7.832 K Unknown         N/A                                                     0:00:00 N/A                                                                     
svchost.exe                   1188 Services                   0     22.128 K Unknown         N/A                                                     0:00:02 N/A                                                                     
svchost.exe                   1264 Services                   0     13.352 K Unknown         N/A                                                     0:00:01 N/A                                                                     
nvxdsync.exe                  1292 Console                    1     18.716 K Running         N/A                                                     0:00:02 UxdService                                                              
nvvsvc.exe                    1300 Console                    1     11.232 K Running         N/A                                                     0:00:00 NvSvc                                                                   
CTAudSvc.exe                  1560 Services                   0      5.480 K Unknown         N/A                                                     0:00:00 N/A                                                                     
spoolsv.exe                   1768 Services                   0     12.052 K Unknown         N/A                                                     0:00:00 N/A                                                                     
svchost.exe                   2032 Services                   0     33.680 K Unknown         N/A                                                     0:00:05 N/A                                                                     
Jhi_service.exe               2136 Services                   0      4.824 K Unknown         N/A                                                     0:00:00 N/A                                                                     
Amazon1ButtonService64.Ex     2160 Services                   0     11.732 K Unknown         N/A                                                     0:00:08 N/A                                                                     
svchost.exe                   2188 Services                   0     22.008 K Unknown         N/A                                                     0:00:01 N/A                                                                     
ASGT.exe                      2204 Services                   0      3.232 K Unknown         N/A                                                     0:00:00 N/A                                                                     
SkypeC2CAutoUpdateSvc.exe     2228 Services                   0      5.940 K Unknown         N/A                                                     0:00:00 N/A                                                                     
HeciServer.exe                2248 Services                   0      6.080 K Unknown         N/A                                                     0:00:00 N/A                                                                     
PnkBstrA.exe                  2280 Services                   0      5.312 K Unknown         N/A                                                     0:00:00 N/A                                                                     
svchost.exe                   2348 Services                   0      7.256 K Unknown         N/A                                                     0:00:00 N/A                                                                     
ViakaraokeSrv.exe             2360 Services                   0      4.864 K Unknown         N/A                                                     0:00:00 N/A                                                                     
svchost.exe                   2376 Services                   0     18.020 K Unknown         N/A                                                     0:00:02 N/A                                                                     
sqlwriter.exe                 2464 Services                   0      6.384 K Unknown         N/A                                                     0:00:00 N/A                                                                     
avgwdsvc.exe                  2524 Services                   0     21.876 K Unknown         N/A                                                     0:00:03 N/A                                                                     
SkypeC2CPNRSvc.exe            2532 Services                   0      4.672 K Unknown         N/A                                                     0:00:00 N/A                                                                     
nvstreamsvc.exe               2564 Services                   0      9.204 K Unknown         N/A                                                     0:00:00 N/A                                                                     
avgidsagent.exe               2572 Services                   0     29.344 K Unknown         N/A                                                     0:00:28 N/A                                                                     
NvNetworkService.exe          2588 Services                   0      6.020 K Unknown         N/A                                                     0:00:00 N/A                                                                     
dasHost.exe                   2604 Services                   0      4.160 K Unknown         N/A                                                     0:00:00 N/A                                                                     
ToolbarUpdater.exe            2612 Services                   0      8.096 K Unknown         N/A                                                     0:00:00 N/A                                                                     
nvstreamsvc.exe               3248 Services                   0     10.192 K Unknown         N/A                                                     0:00:00 N/A                                                                     
svchost.exe                   3260 Services                   0      5.564 K Unknown         N/A                                                     0:00:00 N/A                                                                     
loggingserver.exe             3332 Services                   0      3.980 K Unknown         N/A                                                     0:00:11 N/A                                                                     
conhost.exe                   3340 Services                   0      7.116 K Unknown         N/A                                                     0:00:00 N/A                                                                     
conhost.exe                   3348 Services                   0      5.180 K Unknown         N/A                                                     0:00:01 N/A                                                                     
avgcsrva.exe                  3584 Services                   0    207.424 K Unknown         N/A                                                     0:00:26 N/A                                                                     
avgnsa.exe                    2860 Services                   0     17.132 K Unknown         N/A                                                     0:01:10 N/A                                                                     
avgemca.exe                   1980 Services                   0      7.400 K Unknown         N/A                                                     0:00:00 N/A                                                                     
avgrsa.exe                    4316 Services                   0     35.844 K Unknown         N/A                                                     0:00:12 N/A                                                                     
sihost.exe                    4860 Console                    1     29.052 K Not Responding  ANDERSGPC\Anders                                        0:00:01 N/A                                                                     
taskhostw.exe                 4872 Console                    1     17.284 K Running         ANDERSGPC\Anders                                        0:00:01 Task Host Window                                                        
GPUTweak.exe                  5044 Console                    1     36.500 K Running         N/A                                                     0:00:03 GPU Tweak                                                               
nvstreamsvc.exe               5088 Console                    1     12.036 K Running         N/A                                                     0:00:00 AWindow                                                                 
conhost.exe                   4108 Console                    1      6.104 K Unknown         N/A                                                     0:00:00 N/A                                                                     
RuntimeBroker.exe             4848 Console                    1     50.768 K Running         ANDERSGPC\Anders                                        0:00:12 N/A                                                                     
NvBackend.exe                 5372 Console                    1     14.184 K Running         ANDERSGPC\Anders                                        0:00:01 Main message window                                                     
explorer.exe                  5420 Console                    1    161.608 K Running         ANDERSGPC\Anders                                        0:03:11 N/A                                                                     
Monitor.exe                   5888 Console                    1     20.932 K Running         N/A                                                     0:01:37 GDI+ Window                                                             
ShellExperienceHost.exe       5952 Console                    1     82.080 K Running         ANDERSGPC\Anders                                        0:00:02 New notification                                                        
SearchIndexer.exe             6212 Services                   0     49.636 K Unknown         N/A                                                     0:00:30 N/A                                                                     
nvtray.exe                    6684 Console                    1     12.064 K Running         ANDERSGPC\Anders                                        0:00:00 NotificationIconWindow                                                  
SettingSyncHost.exe           6708 Console                    1      6.640 K Running         ANDERSGPC\Anders                                        0:00:02 N/A                                                                     
netsession_win.exe            7016 Console                    1      8.256 K Running         ANDERSGPC\Anders                                        0:00:00 Netsession Hidden Window                                                
SpotifyWebHelper.exe          7128 Console                    1      7.228 K Running         ANDERSGPC\Anders                                        0:00:00 N/A                                                                     
netsession_win.exe            3876 Console                    1     15.764 K Running         ANDERSGPC\Anders                                        0:00:03 Netsession Hidden Window                                                
OneDrive.exe                  6460 Console                    1     24.728 K Running         ANDERSGPC\Anders                                        0:03:06 N/A                                                                     
avgui.exe                     2784 Console                    1     25.796 K Running         ANDERSGPC\Anders                                        0:00:12 N/A                                                                     
vprot.exe                     3460 Console                    1     21.924 K Running         ANDERSGPC\Anders                                        0:02:46 VProtector                                                              
Tactic3D.exe                  6748 Console                    1     11.580 K Running         ANDERSGPC\Anders                                        0:00:00 N/A                                                                     
jusched.exe                   6860 Console                    1     10.328 K Not Responding  ANDERSGPC\Anders                                        0:00:00 OleMainThreadWndName                                                    
fontdrvhost.exe               2244 Console                    1      2.632 K Unknown         N/A                                                     0:00:00 N/A                                                                     
svchost.exe                   2732 Console                    1     36.000 K Unknown         ANDERSGPC\Anders                                        0:00:11 N/A                                                                     
ctfmon.exe                    8172 Console                    1      5.060 K Running         ANDERSGPC\Anders                                        0:00:00 N/A                                                                     
DbgSvc.exe                    6652 Services                   0     12.364 K Unknown         N/A                                                     0:00:10 N/A                                                                     
dllhost.exe                   7332 Services                   0     11.504 K Unknown         N/A                                                     0:00:01 N/A                                                                     
msdtc.exe                     8260 Services                   0      7.892 K Unknown         N/A                                                     0:00:00 N/A                                                                     
LMS.exe                       3048 Services                   0      5.040 K Unknown         N/A                                                     0:00:03 N/A                                                                     
UNS.exe                       7976 Services                   0     10.708 K Unknown         N/A                                                     0:00:00 N/A                                                                     
jucheck.exe                  10892 Console                    1     12.164 K Running         ANDERSGPC\Anders                                        0:00:00 JavaUpdate SysTray Icon                                                 
pageant.exe                   2648 Console                    1      5.760 K Running         ANDERSGPC\Anders                                        0:00:00 Pageant                                                                 
ApplicationFrameHost.exe      7196 Console                    1     23.072 K Running         ANDERSGPC\Anders                                        0:00:00 Lommeregner                                                             
mmc.exe                       4944 Console                    1     80.868 K Running         ANDERSGPC\Anders                                        0:00:27 Performance Monitor                                                     
TSVNCache.exe                10664 Console                    1      7.336 K Running         ANDERSGPC\Anders                                        0:00:00 TSVNCacheWindow                                                         
taskhostw.exe                 7104 Console                    1     14.068 K Running         ANDERSGPC\Anders                                        0:00:00 Task Host Window                                                        
SkypeHost.exe                 7520 Console                    1      2.572 K Unknown         ANDERSGPC\Anders                                        0:00:06 N/A                                                                     
prevhost.exe                  6372 Console                    1     14.516 K Running         ANDERSGPC\Anders                                        0:00:00 N/A                                                                     
TSVNCache.exe                 5860 Console                    1      8.804 K Running         ANDERSGPC\Anders                                        0:00:00 TSVNCacheWindow                                                         
SearchUI.exe                  6340 Console                    1     87.828 K Running         ANDERSGPC\Anders                                        0:00:00 Search                                                                  
Calculator.exe                7996 Console                    1     34.900 K Running         ANDERSGPC\Anders                                        0:00:00 Lommeregner                                                             
Gang Garrison 2.exe            280 Console                    1    290.932 K Running         ANDERSGPC\Anders                                        0:00:28 Gang Garrison 2                                                         
audiodg.exe                  11252 Services                   0     14.476 K Unknown         N/A                                                     0:00:01 N/A                                                                     
cmd.exe                       9928 Console                    1      3.408 K Running         ANDERSGPC\Anders                                        0:00:00 C:\WINDOWS\system32\cmd.exe                                             
conhost.exe                   2752 Console                    1      8.132 K Running         ANDERSGPC\Anders                                        0:00:00 CicMarshalWnd                                                           
tasklist.exe                  8492 Console                    1      8.808 K Unknown         ANDERSGPC\Anders                                        0:00:00 N/A                                                                     
WmiPrvSE.exe                   364 Services                   0      8.076 K Unknown         N/A                                                     0:00:00 N/A                                                                     
