"(PDH-TSV 4.0) (Rom, sommertid)(-120)"	"\\AM-WORK\Netværkskort(Broadcom 802.11 netværksadapter)\Afsendte byte pr. sekund"	"\\AM-WORK\Netværkskort(Broadcom 802.11 netværksadapter)\Afsendte pakker pr. sekund"	"\\AM-WORK\Netværkskort(Broadcom 802.11 netværksadapter)\Modtagne byte pr. sekund"	"\\AM-WORK\Netværkskort(Broadcom 802.11 netværksadapter)\Modtagne pakker pr. sekund"	"\\AM-WORK\Proces(_Total)\% Processortid"	"\\AM-WORK\Proces(WaterGun)\% Processortid"	"\\AM-WORK\Proces(_Total)\Antal tråde"	"\\AM-WORK\Proces(WaterGun)\Antal tråde"	"\\AM-WORK\Proces(WaterGun)\Private byte"	"\\AM-WORK\Proces(_Total)\Private byte"	"\\AM-WORK\Proces(Gang Garrison 2)\% Processortid"	"\\AM-WORK\Proces(Gang Garrison 2)\Private byte"	"\\AM-WORK\Proces(Gang Garrison 2)\Antal tråde"
"06/09/2016 13:21:37.918"	" "	" "	" "	" "	" "	" "	"2184"	" "	" "	"2869252096"	" "	"310513664"	"19"
"06/09/2016 13:21:38.913"	"2837.5631596747794"	"35.368486676858005"	"3019.4582340129064"	"43.452712202996977"	"800.32423644711037"	" "	"2191"	" "	" "	"2870214656"	"41.042268535749251"	"310513664"	"19"
"06/09/2016 13:21:39.914"	"2050.8349800864335"	"29.982967545123294"	"1858.9439877976442"	"30.982399796627401"	"799.59788222502902"	" "	"2194"	" "	" "	"2876760064"	"21.864004592090637"	"310513664"	"19"
"06/09/2016 13:21:40.908"	"2106.6213951032801"	"31.186849688730508"	"2094.5490661915132"	"35.210959325986053"	"795.34505476199047"	" "	"2194"	" "	" "	"2876567552"	"42.439360629592379"	"310513664"	"19"
"06/09/2016 13:21:41.914"	"2110.5872439979817"	"30.804239436882028"	"2027.1176919754625"	"33.785294866257708"	"798.09762345036143"	" "	"2194"	" "	" "	"2876919808"	"24.843505788338099"	"310513664"	"19"
"06/09/2016 13:21:42.907"	"2066.8791294439688"	"30.217531132221765"	"2175.6622415199672"	"36.261037358666123"	"802.59291268786205"	" "	"2194"	" "	" "	"2876891136"	"28.326808683101017"	"310513664"	"19"
"06/09/2016 13:21:43.914"	"2141.1028583057487"	"30.800087520871557"	"2057.64455663629"	"32.787189941572947"	"791.72876304023839"	" "	"2194"	" "	" "	"2876256256"	"18.628912071535023"	"310513664"	"19"
"06/09/2016 13:21:44.905"	"2070.9404266396209"	"30.276906822216681"	"1998.2758502663007"	"33.304597504438348"	"805.78984889727838"	" "	"2194"	" "	" "	"2876190720"	"18.922657899740393"	"310513664"	"19"
"06/09/2016 13:21:45.911"	"2056.6373277138273"	"29.806338082809091"	"2128.1725391125692"	"35.767605699370911"	"793.34202285560298"	" "	"2194"	" "	" "	"2876194816"	"35.708153670604439"	"310513664"	"19"
"06/09/2016 13:21:46.905"	"2064.7482889037265"	"30.186378492744538"	"2173.4192514776068"	"36.223654191293448"	"803.37261799232692"	" "	"2194"	" "	" "	"2876198912"	"25.154524242421196"	"310513664"	"19"
"06/09/2016 13:21:47.911"	"2855.3838894413589"	"35.76681281137401"	"2849.4227539727963"	"40.734425701842625"	"794.80325837543808"	" "	"2191"	" "	" "	"2875969536"	"20.180551482188857"	"310513664"	"19"
"06/09/2016 13:21:48.902"	"2090.2343296575741"	"30.293251154457593"	"2059.9410785031164"	"34.33235130838527"	"806.26659047347471"	" "	"2191"	" "	" "	"2875969536"	"25.24513786218316"	"310513664"	"19"
"06/09/2016 13:21:49.908"	"2038.4923276616457"	"29.802519410257979"	"1966.9662810770267"	"32.782771351283778"	"794.69967107380614"	" "	"2191"	" "	" "	"2876022784"	"21.730069130924388"	"310513664"	"19"
"06/09/2016 13:21:50.915"	"2037.6359981814267"	"29.789999973412669"	"2204.4599980325374"	"36.740999967208957"	"799.13471245053745"	" "	"2191"	" "	" "	"2876014592"	"49.654972424111065"	"310513664"	"19"
"06/09/2016 13:21:51.909"	"2064.4674128933311"	"30.182272118323556"	"2112.759048282649"	"35.212650804710819"	"789.08473112619981"	" "	"2191"	" "	" "	"2876096512"	"34.581402559315535"	"310513664"	"19"
"06/09/2016 13:21:52.900"	"2089.7842097723028"	"30.28672767785946"	"1998.9240267387245"	"33.315400445645409"	"806.10199841109238"	" "	"2191"	" "	" "	"2876092416"	"23.662485276255161"	"310513664"	"19"
"06/09/2016 13:21:53.910"	"2085.3707227081618"	"30.696340172817195"	"2079.4294955779392"	"34.657158259632318"	"782.87113116845512"	" "	"2190"	" "	" "	"2875801600"	"37.132227565302223"	"310431744"	"18"
"06/09/2016 13:21:54.905"	"2062.5108192565408"	"30.153666948195042"	"1929.8346846844827"	"32.163911411408044"	"804.11796852863199"	" "	"2190"	" "	" "	"2875863040"	"40.834115589344592"	"310431744"	"18"
"06/09/2016 13:21:55.914"	"2050.3231225990894"	"29.71482786375492"	"1901.7489832803149"	"31.695816388005248"	"789.31165783231916"	" "	"2189"	" "	" "	"2875834368"	"54.168447106139553"	"310431744"	"18"
"06/09/2016 13:21:56.908"	"2938.2780513673915"	"37.231605445408732"	"2644.4502462306523"	"37.231605445408732"	"801.77996913920606"	" "	"2189"	" "	" "	"2875756544"	"25.153881384759401"	"310431744"	"18"
"06/09/2016 13:21:57.901"	"2113.7143171854691"	"31.232194391205692"	"2115.7292974687725"	"35.262154957812875"	"801.28132471594165"	" "	"2189"	" "	" "	"2875441152"	"47.226797134534863"	"310431744"	"18"
"06/09/2016 13:21:58.908"	"2037.4572353729343"	"29.787386482060445"	"2204.2665996724727"	"36.737776661207882"	"792.86603040434863"	" "	"2189"	" "	" "	"2875441152"	"43.444713994758835"	"310431744"	"18"
"06/09/2016 13:21:59.901"	"2130.0612059346199"	"31.206000654051614"	"2174.3535939597255"	"36.239226565995423"	"805.24707043566582"	" "	"2184"	" "	" "	"2875318272"	"20.445726397780579"	"310431744"	"18"
"06/09/2016 13:22:00.908"	"2038.7282156324195"	"29.805968064801455"	"2086.4177645361019"	"34.77362940893503"	"790.15217418085967"	" "	"2101"	" "	" "	"2869018624"	"24.837789365213663"	"310431744"	"18"
"06/09/2016 13:22:01.915"	"2083.4931070852463"	"30.785646482193822"	"2008.0186189353519"	"33.764902593373868"	"796.02099980982393"	" "	"2101"	" "	" "	"2868477952"	"17.06867640917751"	"310431744"	"18"
"06/09/2016 13:22:02.905"	"2090.5583853115086"	"30.297947613210269"	"1939.0686472454572"	"32.317810787424285"	"804.78385235222095"	" "	"2101"	" "	" "	"2869342208"	"20.514098197213475"	"310431744"	"18"
"06/09/2016 13:22:03.912"	"2037.7208763549024"	"29.791240882381615"	"2085.3868617667131"	"34.756447696111884"	"791.33400019721898"	" "	"2101"	" "	" "	"2869620736"	"18.619623534052213"	"310431744"	"18"
"06/09/2016 13:22:04.902"	"2433.9530154742479"	"32.331463883427119"	"2630.972873513882"	"40.414329854283899"	"808.30337727337849"	" "	"2101"	" "	" "	"2869583872"	"39.467938343426681"	"310431744"	"18"
"06/09/2016 13:22:05.908"	"2501.5347851289553"	"33.79109364099503"	"2349.4748637444777"	"35.778805031641795"	"793.53204361279438"	" "	"2101"	" "	" "	"2869682176"	"17.081903091469155"	"310431744"	"18"
"06/09/2016 13:22:06.914"	"2316.3632669749195"	"30.805345892845349"	"2086.8137540314592"	"34.780229233857654"	"798.12165515599258"	" "	"2102"	" "	" "	"2869792768"	"32.608083187307088"	"310431744"	"18"
"06/09/2016 13:22:07.907"	"2066.6181066089725"	"30.213715008903108"	"2296.2423406766361"	"38.270705677943937"	"802.48331514455083"	" "	"2102"	" "	" "	"2869841920"	"31.469933927237282"	"310431744"	"18"
"06/09/2016 13:22:08.913"	"2039.5782263984406"	"29.818395122784217"	"2266.1980293316005"	"37.769967155526679"	"795.17479979734969"	" "	"2101"	" "	" "	"2870996992"	"27.955364055375576"	"310431744"	"18"
"06/09/2016 13:22:09.904"	"2088.930644701521"	"30.274357169587262"	"1937.5588588535848"	"32.292647647559747"	"805.78513230745887"	" "	"2101"	" "	" "	"2871136256"	"26.806941779308808"	"310431744"	"18"
"06/09/2016 13:22:10.914"	"2032.552621645204"	"29.715681603000057"	"2080.0977122100039"	"34.668295203500065"	"792.35551248663148"	" "	"2101"	" "	" "	"2871136256"	"26.308679125532684"	"310431744"	"18"
"06/09/2016 13:22:11.905"	"2070.113470930879"	"30.264816826474842"	"2118.537177853239"	"35.308952964220644"	"805.49703713283964"	" "	"2098"	" "	" "	"2870898688"	"22.068411976242182"	"310431744"	"18"
"06/09/2016 13:22:12.911"	"2038.6007751216284"	"29.804104899439011"	"2265.1119723573647"	"37.751866205956077"	"794.80081049812657"	" "	"2097"	" "	" "	"2870677504"	"20.180489329053994"	"310431744"	"18"
"06/09/2016 13:22:13.902"	"2559.4533358083572"	"34.327973734707754"	"2326.2250436696077"	"35.337620021022687"	"801.36197714853859"	" "	"2097"	" "	" "	"2870755328"	"17.352326276838433"	"310431744"	"18"
"06/09/2016 13:22:14.908"	"2448.2487820587035"	"32.802358833916855"	"2290.2010531316496"	"34.790380581426966"	"793.67560510449402"	" "	"2097"	" "	" "	"2870755328"	"18.63817467955759"	"310431744"	"18"
"06/09/2016 13:22:15.915"	"2037.8653661044293"	"29.793353305620311"	"1847.1879049484592"	"30.786465082474322"	"794.47853309072616"	" "	"2098"	" "	" "	"2869440512"	"20.172306504256717"	"310431744"	"18"
"06/09/2016 13:22:16.905"	"2089.811512776882"	"30.287123373577998"	"1859.6293751376891"	"31.296694152697267"	"806.09442976949458"	" "	"2098"	" "	" "	"2870710272"	"26.817231518750305"	"310431744"	"18"
"06/09/2016 13:22:17.912"	"2038.7381584699406"	"29.806113427923105"	"1847.9790325312326"	"30.799650542187209"	"793.31175409444495"	" "	"2097"	" "	" "	"2870620160"	"37.2592604662753"	"310431744"	"18"
"06/09/2016 13:22:18.906"	"2063.5437494755161"	"30.168768267185907"	"2232.4888517717573"	"37.208147529529285"	"802.92916604778793"	" "	"2097"	" "	" "	"2870620160"	"50.281278500057169"	"310431744"	"18"
"06/09/2016 13:22:19.900"	"2065.3074874308213"	"30.194553909807329"	"2053.2296658668984"	"34.220494431114972"	"801.97693667806482"	" "	"2091"	" "	" "	"2855239680"	"20.442549366303613"	"310431744"	"18"
"06/09/2016 13:22:20.905"	"2059.403923821515"	"29.846433678572684"	"2148.943224857233"	"35.81572041428722"	"791.279349157345"	" "	"2091"	" "	" "	"2855239680"	"21.764068542638174"	"310431744"	"18"
"06/09/2016 13:22:21.911"	"2039.4398252907904"	"29.816371714777638"	"2325.6769937526556"	"38.761283229210932"	"793.53377866138408"	" "	"2091"	" "	" "	"2855231488"	"18.634844117292779"	"310431744"	"18"
"06/09/2016 13:22:22.901"	"2591.0208694092717"	"34.33153139513454"	"2660.6936831229268"	"39.380286012066094"	"806.26471788119056"	" "	"2091"	" "	" "	"2855260160"	"41.023253747379563"	"310431744"	"18"
"06/09/2016 13:22:23.911"	"2457.6465577260474"	"32.689373802885754"	"2401.1830938846992"	"36.651722142629488"	"783.16216937183879"	" "	"2091"	" "	" "	"2855268352"	"27.85952381164644"	"310431744"	"18"
"06/09/2016 13:22:24.901"	"2071.8361855260418"	"30.290002712369034"	"1877.9801681668803"	"31.299669469448002"	"807.71089280929311"	" "	"2092"	" "	" "	"2857209856"	"15.775603375181507"	"310431744"	"18"
"06/09/2016 13:22:25.907"	"2040.4325678541334"	"29.83088549494347"	"2088.161984646043"	"34.802699744100714"	"792.41765071472969"	" "	"2091"	" "	" "	"2857230336"	"26.413921690490987"	"310431744"	"18"
"06/09/2016 13:22:26.900"	"2066.4490807316756"	"30.211243870346138"	"2235.6320464056143"	"37.260534106760232"	"805.66178821669268"	" "	"2091"	" "	" "	"2857230336"	"47.20674540332184"	"310431744"	"18"
"06/09/2016 13:22:27.910"	"2092.0857058996185"	"30.707697387731145"	"2062.3685793953628"	"34.669980921631932"	"786.20479260536626"	" "	"2091"	" "	" "	"2857230336"	"37.143533508914942"	"310431744"	"18"
"06/09/2016 13:22:28.900"	"2070.784681001302"	"30.274629839200319"	"1998.125569387221"	"33.302092823120354"	"807.39949339718783"	" "	"2091"	" "	" "	"2857226240"	"29.962090575286272"	"310431744"	"18"
"06/09/2016 13:22:29.910"	"2033.3255585457073"	"29.72698185008344"	"2199.7966569061746"	"36.663277615102906"	"792.73034563835802"	" "	"2091"	" "	" "	"2857226240"	"55.738852427697047"	"310431744"	"18"
"06/09/2016 13:22:30.903"	"2082.8208365680744"	"30.185809225624268"	"2113.0066457936987"	"35.216777429894982"	"801.76988532690939"	" "	"2091"	" "	" "	"2857230336"	"29.869858472963291"	"310431744"	"18"
"06/09/2016 13:22:31.912"	"2849.3630949615826"	"35.691395761522955"	"2486.5005713860992"	"34.69996810148065"	"789.99532570608858"	" "	"2091"	" "	" "	"2859479040"	"30.98020885121916"	"310431744"	"18"
"06/09/2016 13:22:32.902"	"1939.9840474914026"	"28.291434025916288"	"1939.9840474914026"	"32.333067458190044"	"808.34127360230218"	" "	"2094"	" "	" "	"2859585536"	"22.103081700062948"	"310431744"	"18"
"06/09/2016 13:22:33.908"	"2277.8222926871454"	"33.789684970053642"	"2206.2676656917379"	"36.771127761528959"	"790.40416914999548"	" "	"2094"	" "	" "	"2859614208"	"18.634282966208144"	"310431744"	"18"
"06/09/2016 13:22:34.915"	"2055.7851092796882"	"29.793987091009971"	"2085.5790963706982"	"34.759651606178302"	"806.89682773850109"	" "	"2094"	" "	" "	"2859081728"	"23.275870030918298"	"310431744"	"18"
"06/09/2016 13:22:35.905"	"8414.7651531676402"	"43.427136532190175"	"8282.4638767556189"	"52.51653720171835"	"793.81788894715623"	" "	"2095"	" "	" "	"2859372544"	"47.345003316927809"	"310431744"	"18"
"06/09/2016 13:22:36.914"	"2303.3452922715051"	"30.737711605861673"	"1903.7550413953036"	"31.729250689921724"	"790.06769770976291"	" "	"2095"	" "	" "	"2860638208"	"21.688132878307218"	"310431744"	"18"
"06/09/2016 13:22:37.903"	"2091.4538285698827"	"30.310925051737431"	"2061.1429035181454"	"34.352381725302422"	"806.72971337786839"	" "	"2095"	" "	" "	"2860646400"	"33.153275892241169"	"310431744"	"18"
"06/09/2016 13:22:38.910"	"2038.8999691839056"	"29.808479081636047"	"2265.4444102043394"	"37.757406836738994"	"793.36070550937495"	" "	"2095"	" "	" "	"2860646400"	"49.682079405675147"	"310431744"	"18"
"06/09/2016 13:22:39.903"	"2152.0391906204832"	"31.203561697490635"	"2192.3018508753098"	"36.236394229343965"	"805.23402113739303"	" "	"2098"	" "	" "	"2866884608"	"39.318067438349267"	"310431744"	"18"
"06/09/2016 13:22:40.910"	"2897.3661811646989"	"36.763562655381982"	"2772.171346176101"	"39.744392059872418"	"794.88854867659006"	" "	"2098"	" "	" "	"2866884608"	"18.630200359607578"	"310431744"	"18"
"06/09/2016 13:22:41.900"	"2089.7201917315756"	"30.285799880167765"	"1938.291192330737"	"32.304853205512281"	"802.91952011749709"	" "	"2098"	" "	" "	"2866880512"	"33.12634562370814"	"310431744"	"18"
"06/09/2016 13:22:42.910"	"2032.5508248024187"	"29.715655333368694"	"2198.9584946692835"	"36.649308244488054"	"792.43674596548169"	" "	"2098"	" "	" "	"2866876416"	"44.884112564451115"	"310431744"	"18"
"06/09/2016 13:22:43.903"	"2066.3590068056865"	"30.209927000083134"	"2175.1147440059854"	"36.251912400099762"	"794.5047782807452"	" "	"2098"	" "	" "	"2866937856"	"47.198303660242289"	"310431744"	"18"
"06/09/2016 13:22:44.909"	"2057.3378604511713"	"29.816490731176394"	"1908.2554067952892"	"31.804256779921484"	"795.14065690346592"	" "	"2098"	" "	" "	"2866864128"	"23.295136432718728"	"310431744"	"18"
"06/09/2016 13:22:45.899"	"2072.0901247752558"	"30.293715274492044"	"1817.6229164695228"	"30.293715274492044"	"807.82581255916682"	" "	"2098"	" "	" "	"2866868224"	"17.355632691700851"	"310431744"	"18"
"06/09/2016 13:22:46.906"	"2037.904201218126"	"29.79392107044044"	"2246.4616487112089"	"37.738966689224554"	"791.42941164727858"	" "	"2098"	" "	" "	"2866868224"	"41.899204146032396"	"310431744"	"18"
"06/09/2016 13:22:47.914"	"2036.8940668055791"	"29.779153023473381"	"2144.0990176900832"	"35.734983628168052"	"795.68643524436391"	" "	"2097"	" "	" "	"2866835456"	"35.674050702963683"	"310431744"	"18"
"06/09/2016 13:22:48.907"	"2083.5767580059423"	"30.196764608781777"	"2355.3476394849786"	"39.255793991416311"	"800.51843146349336"	" "	"2097"	" "	" "	"2866839552"	"45.60910513249766"	"310431744"	"18"
"06/09/2016 13:22:49.901"	"2892.4693785345239"	"36.231349209200722"	"2524.1173282409836"	"35.224922842278474"	"803.50787574833475"	" "	"2097"	" "	" "	"2865815552"	"34.593294063529086"	"310431744"	"18"
"06/09/2016 13:22:50.907"	"2038.6830221386756"	"29.805307341208707"	"2026.7608992021921"	"33.779348320036533"	"793.27486716449346"	" "	"2097"	" "	" "	"2865815552"	"27.94314600579429"	"310431744"	"18"
"06/09/2016 13:22:51.900"	"2086.1395542323639"	"30.233906583077736"	"2116.3734608154418"	"35.272891013590694"	"803.06534893573621"	" "	"2097"	" "	" "	"2865815552"	"28.34348290361422"	"310431744"	"18"
"06/09/2016 13:22:52.906"	"2038.650484063822"	"29.804831638359971"	"1788.2898983015982"	"29.804831638359971"	"794.79836263589311"	" "	"2097"	" "	" "	"2865819648"	"20.180427176301976"	"310431744"	"18"
"06/09/2016 13:22:53.913"	"2039.0735600674552"	"29.811016960050516"	"1907.905085443233"	"31.798418090720549"	"788.75160222156171"	" "	"2097"	" "	" "	"2865909760"	"18.631927611532955"	"310431744"	"18"
"06/09/2016 13:22:54.903"	"2127.2946186248723"	"31.313453550508569"	"1878.807213030514"	"31.313453550508569"	"808.08031833516054"	" "	"2095"	" "	" "	"2865807360"	"25.252509947973767"	"310431744"	"18"
"06/09/2016 13:22:55.909"	"2057.5851675672607"	"29.820074892279141"	"2206.6855420286565"	"36.778092367144275"	"795.2034125359246"	" "	"2095"	" "	" "	"2865790976"	"26.403238306856871"	"310431744"	"18"
"06/09/2016 13:22:56.900"	"2116.789207330306"	"31.277628897635594"	"2239.8818113790653"	"37.331363522984418"	"804.05691678642802"	" "	"2095"	" "	" "	"2865733632"	"34.684808175100819"	"310431744"	"18"
"06/09/2016 13:22:57.910"	"2030.9403353305472"	"29.692110165651275"	"2315.9845929207995"	"38.599743215346656"	"790.27177975415623"	" "	"2092"	" "	" "	"2865627136"	"52.581683975814698"	"310431744"	"18"
"06/09/2016 13:22:58.905"	"2906.6244554058458"	"36.182047162728367"	"2822.1996786928125"	"40.202274625253743"	"804.04224196726625"	" "	"2091"	" "	" "	"2865598464"	"48.682245119111819"	"310431744"	"18"
"06/09/2016 13:22:59.899"	"2109.9218294135994"	"31.176156678656614"	"2292.9560395915187"	"38.215933993191982"	"804.49503556169736"	" "	"2091"	" "	" "	"2865594368"	"42.424542890948885"	"310431744"	"18"
"06/09/2016 13:23:00.906"	"2038.5393201443092"	"29.803206434858321"	"1967.0116247006492"	"32.78352707834415"	"794.73740783281266"	" "	"2091"	" "	" "	"2865688576"	"26.387765494448857"	"310431744"	"18"
"06/09/2016 13:23:01.913"	"2038.4272647237965"	"29.801568197716325"	"2068.228832921513"	"34.768496230669044"	"794.74119749616784"	" "	"2091"	" "	" "	"2865692672"	"40.357951435352277"	"310431744"	"18"
"06/09/2016 13:23:02.906"	"2083.520606366852"	"30.195950816910898"	"2294.8922620852281"	"38.248204368087137"	"802.09075555615505"	" "	"2094"	" "	" "	"2865778688"	"53.472717037076997"	"310431744"	"18"
"06/09/2016 13:23:03.899"	"2066.1268937070763"	"30.206533533729186"	"2235.2834814959597"	"37.254724691599328"	"781.88164080237857"	" "	"2094"	" "	" "	"2865819648"	"45.622872400943621"	"310431744"	"18"
"06/09/2016 13:23:04.906"	"2084.114687742564"	"30.794830943765245"	"1788.0869580250787"	"29.801449300417978"	"803.99083418165219"	" "	"2095"	" "	" "	"2867748864"	"23.281587862403057"	"310431744"	"18"
"06/09/2016 13:23:05.912"	"2204.8191719171919"	"31.795499549955"	"2057.7649864986502"	"32.789108910891095"	"791.79445090576314"	" "	"2095"	" "	" "	"2867896320"	"21.735533946432714"	"310431744"	"18"
"06/09/2016 13:23:06.902"	"2751.3127940104682"	"34.340908588970606"	"2205.8983634797587"	"33.330881865765583"	"803.28469899517768"	" "	"2093"	" "	" "	"2867785728"	"23.672437102018986"	"310431744"	"18"
"06/09/2016 13:23:07.908"	"2448.7299647378677"	"32.808805861286899"	"2409.9559214472561"	"36.785630814170162"	"790.72707369961597"	" "	"2093"	" "	" "	"2867785728"	"21.748878254999259"	"310431744"	"18"
"06/09/2016 13:23:08.901"	"2067.9527097583682"	"30.233226750853337"	"2116.3258725597334"	"35.272097875995556"	"806.18708276669292"	" "	"2093"	" "	" "	"2867605504"	"39.364603650717434"	"310431744"	"18"
"06/09/2016 13:23:09.906"	"2058.6681782596888"	"29.835770699415782"	"2148.1754903579363"	"35.802924839298939"	"794.13503520625954"	" "	"2093"	" "	" "	"2867527680"	"46.622409111913477"	"310431744"	"18"
"06/09/2016 13:23:10.900"	"2063.823447911856"	"30.172857425611927"	"2051.7543049416113"	"34.195905082360184"	"803.044485911224"	" "	"2091"	" "	" "	"2867412992"	"39.287890700157732"	"310431744"	"18"
"06/09/2016 13:23:11.910"	"2032.6766114701488"	"29.717494319739018"	"2020.7896137422533"	"33.679826895704224"	"784.66483971516675"	" "	"2091"	" "	" "	"2867417088"	"44.882209766745234"	"310431744"	"18"
"06/09/2016 13:23:12.900"	"2089.6731221450386"	"30.28511771224694"	"1998.817769008298"	"33.313629483471637"	"807.60236486162501"	" "	"2091"	" "	" "	"2867417088"	"23.660225533055417"	"310431744"	"18"
"06/09/2016 13:23:13.907"	"2039.5538013086182"	"29.818038030827751"	"1967.9905100346316"	"32.799841833910527"	"787.3822635221768"	" "	"2091"	" "	" "	"2867204096"	"18.636266592240872"	"310431744"	"18"
"06/09/2016 13:23:14.913"	"2092.8586768532691"	"30.806561720062369"	"2027.270513191201"	"33.78784188652002"	"795.00798585521795"	" "	"2091"	" "	" "	"2867204096"	"24.843999557975561"	"310431744"	"18"
"06/09/2016 13:23:15.903"	"2487.461499044563"	"33.327742374531297"	"2508.6700623738102"	"38.377400310066342"	"804.80774853498485"	" "	"2091"	" "	" "	"2867228672"	"31.561088177842539"	"310431744"	"18"
"06/09/2016 13:23:16.910"	"2464.1953466870609"	"32.776479822923427"	"2389.703347089508"	"36.749386468126261"	"791.5048768619547"	" "	"2091"	" "	" "	"2867154944"	"29.487436588974781"	"310431744"	"18"
"06/09/2016 13:23:17.902"	"2068.6811480952128"	"30.243876434140539"	"2056.5835975215568"	"34.276393292025944"	"804.91911114247478"	" "	"2090"	" "	" "	"2867122176"	"40.954788433863683"	"310431744"	"18"
"06/09/2016 13:23:18.912"	"2031.95534645472"	"29.706949509571931"	"2379.5266557167115"	"36.638571061805379"	"792.15803156650736"	" "	"2089"	" "	" "	"2867052544"	"34.038040418873358"	"310431744"	"18"
"06/09/2016 13:23:19.902"	"2089.4029837300636"	"30.281202662754541"	"2301.3714023693451"	"38.356190039489086"	"805.911767505375"	" "	"2090"	" "	" "	"2867073024"	"20.502647705616198"	"310431744"	"18"
"06/09/2016 13:23:20.909"	"4319.3398201927484"	"50.65218000226033"	"8124.2124003625386"	"46.679460002083047"	"786.76003589239633"	" "	"2096"	" "	" "	"2874896384"	"43.450258392479476"	"310431744"	"18"
"06/09/2016 13:23:21.900"	"2162.8145778629282"	"31.272039138876295"	"1997.3754030637117"	"33.289590051061865"	"789.7527683530094"	" "	"2090"	" "	" "	"2867109888"	"28.374350958790757"	"310431744"	"18"
"06/09/2016 13:23:22.907"	"2037.8563348947691"	"29.793221270391363"	"2025.9390463866127"	"33.76565077311021"	"792.88358832883296"	" "	"2090"	" "	" "	"2866634752"	"24.826100613035866"	"310431744"	"18"
"06/09/2016 13:23:23.914"	"2056.2434876584116"	"29.80063025591901"	"2324.4491599616827"	"38.740819332694713"	"790.03310378396372"	" "	"2091"	" "	" "	"2866995200"	"18.625534863276158"	"310431744"	"18"
"06/09/2016 13:23:24.904"	"2573.9536880990918"	"34.332846369309188"	"2647.6683288331969"	"40.391583963893169"	"803.10364943425657"	" "	"2086"	" "	" "	"2853548032"	"42.600782975883945"	"310431744"	"18"
"06/09/2016 13:23:25.911"	"2575.1429213257898"	"34.785797856581496"	"2476.7488073886025"	"37.767437672859906"	"790.4128885862317"	" "	"2086"	" "	" "	"2853548032"	"20.187362576858568"	"310431744"	"18"
"06/09/2016 13:23:26.900"	"2091.4340262701926"	"30.310638061886852"	"2061.1233882083061"	"34.352056470138429"	"806.70542388944284"	" "	"2085"	" "	" "	"2851438592"	"33.152277694086699"	"310431744"	"18"
"06/09/2016 13:23:27.905"	"2041.6256793043924"	"29.848328644801061"	"2089.3830051360742"	"34.823050085601238"	"792.86066715612185"	" "	"2082"	" "	" "	"2851336192"	"32.647203941722665"	"310431744"	"18"
"06/09/2016 13:23:28.912"	"2038.9524049808956"	"29.809245686855199"	"2205.884180827285"	"36.764736347121413"	"793.44332965018282"	" "	"2082"	" "	" "	"2851336192"	"24.843626760084003"	"310431744"	"18"
"06/09/2016 13:23:29.905"	"2151.8942036822777"	"31.201459454700938"	"2071.3743083153076"	"34.220955530962321"	"803.55413092868844"	" "	"2086"	" "	" "	"2857656320"	"23.587694645656214"	"310431744"	"18"
"06/09/2016 13:23:30.912"	"2055.9026460776417"	"29.795690522864376"	"2085.6983366005061"	"34.761638943341772"	"791.43680031400243"	" "	"2086"	" "	" "	"2857652224"	"27.933063540494203"	"310431744"	"18"
"06/09/2016 13:23:31.903"	"2070.3884279882973"	"30.268836666495574"	"2239.8939133206723"	"37.331565222011207"	"802.52721970514926"	" "	"2086"	" "	" "	"2859585536"	"44.146880455293086"	"310431744"	"18"
"06/09/2016 13:23:32.913"	"2032.7997177822388"	"29.719294119623374"	"2139.7891766128828"	"35.663152943548049"	"790.90860372852705"	" "	"2089"	" "	" "	"2859700224"	"40.241925042938753"	"310431744"	"18"
"06/09/2016 13:23:33.903"	"2919.7102622982284"	"36.344941024459274"	"2471.4559896632304"	"34.325777634211533"	"799.83132803577223"	" "	"2089"	" "	" "	"2859749376"	"12.620612671175893"	"310431744"	"18"
"06/09/2016 13:23:34.913"	"2170.9983731069856"	"31.693406906671324"	"1927.3553075119498"	"31.693406906671324"	"792.25601436201703"	" "	"2089"	" "	" "	"2858946560"	"27.85275050491466"	"310431744"	"18"
"06/09/2016 13:23:35.904"	"2506.6693631732319"	"38.346793800556682"	"1870.9198870061077"	"31.282910732033084"	"807.34750820265072"	" "	"2088"	" "	" "	"2858663936"	"28.383310835249436"	"310431744"	"18"
"06/09/2016 13:23:36.913"	"2346.7663754878913"	"31.726457125311583"	"1784.6132132987766"	"29.743553554979609"	"790.04357223523914"	" "	"2088"	" "	" "	"2858614784"	"27.883890784773147"	"310431744"	"18"
"06/09/2016 13:23:37.903"	"2090.6893549089323"	"30.299845723317862"	"1817.9907433990718"	"30.299845723317862"	"806.39052656827971"	" "	"2088"	" "	" "	"2858614784"	"17.35870018053048"	"310431744"	"18"
"06/09/2016 13:23:38.909"	"2146.7625774204066"	"31.803890035857872"	"1788.9688145170053"	"29.816146908616755"	"795.14445041354963"	" "	"2088"	" "	" "	"2859933696"	"24.848264075423426"	"310431744"	"18"
"06/09/2016 13:23:39.902"	"2229.2491862824568"	"33.227291394453957"	"1812.3977124247615"	"30.206628540412691"	"803.95779580914382"	" "	"2085"	" "	" "	"2862510080"	"44.052481962144874"	"310431744"	"18"
"06/09/2016 13:23:40.910"	"2267.8635041556768"	"33.730253342647863"	"1785.7192946107691"	"29.761988243512818"	"792.1387296770996"	" "	"2084"	" "	" "	"2863775744"	"31.003472785796461"	"310431744"	"18"
"06/09/2016 13:23:41.903"	"2174.7365451006681"	"32.21831918667656"	"1812.2804542505567"	"30.204674237509277"	"802.23844535023352"	" "	"2084"	" "	" "	"2863771648"	"39.325413987756548"	"310431744"	"18"
"06/09/2016 13:23:42.912"	"3010.0822453822911"	"38.667064416966191"	"2427.1018895572624"	"33.709748466073094"	"791.64871643223535"	" "	"2084"	" "	" "	"2863771648"	"35.631938312996894"	"310431744"	"18"
"06/09/2016 13:23:43.906"	"2173.1967679383506"	"32.195507673160748"	"1810.9973066152922"	"30.183288443588204"	"792.27145483675429"	" "	"2084"	" "	" "	"2863837184"	"44.015080824264132"	"310431744"	"18"
"06/09/2016 13:23:44.912"	"2164.0744713539484"	"31.795400864704472"	"1788.4912986396266"	"29.808188310660444"	"794.91469223933734"	" "	"2084"	" "	" "	"2863796224"	"31.051355165599116"	"310431744"	"18"
"06/09/2016 13:23:45.905"	"2174.6534957725635"	"32.217088826260202"	"1812.2112464771362"	"30.203520774618937"	"803.828051294788"	" "	"2084"	" "	" "	"2863796224"	"36.180127553385759"	"310431744"	"18"
"06/09/2016 13:23:46.914"	"2087.5642894015014"	"30.728629141237676"	"1825.8753186503161"	"30.728629141237676"	"793.01095653675463"	" "	"2082"	" "	" "	"2863677440"	"26.330441916259428"	"310431744"	"18"
"06/09/2016 13:23:47.904"	"2249.1206853737272"	"32.317854482244847"	"1817.8793146262726"	"30.297988577104544"	"806.40323176368497"	" "	"2082"	" "	" "	"2863665152"	"23.671327742573919"	"310431744"	"18"
"06/09/2016 13:23:48.914"	"2139.5933854634018"	"31.69767978464299"	"1932.5679143699524"	"30.707127291372899"	"793.99461968196329"	" "	"2082"	" "	" "	"2863652864"	"51.075677289483025"	"310431744"	"18"
"06/09/2016 13:23:49.907"	"2228.2409858999954"	"33.212264017479605"	"1811.5780373170694"	"30.192967288617822"	"802.00357224342508"	" "	"2082"	" "	" "	"2863648768"	"47.176680720201475"	"310431744"	"18"
"06/09/2016 13:23:50.901"	"2174.5460295867747"	"32.215496734618881"	"1812.121691322312"	"30.202028188705203"	"803.72844434915044"	" "	"2082"	" "	" "	"2863648768"	"39.321352463265683"	"310431744"	"18"
"06/09/2016 13:23:51.907"	"2980.8320478582486"	"37.757205939537819"	"2432.3589510523307"	"33.78276320906015"	"780.98348744409577"	" "	"2073"	" "	" "	"2860011520"	"35.710974574978536"	"310431744"	"18"
"06/09/2016 13:23:52.902"	"2063.760462841994"	"30.171936591257221"	"1810.3161954754332"	"30.171936591257221"	"801.38019920388444"	" "	"2073"	" "	" "	"2859995136"	"31.426674478583699"	"310431744"	"18"
"06/09/2016 13:23:53.908"	"2093.2680498565787"	"30.812587628468155"	"1789.117991330409"	"29.818633188840149"	"785.81729123052253"	" "	"2073"	" "	" "	"2860040192"	"29.50697338612634"	"310431744"	"18"
"06/09/2016 13:23:54.900"	"2194.1616122200439"	"32.237452521139303"	"1813.3567043140858"	"30.222611738568098"	"805.96202347243491"	" "	"2073"	" "	" "	"2860023808"	"20.463879502229794"	"310431744"	"18"
"06/09/2016 13:23:55.906"	"2200.8220774640859"	"32.803581100413204"	"1789.2862418407203"	"29.821437364012006"	"793.74361774212025"	" "	"2073"	" "	" "	"2860032000"	"43.492800972170969"	"310431744"	"18"
"06/09/2016 13:23:56.900"	"2065.5245714306247"	"30.197727652494514"	"1872.25911445466"	"31.204318574244333"	"803.65806277579156"	" "	"2073"	" "	" "	"2859999232"	"36.17247640673817"	"310431744"	"18"
"06/09/2016 13:23:57.908"	"2089.4950815055931"	"30.757050107632189"	"1785.8932320560625"	"29.764887200934378"	"789.08237898496213"	" "	"2070"	" "	" "	"2859884544"	"41.857022067964593"	"310431744"	"18"
"06/09/2016 13:23:58.900"	"2240.3095779336809"	"33.242003629411627"	"1813.2001979679071"	"30.220003299465116"	"804.29599200577013"	" "	"2070"	" "	" "	"2859888640"	"31.479295186135815"	"310431744"	"18"
"06/09/2016 13:23:59.908"	"2221.2266888825998"	"30.767661910348792"	"1846.0597146209275"	"30.767661910348792"	"792.45973845491312"	" "	"2070"	" "	" "	"2859888640"	"23.262027547600187"	"310431744"	"18"
"06/09/2016 13:24:00.915"	"2876.6266588475487"	"38.739102104645852"	"2431.6236397993089"	"33.77255055276818"	"796.24406737636627"	" "	"2070"	" "	" "	"2859945984"	"31.042653698883676"	"310431744"	"18"
"06/09/2016 13:24:01.908"	"2247.3196458907792"	"33.226500140858299"	"1812.3545531377254"	"30.205909218962088"	"799.16457977736559"	" "	"2070"	" "	" "	"2859966464"	"42.475282783442658"	"310431744"	"18"
"06/09/2016 13:24:02.901"	"2174.634932672488"	"32.216813817370195"	"1812.1957772270734"	"30.203262953784556"	"805.4109926720688"	" "	"2070"	" "	" "	"2859958272"	"29.888298556190051"	"310431744"	"18"
"06/09/2016 13:24:03.912"	"2030.0598657210869"	"29.67923780293987"	"1780.7542681763921"	"29.67923780293987"	"782.15225745588339"	" "	"2073"	" "	" "	"2860101632"	"21.640576293245786"	"310431744"	"18"
"06/09/2016 13:24:04.903"	"2117.5061573481471"	"31.288222534696171"	"1816.7355020146163"	"30.27892503357694"	"807.42630342575831"	" "	"2073"	" "	" "	"2860204032"	"22.078062984298079"	"310431744"	"18"
"06/09/2016 13:24:05.910"	"2164.1104459222588"	"31.781337434379203"	"1853.2492391422372"	"30.788170639554853"	"794.55775610533215"	" "	"2073"	" "	" "	"2860204032"	"24.82992987829163"	"310431744"	"18"
"06/09/2016 13:24:06.901"	"2442.6830211276324"	"33.295555430488179"	"1816.1212052993551"	"30.26868675498925"	"805.62146831944494"	" "	"2074"	" "	" "	"2862047232"	"29.954614281936308"	"310431744"	"18"
"06/09/2016 13:24:07.910"	"2301.3242847349684"	"34.688350545100732"	"1783.9723137480375"	"29.732871895800628"	"783.55630351906348"	" "	"2073"	" "	" "	"2860208128"	"51.101498055591101"	"310431744"	"18"
"06/09/2016 13:24:08.901"	"2557.7316691888027"	"34.304882348094395"	"2143.0461796280147"	"32.286948092324138"	"805.63130416743275"	" "	"2073"	" "	" "	"2860199936"	"42.567603155617775"	"310431744"	"18"
"06/09/2016 13:24:09.910"	"2493.5193245503242"	"33.682819640330166"	"2104.1855563547433"	"31.701477308546039"	"792.51030213860884"	" "	"2073"	" "	" "	"2860212224"	"21.670203574102587"	"310431744"	"18"
"06/09/2016 13:24:10.901"	"2071.6485718778031"	"30.287259822774899"	"1817.235589366494"	"30.287259822774899"	"807.64313076802307"	" "	"2073"	" "	" "	"2860584960"	"20.506563867156839"	"310431744"	"18"
"06/09/2016 13:24:11.907"	"2134.8323313696173"	"31.803833614444954"	"1788.9656408125286"	"29.816094013542145"	"793.57431786525808"	" "	"2073"	" "	" "	"2860580864"	"32.612643199942113"	"310431744"	"18"
"06/09/2016 13:24:12.901"	"2311.9672341348287"	"34.206651854040111"	"1810.9403922727115"	"30.182339871211859"	"800.07993631652926"	" "	"2074"	" "	" "	"2860400640"	"37.724790710406097"	"310431744"	"18"
"06/09/2016 13:24:13.906"	"2041.6293051547309"	"29.84838165430893"	"1790.9028992585359"	"29.84838165430893"	"788.2138773799644"	" "	"2074"	" "	" "	"2860498944"	"17.101287280433151"	"310431744"	"18"
"06/09/2016 13:24:14.912"	"2093.1826345592358"	"30.81133032826985"	"1789.0449868027654"	"29.817416446712759"	"793.55459983628737"	" "	"2075"	" "	" "	"2860572672"	"17.082388646182313"	"310431744"	"18"
"06/09/2016 13:24:15.903"	"2307.7218112787323"	"34.323071558826285"	"1817.1037884084503"	"30.285063140140842"	"801.38285110362165"	" "	"2075"	" "	" "	"2860195840"	"41.015657733649924"	"310431744"	"18"
"06/09/2016 13:24:16.912"	"2193.20052480606"	"32.689980722041547"	"1824.6952875757736"	"30.708769769190543"	"792.46516199325197"	" "	"2075"	" "	" "	"2859868160"	"54.172423183132459"	"310431744"	"18"
"06/09/2016 13:24:17.906"	"2642.3320290286038"	"36.237696398106564"	"2138.0240874882875"	"32.211285687205837"	"789.51887336373943"	" "	"2075"	" "	" "	"2859868160"	"47.182402790661719"	"310431744"	"18"
"06/09/2016 13:24:18.913"	"2601.1689748974368"	"34.748440504355074"	"2258.6486327830794"	"32.76281533267764"	"794.25531019244011"	" "	"2075"	" "	" "	"2859876352"	"38.781997567990238"	"310431744"	"18"
"06/09/2016 13:24:19.912"	"2070.8797637463085"	"30.012750199221863"	"1800.7650119533118"	"30.012750199221863"	"800.32717374862852"	" "	"2075"	" "	" "	"2859876352"	"29.699641213328011"	"310431744"	"18"
"06/09/2016 13:24:20.904"	"2069.4454898367526"	"30.255051021005155"	"1815.3030612603093"	"30.255051021005155"	"805.19948475300737"	" "	"2075"	" "	" "	"2859831296"	"25.211725549996316"	"310431744"	"18"
"06/09/2016 13:24:21.911"	"2145.5654871269544"	"31.786155364843772"	"1787.9712392724621"	"29.799520654541034"	"793.13523234472893"	" "	"2075"	" "	" "	"2859839488"	"38.803093558939779"	"310431744"	"18"
"06/09/2016 13:24:22.902"	"2196.7806706307929"	"32.275932718175099"	"1815.5212153973496"	"30.258686923289158"	"805.37085717231071"	" "	"2075"	" "	" "	"2859835392"	"47.282046409333311"	"310431744"	"18"
"06/09/2016 13:24:23.912"	"2299.2061332674662"	"34.656423197399356"	"1782.3303358662527"	"29.705505597770877"	"782.82198699800131"	" "	"2075"	" "	" "	"2859843584"	"40.224054667881489"	"310431744"	"18"
"06/09/2016 13:24:24.905"	"2393.7040249637757"	"36.268242802481453"	"1813.4121401240727"	"30.223535668734545"	"805.96640812607575"	" "	"2075"	" "	" "	"2859712512"	"39.35382852178104"	"310431744"	"18"
"06/09/2016 13:24:25.912"	"2036.2599724829834"	"29.769882638640109"	"1786.1929583184065"	"29.769882638640109"	"793.8452384815289"	" "	"2075"	" "	" "	"2859712512"	"29.459100646775482"	"310431744"	"18"
"06/09/2016 13:24:26.903"	"2865.2457758306869"	"35.336012034557449"	"2471.5016417313327"	"34.326411690712952"	"807.65593211167288"	" "	"2075"	" "	" "	"2859716608"	"20.506888901272944"	"310431744"	"18"
"06/09/2016 13:24:27.910"	"2091.9690054775224"	"30.79346589259411"	"1788.0076969893355"	"29.80012828315559"	"791.62486473459376"	" "	"2075"	" "	" "	"2859716608"	"29.49190672540643"	"310431744"	"18"
"06/09/2016 13:24:28.904"	"2226.2862569832405"	"33.18312849162011"	"1809.9888268156426"	"30.166480446927377"	"802.87079193892839"	" "	"2072"	" "	" "	"2859606016"	"34.565865797762086"	"310431744"	"18"
"06/09/2016 13:24:29.913"	"2212.5944038032867"	"32.713089303543221"	"1784.3503256478118"	"29.739172094130197"	"791.50125787672312"	" "	"2072"	" "	" "	"2859606016"	"48.016710360427425"	"310431744"	"18"
"06/09/2016 13:24:30.905"	"2122.2703952850538"	"31.239497746361192"	"1813.9063207564564"	"30.231772012607607"	"806.16539168250961"	" "	"2068"	" "	" "	"2848763904"	"34.639919173857834"	"310431744"	"18"
"06/09/2016 13:24:31.914"	"2140.8188518771603"	"31.715834842624599"	"1784.0157098976338"	"29.733595164960562"	"789.7941009875957"	" "	"2068"	" "	" "	"2848157696"	"29.423701801498662"	"310431744"	"18"
"06/09/2016 13:24:32.906"	"2466.2956909320956"	"35.290412584882802"	"2139.6073001463233"	"31.257222575181913"	"800.27310611525616"	" "	"2068"	" "	" "	"2848161792"	"23.630111401041027"	"310431744"	"18"
"06/09/2016 13:24:33.912"	"2164.3009452791694"	"31.79872830529542"	"1848.3010827452963"	"30.805018045754938"	"785.6706395142869"	" "	"2071"	" "	" "	"2848272384"	"17.079796511180149"	"310431744"	"18"
"06/09/2016 13:24:34.903"	"2179.861697753523"	"32.294247374126265"	"1816.5514147946026"	"30.275856913243377"	"802.62416535917259"	" "	"2071"	" "	" "	"2848559104"	"26.806701004137391"	"310431744"	"18"
"06/09/2016 13:24:35.909"	"3179.7184250073547"	"41.75990426838927"	"2434.0058487861174"	"33.805636788696077"	"793.88094095131589"	" "	"2071"	" "	" "	"2845933568"	"34.178827203383463"	"310431744"	"18"
"06/09/2016 13:24:36.915"	"2487.8194098175682"	"33.793791423810355"	"1789.0830753781952"	"29.818051256303253"	"802.91950851510899"	" "	"2071"	" "	" "	"2845900800"	"29.507680196880209"	"310431744"	"18"
"06/09/2016 13:24:37.906"	"2125.2474315754775"	"31.283319268205034"	"1816.4507962183568"	"30.274179936972615"	"791.54513242758208"	" "	"2071"	" "	" "	"2847211520"	"18.921397587910327"	"310431744"	"18"
"06/09/2016 13:24:38.913"	"2091.7622351152618"	"30.79042226427973"	"1787.8309701839842"	"29.797182836399738"	"797.76402574698034"	" "	"2071"	" "	" "	"2847211520"	"31.041401780038143"	"310431744"	"18"
"06/09/2016 13:24:39.906"	"2173.8985264462699"	"32.205904095500294"	"1811.5821053718914"	"30.193035089531524"	"800.39718318562336"	" "	"2078"	" "	" "	"2862022656"	"48.747176186157802"	"310431744"	"18"
"06/09/2016 13:24:40.900"	"2979.3217701887902"	"42.274160252678783"	"2000.9769186267956"	"32.208884002040975"	"802.06338764197847"	" "	"2078"	" "	" "	"2862215168"	"40.889506036649884"	"310431744"	"18"
"06/09/2016 13:24:41.908"	"2249.0912766284159"	"33.71653589301858"	"1784.9930766892192"	"29.749884611486987"	"790.25472010776912"	" "	"2078"	" "	" "	"2864451584"	"46.485571771045251"	"310431744"	"18"
"06/09/2016 13:24:42.902"	"2118.7393805363367"	"31.187521745786537"	"1810.8883594327665"	"30.181472657212776"	"800.14248006667458"	" "	"2078"	" "	" "	"2864443392"	"45.587685504781064"	"310431744"	"18"
"06/09/2016 13:24:43.912"	"2209.5555661577605"	"32.668160252332484"	"1781.8996501272263"	"29.698327502120438"	"785.71931997440561"	" "	"2077"	" "	" "	"2864447488"	"27.840448345549806"	"310431744"	"18"
"06/09/2016 13:24:44.903"	"2955.8354781076255"	"37.351746137288984"	"2471.2722849752276"	"34.323226180211499"	"807.61222983351877"	" "	"2077"	" "	" "	"2864496640"	"26.815249818691058"	"310431744"	"18"
"06/09/2016 13:24:45.911"	"2228.6810843937401"	"32.745536858857271"	"1871.4570459334791"	"30.760958867411375"	"790.72113370482884"	" "	"2077"	" "	" "	"2864517120"	"38.760839887491613"	"310431744"	"18"
"06/09/2016 13:24:46.903"	"2232.0563211352946"	"33.269132157843146"	"1814.6799358823532"	"30.244665598039219"	"803.41552545114519"	" "	"2077"	" "	" "	"2864517120"	"40.958438552411323"	"310431744"	"18"
"06/09/2016 13:24:47.913"	"2209.8445266026442"	"32.672432516974581"	"1823.715778674763"	"30.692285091703393"	"785.87101438398895"	" "	"2077"	" "	" "	"2864517120"	"49.503685945448126"	"310431744"	"18"
"06/09/2016 13:24:48.906"	"2174.245180764834"	"32.21103971503458"	"1811.8709839706951"	"30.197849732844915"	"800.53962347145693"	" "	"2077"	" "	" "	"2864599040"	"48.755851331267515"	"310431744"	"18"
"06/09/2016 13:24:49.899"	"2120.8760214254994"	"31.218972775019221"	"1812.7145482269225"	"30.211909137115377"	"794.65824496355992"	" "	"2077"	" "	" "	"2864603136"	"56.648904591461694"	"310431744"	"18"
"06/09/2016 13:24:50.909"	"2244.5542476599326"	"32.687683218348532"	"1990.977068753956"	"32.687683218348532"	"801.67102164905475"	" "	"2077"	" "	" "	"2864594944"	"20.119156913972418"	"310431744"	"18"
"06/09/2016 13:24:51.900"	"2070.786546079933"	"30.274657106431768"	"1816.479426385906"	"30.274657106431768"	"805.75537027281769"	" "	"2077"	" "	" "	"2864599040"	"22.075489596515556"	"310431744"	"18"
"06/09/2016 13:24:52.906"	"2194.6398057262436"	"31.791975456423625"	"1938.3170036088279"	"30.798476223410386"	"790.19142739732342"	" "	"2077"	" "	" "	"2864623616"	"23.286584304439785"	"310431744"	"18"
"06/09/2016 13:24:53.899"	"2948.7578662395476"	"37.262309102070788"	"2465.3549373478186"	"34.241040796497479"	"783.55661445137696"	" "	"2077"	" "	" "	"2864656384"	"42.481985120857786"	"310431744"	"18"
"06/09/2016 13:24:54.906"	"2164.1877023916522"	"31.797064497948977"	"1788.5848780096298"	"29.809747966827164"	"801.16500570876633"	" "	"2077"	" "	" "	"2864652288"	"32.605552557914912"	"310431744"	"18"
"06/09/2016 13:24:55.913"	"2250.8772309921678"	"33.743309459318212"	"1828.0934124724752"	"30.765958624672489"	"795.51760040976637"	" "	"2077"	" "	" "	"2864660480"	"34.115764539989982"	"310431744"	"18"
"06/09/2016 13:24:56.905"	"2177.4307797917927"	"32.258233774693231"	"1875.0098381540438"	"31.250163969234066"	"800.15217760344069"	" "	"2077"	" "	" "	"2864611328"	"47.253081354533897"	"310431744"	"18"
"06/09/2016 13:24:57.914"	"2319.7806188062636"	"34.69757335821334"	"1784.4466298509719"	"29.740777164182866"	"789.9677589064496"	" "	"2077"	" "	" "	"2864615424"	"34.077040580278222"	"310431744"	"18"
"06/09/2016 13:24:58.905"	"2163.5177576810206"	"32.291309816134635"	"1816.3861771575732"	"30.273102952626221"	"807.29259694524524"	" "	"2074"	" "	" "	"2864508928"	"25.227893654538914"	"310431744"	"18"
"06/09/2016 13:24:59.912"	"2091.6166858793076"	"30.788279801642226"	"1787.7065691276132"	"29.79510948546022"	"794.55207424771311"	" "	"2074"	" "	" "	"2864500736"	"21.726033280210906"	"310431744"	"18"
"06/09/2016 13:25:00.905"	"2493.970384354338"	"38.275797498168352"	"1813.0640920185008"	"30.217734866975015"	"805.76492573768292"	" "	"2074"	" "	" "	"2864594944"	"42.491509755698118"	"310431744"	"18"
"06/09/2016 13:25:01.910"	"2466.8697399404459"	"32.812052163657683"	"2111.9029938063309"	"31.817747552637755"	"795.4489976497465"	" "	"2074"	" "	" "	"2864594944"	"20.196947205950593"	"310431744"	"18"
"06/09/2016 13:25:02.901"	"2649.1315147371947"	"36.330946487824384"	"2143.5258427816389"	"32.294174655843896"	"802.67365959743609"	" "	"2074"	" "	" "	"2864578560"	"37.847088075321153"	"310431744"	"18"
"06/09/2016 13:25:03.910"	"2033.2068835309046"	"29.725246835247141"	"1783.5148101148286"	"29.725246835247141"	"784.87295498332833"	" "	"2077"	" "	" "	"2864447488"	"27.865312011242427"	"310431744"	"18"
"06/09/2016 13:25:04.900"	"2145.8064526018147"	"31.318267434395601"	"1818.4800445778092"	"30.308000742963486"	"806.69702886948596"	" "	"2079"	" "	" "	"2864529408"	"33.151932693266552"	"310431744"	"18"
"06/09/2016 13:25:05.910"	"2290.9637668161436"	"34.651569506726453"	"1782.0807174887891"	"29.701345291479821"	"788.94265496987089"	" "	"2079"	" "	" "	"2864533504"	"37.12671317505275"	"310431744"	"18"
"06/09/2016 13:25:06.904"	"2490.8157653878766"	"34.217267080075878"	"1811.5023748275466"	"30.191706247125776"	"803.5707096935223"	" "	"2079"	" "	" "	"2864533504"	"55.039089705035771"	"310431744"	"18"
"06/09/2016 13:25:07.913"	"2139.6472953935336"	"31.698478450274575"	"1783.0394128279447"	"29.717323547132413"	"784.68077291780446"	" "	"2079"	" "	" "	"2864537600"	"44.883121133365542"	"310431744"	"18"
"06/09/2016 13:25:08.905"	"2086.9692436572523"	"30.245931067496411"	"1814.7558640497846"	"30.245931067496411"	"804.94994755065864"	" "	"2079"	" "	" "	"2864533504"	"31.504890315094269"	"310431744"	"18"
"06/09/2016 13:25:09.912"	"2199.2358192362367"	"32.77993768509296"	"1787.9966010050705"	"29.799943350084508"	"791.59812772080033"	" "	"2079"	" "	" "	"2864533504"	"38.803829790235312"	"310431744"	"18"
"06/09/2016 13:25:10.905"	"2481.1738042160428"	"33.243497985842232"	"2139.6724158160273"	"32.236119258998528"	"804.31487004991573"	" "	"2080"	" "	" "	"2864578560"	"28.332030647550848"	"310431744"	"18"
"06/09/2016 13:25:11.911"	"2518.7036870360057"	"33.781430121981927"	"2110.3458111496948"	"31.79428717363005"	"793.30473900814343"	" "	"2080"	" "	" "	"2864578560"	"24.839287327065158"	"310431744"	"18"
"06/09/2016 13:25:12.903"	"2232.1547340588504"	"33.270599017137336"	"1814.7599463893091"	"30.245999106488487"	"795.54924947033112"	" "	"2080"	" "	" "	"2864578560"	"34.657591066034229"	"310431744"	"18"
"06/09/2016 13:25:13.912"	"2141.661878541041"	"31.728324126533941"	"1784.7182321175342"	"29.74530386862557"	"782.34093958347466"	" "	"2080"	" "	" "	"2864857088"	"34.082179546210781"	"310431744"	"18"
"06/09/2016 13:25:14.902"	"2235.5341488043018"	"33.320969697625095"	"1817.5074380522778"	"30.291790634204631"	"804.65399247222513"	" "	"2080"	" "	" "	"2864861184"	"17.355282190577405"	"310431744"	"18"
"06/09/2016 13:25:15.912"	"2103.4834711729936"	"30.700559136705653"	"1782.6131111635541"	"29.710218519392569"	"789.17697321477647"	" "	"2080"	" "	" "	"2864881664"	"51.064392384485537"	"310431744"	"18"
"06/09/2016 13:25:16.905"	"2119.5310730073643"	"31.199175338664904"	"1811.5650196644137"	"30.192750327740228"	"805.0742218051937"	" "	"2080"	" "	" "	"2865209344"	"34.59303296819192"	"310431744"	"18"
"06/09/2016 13:25:17.911"	"2095.0680330816253"	"30.839083108039119"	"1832.4384220970342"	"30.839083108039119"	"789.64479464161718"	" "	"2080"	" "	" "	"2865221632"	"31.088377741795952"	"310431744"	"18"
"06/09/2016 13:25:18.906"	"2080.2055452138929"	"30.147906452375263"	"1808.8743871425156"	"30.147906452375263"	"799.26293699237851"	" "	"2080"	" "	" "	"2865209344"	"21.983656420222591"	"310431744"	"18"
"06/09/2016 13:25:19.912"	"2500.1132903349348"	"33.771891883745639"	"2109.7499517963456"	"31.785310008231193"	"794.6574385747183"	" "	"2080"	" "	" "	"2865070080"	"24.833044955459947"	"310431744"	"18"
"06/09/2016 13:25:20.904"	"2645.6215003710449"	"36.282809147945763"	"2140.6857397287999"	"32.251385909285119"	"804.73771106616584"	" "	"2080"	" "	" "	"2865217536"	"37.795900324046933"	"310431744"	"18"
"06/09/2016 13:25:21.914"	"2033.5953260174474"	"29.730925818968529"	"1783.8555491381117"	"29.730925818968529"	"792.73741544216807"	" "	"2080"	" "	" "	"2864590848"	"21.676413703496785"	"310431744"	"18"
"06/09/2016 13:25:22.904"	"2198.0598784219169"	"32.294727323003372"	"1816.5784119189395"	"30.276306865315661"	"801.11763858679103"	" "	"2080"	" "	" "	"2864594944"	"28.38605806016189"	"310431744"	"18"
"06/09/2016 13:25:23.913"	"2088.1960944645257"	"30.73792921576462"	"1784.7829867218168"	"29.74638311203028"	"785.46190390165179"	" "	"2080"	" "	" "	"2864627712"	"30.98469048921703"	"310431744"	"18"
"06/09/2016 13:25:24.904"	"2125.9003405497447"	"31.292929989098806"	"1817.0088380767049"	"30.283480634611749"	"807.61989369703144"	" "	"2081"	" "	" "	"2864762880"	"31.54765209754029"	"310431744"	"18"
"06/09/2016 13:25:25.913"	"2104.5605036398752"	"30.716278537116825"	"1783.5258505422671"	"29.725430842371118"	"789.52726451281148"	" "	"2081"	" "	" "	"2864771072"	"46.442780265459497"	"310431744"	"18"
"06/09/2016 13:25:26.905"	"2232.5143162613344"	"33.275958643461621"	"1815.0522896433613"	"30.250871494056021"	"805.15279638295226"	" "	"2081"	" "	" "	"2864771072"	"47.269244406044173"	"310431744"	"18"
"06/09/2016 13:25:27.913"	"2141.232704491546"	"31.721965992467346"	"1784.3605870762883"	"29.739343117938137"	"797.68423129137739"	" "	"2082"	" "	" "	"2866597888"	"35.624732659614914"	"310431744"	"18"
"06/09/2016 13:25:28.914"	"2872.1377194664574"	"35.976672895195712"	"2446.4137568733081"	"33.977968845462613"	"790.11166445160586"	" "	"2078"	" "	" "	"2864627712"	"29.668224554506939"	"310431744"	"18"
"06/09/2016 13:25:29.906"	"2141.4841792640309"	"31.255183407337555"	"1814.8171010712128"	"30.246951684520212"	"805.0241269039152"	" "	"2078"	" "	" "	"2864644096"	"48.837080105716964"	"310431744"	"18"
"06/09/2016 13:25:30.914"	"2406.2027906198264"	"35.720948644253092"	"1935.8769668038274"	"30.75970577699572"	"793.77458468721511"	" "	"2078"	" "	" "	"2864656384"	"31.006819714344342"	"310431744"	"18"
"06/09/2016 13:25:31.906"	"2285.9681096098911"	"34.269363195210012"	"1814.2604044522946"	"30.237673407538242"	"804.75555538980984"	" "	"2078"	" "	" "	"2864648192"	"28.347553810208563"	"310431744"	"18"
"06/09/2016 13:25:32.912"	"2057.086963809943"	"29.812854547970186"	"1788.7712728782112"	"29.812854547970186"	"791.91090648271313"	" "	"2078"	" "	" "	"2864631808"	"27.949796699389871"	"310431744"	"18"
"06/09/2016 13:25:33.903"	"2125.2675298263848"	"31.283615111404526"	"1816.4679742105852"	"30.274466236843089"	"794.66573937163582"	" "	"2081"	" "	" "	"2864766976"	"22.074048315878773"	"310431744"	"18"
"06/09/2016 13:25:34.909"	"2093.0638074798858"	"30.809581211717219"	"1788.9434251964838"	"29.815723753274728"	"795.0951376056247"	" "	"2081"	" "	" "	"2865504256"	"18.63504228763183"	"310431744"	"18"
"06/09/2016 13:25:35.915"	"2137.0450739376411"	"31.821983418336213"	"1897.3857613182968"	"31.821983418336213"	"795.5549164597727"	" "	"2080"	" "	" "	"2865414144"	"24.861091139367897"	"310349824"	"17"
"06/09/2016 13:25:36.905"	"2517.1547976874967"	"34.329427645958638"	"1817.4402871389868"	"30.290671452316445"	"804.62238711659086"	" "	"2073"	" "	" "	"2847825920"	"33.131510057741977"	"310349824"	"17"
"06/09/2016 13:25:37.915"	"2900.871125447306"	"36.657182937687949"	"2425.3184819313542"	"33.684978915713252"	"794.12457044826738"	" "	"2073"	" "	" "	"2847825920"	"40.248028911608095"	"310349824"	"17"
"06/09/2016 13:25:38.910"	"2386.2182052694347"	"36.154821291961134"	"1807.7410645980565"	"30.129017743300942"	"795.56371328644502"	" "	"2073"	" "	" "	"2847830016"	"42.367298340698255"	"310349824"	"17"
"06/09/2016 13:25:39.900"	"2254.0900964237235"	"33.326600887985158"	"1817.8145938900996"	"30.296909898168327"	"807.9437840794476"	" "	"2078"	" "	" "	"2858356736"	"37.872364878724099"	"310349824"	"17"
"06/09/2016 13:25:40.909"	"2249.7842050303202"	"33.726923708567412"	"1785.5430198653335"	"29.75905033108889"	"788.93076018776515"	" "	"2073"	" "	" "	"2847813632"	"29.449281814474531"	"310349824"	"17"
"06/09/2016 13:25:41.901"	"2285.88174528321"	"34.268068491899975"	"1814.191861335881"	"30.236531022264682"	"804.73592667732544"	" "	"2073"	" "	" "	"2850246656"	"33.071339452492829"	"310349824"	"17"
"06/09/2016 13:25:42.909"	"2196.5086352612625"	"32.739288601455129"	"1785.7793782611889"	"29.762989637686481"	"792.12639140178464"	" "	"2073"	" "	" "	"2850254848"	"43.404185830234773"	"310349824"	"17"
"06/09/2016 13:25:43.905"	"2186.9883573426082"	"32.132060346631526"	"1807.4283944980232"	"30.123806574967055"	"789.15377512590317"	" "	"2073"	" "	" "	"2850275328"	"32.946777887960174"	"310349824"	"17"
"06/09/2016 13:25:44.911"	"2093.1993456993437"	"30.811576313713037"	"1789.0592698284988"	"29.817654497141646"	"790.52578730528774"	" "	"2073"	" "	" "	"2850254848"	"26.402629438487018"	"310349824"	"17"
"06/09/2016 13:25:45.904"	"2119.3159634045955"	"31.196008957997375"	"1811.3811653030732"	"30.189686088384555"	"801.8930058627875"	" "	"2073"	" "	" "	"2850254848"	"47.170176815458092"	"310349824"	"17"
"06/09/2016 13:25:46.911"	"2927.8534304059863"	"36.772089927026983"	"2432.920976793569"	"33.790569122132901"	"791.98717196947314"	" "	"2073"	" "	" "	"2850254848"	"38.822900586738882"	"310349824"	"17"
"06/09/2016 13:25:47.904"	"2065.2573976030885"	"30.193821602384336"	"1811.6292961430602"	"30.193821602384336"	"800.41377712575559"	" "	"2073"	" "	" "	"2850250752"	"34.595487419973722"	"310349824"	"17"
"06/09/2016 13:25:48.911"	"2037.9367154749134"	"29.794396425071831"	"1787.66378550431"	"29.794396425071831"	"794.52114111509843"	" "	"2073"	" "	" "	"2850263040"	"17.069790141144694"	"310349824"	"17"
"06/09/2016 13:25:49.901"	"2291.7673565627456"	"34.356300759758973"	"1818.8629813990044"	"30.31438302331674"	"806.81261838514706"	" "	"2073"	" "	" "	"2850250752"	"31.57779328317601"	"310349824"	"17"
"06/09/2016 13:25:50.908"	"2109.1217175331512"	"30.782849926331302"	"1787.3912860450432"	"29.789854767417388"	"791.27129581020176"	" "	"2073"	" "	" "	"2850258944"	"29.478734549791831"	"310349824"	"17"
"06/09/2016 13:25:51.915"	"2091.0837962835785"	"30.780435747763974"	"1787.2511079346823"	"29.787518465578039"	"797.51440639953864"	" "	"2073"	" "	" "	"2851807232"	"26.376935620218202"	"310349824"	"17"
"06/09/2016 13:25:52.908"	"2228.9968003090967"	"33.223529543902529"	"1812.1925205765015"	"30.203208676275025"	"799.05516697006431"	" "	"2073"	" "	" "	"2851766272"	"42.469467535810509"	"310349824"	"17"
"06/09/2016 13:25:53.900"	"2305.7721367546756"	"34.294073775003923"	"1815.5686116178549"	"30.259476860297582"	"797.45464078003238"	" "	"2074"	" "	" "	"2851639296"	"34.671940903479673"	"310349824"	"17"
"06/09/2016 13:25:54.906"	"2091.8456801177263"	"30.791650562036804"	"1787.9022906989112"	"29.798371511648519"	"794.63423234608308"	" "	"2075"	" "	" "	"2853744640"	"21.728279790713209"	"310349824"	"17"
"06/09/2016 13:25:55.913"	"2855.5788590179982"	"35.769255019014587"	"2432.309341292992"	"33.782074184624889"	"794.87370053053837"	" "	"2075"	" "	" "	"2853740544"	"18.629852356184497"	"310349824"	"17"
"06/09/2016 13:25:56.904"	"2234.1399071290521"	"33.300188317641698"	"1876.9197051761682"	"31.281995086269472"	"807.31834075898018"	" "	"2075"	" "	" "	"2853662720"	"39.41984085737208"	"310349824"	"17"
"06/09/2016 13:25:57.914"	"2049.7152084712343"	"29.706017514075864"	"1782.3610508445518"	"29.706017514075864"	"792.18289760303287"	" "	"2075"	" "	" "	"2853662720"	"52.605895543951398"	"310349824"	"17"
"06/09/2016 13:25:58.902"	"2186.209140526058"	"32.388283563349006"	"1882.5689821196611"	"31.37614970199435"	"797.03815560816281"	" "	"2072"	" "	" "	"2853556224"	"42.698472621865868"	"310349824"	"17"
"06/09/2016 13:25:59.912"	"2122.788381082742"	"31.683408672876745"	"1782.191737849317"	"29.703195630821948"	"792.03897861425457"	" "	"2072"	" "	" "	"2853556224"	"52.596338423602838"	"310349824"	"17"
"06/09/2016 13:26:00.902"	"2199.0046577806293"	"32.308608378778757"	"1817.3592213063052"	"30.289320355105087"	"806.17687865275423"	" "	"2072"	" "	" "	"2853638144"	"23.664683326401789"	"310349824"	"17"
"06/09/2016 13:26:01.912"	"2188.1430315562593"	"31.697861932910957"	"1783.0047337262413"	"29.71674556210402"	"790.87648355427609"	" "	"2072"	" "	" "	"2853634048"	"24.763255845143672"	"310349824"	"17"
"06/09/2016 13:26:02.902"	"2348.8563402191239"	"33.324273098551629"	"2258.9817854987878"	"34.334099556083494"	"807.83233843731898"	" "	"2072"	" "	" "	"2853629952"	"18.933570432124665"	"310349824"	"17"
"06/09/2016 13:26:03.909"	"2446.562335187522"	"32.779763321635492"	"2282.6635185793443"	"32.779763321635492"	"788.47290851787159"	" "	"2075"	" "	" "	"2854043648"	"18.625344295697754"	"310349824"	"17"
"06/09/2016 13:26:04.915"	"2511.5167829258644"	"33.791678124051991"	"2110.986009867248"	"31.803932352048935"	"796.64346559300293"	" "	"2076"	" "	" "	"2856230912"	"17.082023628699865"	"310349824"	"17"
"06/09/2016 13:26:05.905"	"2126.0305873851926"	"31.294847202726007"	"1817.1201601582843"	"30.285336002638072"	"806.08759369924337"	" "	"2076"	" "	" "	"2856230912"	"20.507120779041415"	"310349824"	"17"
"06/09/2016 13:26:06.914"	"2292.2645180321142"	"30.722092546042173"	"1783.8634381572874"	"29.731057302621458"	"794.33728746692952"	" "	"2076"	" "	" "	"2855337984"	"18.580989180512972"	"310349824"	"17"
"06/09/2016 13:26:07.905"	"2143.7903766726868"	"31.288842597388559"	"1816.7715056548195"	"30.279525094246992"	"802.72502341118366"	" "	"2076"	" "	" "	"2855333888"	"29.964195372912549"	"310349824"	"17"
"06/09/2016 13:26:08.912"	"2039.1630794173366"	"29.812325722475681"	"1788.7395433485408"	"29.812325722475681"	"790.33646259783779"	" "	"2076"	" "	" "	"2855333888"	"20.18541063609409"	"310349824"	"17"
"06/09/2016 13:26:09.902"	"2234.8604675675674"	"33.310928378378378"	"1816.9597297297298"	"30.282662162162161"	"805.97603565428528"	" "	"2077"	" "	" "	"2857447424"	"41.008565414895138"	"310349824"	"17"
"06/09/2016 13:26:10.912"	"2139.2936201470252"	"31.693238816992967"	"1782.7446834558543"	"29.712411390930907"	"792.33659964192327"	" "	"2077"	" "	" "	"2858762240"	"32.498180844688257"	"310349824"	"17"
"06/09/2016 13:26:11.906"	"2191.7574305600151"	"32.20212937461914"	"1811.3697773223266"	"30.189496288705442"	"805.03047442860952"	" "	"2077"	" "	" "	"2858758144"	"44.025104070314583"	"310349824"	"17"
"06/09/2016 13:26:12.914"	"2549.3992696149921"	"34.705941048823313"	"2106.1548225057345"	"31.731146101781313"	"794.85117411139049"	" "	"2077"	" "	" "	"2857439232"	"34.087184854679514"	"310349824"	"17"
"06/09/2016 13:26:13.907"	"2589.053569623029"	"35.245770103775193"	"2138.9147342976717"	"32.224704094880174"	"788.28604296795231"	" "	"2077"	" "	" "	"2857521152"	"40.909056122089339"	"310349824"	"17"
"06/09/2016 13:26:14.913"	"2110.8371570953982"	"30.807886944424361"	"1788.8450483859306"	"29.814084139765512"	"793.470454303108"	" "	"2077"	" "	" "	"2857521152"	"23.291696310267358"	"310349824"	"17"
"06/09/2016 13:26:15.904"	"2071.7241732902862"	"30.288365106583129"	"1817.3019063949878"	"30.288365106583129"	"807.69336002356033"	" "	"2077"	" "	" "	"2857517056"	"22.08536531314423"	"310349824"	"17"
"06/09/2016 13:26:16.910"	"2146.6007304077111"	"31.801492302336463"	"1788.833942006426"	"29.813899033440432"	"793.47321418278682"	" "	"2077"	" "	" "	"2857451520"	"37.266843718956721"	"310349824"	"17"
"06/09/2016 13:26:17.901"	"2070.5748811021544"	"30.271562589212785"	"1816.293755352767"	"30.271562589212785"	"807.25154058911187"	" "	"2077"	" "	" "	"2857451520"	"20.496621147770423"	"310349824"	"17"
"06/09/2016 13:26:18.907"	"2111.1573569702855"	"30.812560294764054"	"1789.1164042121063"	"29.818606736868439"	"789.02100262079227"	" "	"2077"	" "	" "	"2858770432"	"29.510628050777665"	"310349824"	"17"
"06/09/2016 13:26:19.900"	"2065.9551635831035"	"30.204022859402098"	"1812.2413715641258"	"30.204022859402098"	"802.21139039001343"	" "	"2077"	" "	" "	"2858778624"	"40.897051274784992"	"310349824"	"17"
"06/09/2016 13:26:20.907"	"2200.3861845021725"	"32.782277240890153"	"1853.6887676212432"	"30.795472559624084"	"793.25201160016968"	" "	"2077"	" "	" "	"2858770432"	"40.361159102944058"	"310349824"	"17"
"06/09/2016 13:26:21.901"	"2605.9737625436765"	"35.229463765557618"	"2137.9251725155536"	"32.209795442795539"	"803.62991359773764"	" "	"2077"	" "	" "	"2858766336"	"40.889193255462189"	"310349824"	"17"
"06/09/2016 13:26:22.909"	"2495.2754895424628"	"33.70654217101459"	"2105.6675168010293"	"31.723804396249029"	"791.58812542711678"	" "	"2077"	" "	" "	"2858766336"	"41.825595668360378"	"310349824"	"17"
"06/09/2016 13:26:23.902"	"2121.5443673134341"	"31.22881072493659"	"1813.2857840285762"	"30.221429733809604"	"796.37610971390995"	" "	"2077"	" "	" "	"2859237376"	"20.460255783163696"	"310349824"	"17"
"06/09/2016 13:26:24.908"	"2093.0721620679469"	"30.809704189984025"	"1788.9505658700402"	"29.815842764500669"	"792.01810736023481"	" "	"2077"	" "	" "	"2858393600"	"18.635720173181998"	"310349824"	"17"
"06/09/2016 13:26:25.901"	"2193.3806605509699"	"32.225978483760805"	"1812.7112897115453"	"30.211854828525755"	"802.50562018288929"	" "	"2077"	" "	" "	"2858901504"	"40.912051225010039"	"310349824"	"17"
"06/09/2016 13:26:26.910"	"2194.9654867608997"	"32.716287743048639"	"1784.5247859844712"	"29.742079766407855"	"790.07952599690066"	" "	"2077"	" "	" "	"2858655744"	"34.081861905748653"	"310349824"	"17"
"06/09/2016 13:26:27.903"	"2564.9250115671589"	"37.245771361061571"	"1811.9564445921847"	"30.199274076536408"	"800.48571900765887"	" "	"2077"	" "	" "	"2858336256"	"42.461914367793305"	"310349824"	"17"
"06/09/2016 13:26:28.909"	"2551.8238146843432"	"36.795588910101593"	"1790.0556767076453"	"29.834261278460755"	"789.40401513507538"	" "	"2074"	" "	" "	"2856857600"	"31.078898233664383"	"310349824"	"17"
"06/09/2016 13:26:29.915"	"2238.2335051226328"	"32.798270723377833"	"1788.9965849115181"	"29.816609748525302"	"795.09482151761142"	" "	"2074"	" "	" "	"2857230336"	"43.481748051744376"	"310349824"	"17"
"06/09/2016 13:26:30.906"	"3062.4479024687112"	"39.339745782700838"	"2469.3255814372219"	"34.296188631072525"	"802.2415404086637"	" "	"2074"	" "	" "	"2857213952"	"31.522260919790323"	"310349824"	"17"
"06/09/2016 13:26:31.912"	"2146.9844426840164"	"31.807176928652094"	"1789.1537022366801"	"29.819228370611338"	"795.21993298284008"	" "	"2074"	" "	" "	"2857213952"	"32.616442563749303"	"310349824"	"17"
"06/09/2016 13:26:32.905"	"1987.9061000583756"	"29.204294276440169"	"1691.8349787730856"	"28.197249646218093"	"805.58577061629921"	" "	"2074"	" "	" "	"2857213952"	"39.335242705873988"	"310349824"	"17"
"06/09/2016 13:26:33.912"	"2510.1677709284622"	"37.761827116105138"	"1967.5899392075833"	"32.793165653459724"	"785.65533716476432"	" "	"2077"	" "	" "	"2857480192"	"37.264284766708187"	"310349824"	"17"
"06/09/2016 13:26:34.901"	"2128.00251877243"	"31.323873733117438"	"1879.4324239870461"	"31.323873733117438"	"806.80210146717104"	" "	"2077"	" "	" "	"2858029056"	"36.31398891143823"	"310349824"	"17"
"06/09/2016 13:26:35.908"	"2217.1678738671967"	"32.780707812552642"	"1788.0386079574168"	"29.800643465956945"	"791.64554784007805"	" "	"2077"	" "	" "	"2858037248"	"40.358400478121624"	"310349824"	"17"
"06/09/2016 13:26:36.902"	"2554.8805215834122"	"35.218912270744163"	"1811.2583453525569"	"30.187639089209281"	"801.82603521967087"	" "	"2078"	" "	" "	"2857988096"	"42.449613629276698"	"310349824"	"17"
"06/09/2016 13:26:37.911"	"2032.3828340361551"	"29.713199328013964"	"1782.7919596808379"	"29.713199328013964"	"792.33730591450092"	" "	"2081"	" "	" "	"2859466752"	"24.760540809828154"	"310349824"	"17"
"06/09/2016 13:26:38.902"	"2125.8342655367614"	"31.291957374947579"	"1816.9523637066336"	"30.282539395110557"	"801.23020507152717"	" "	"2081"	" "	" "	"2859487232"	"20.503922570728061"	"310349824"	"17"
"06/09/2016 13:26:39.911"	"2920.1296381321408"	"36.675083710417248"	"2426.5028357594979"	"33.701428274437475"	"788.32986819248504"	" "	"2085"	" "	" "	"2867527680"	"44.914668325308575"	"310349824"	"17"
