"(PDH-TSV 4.0) (Rom, sommertid)(-120)"	"\\AM-WORK\Netværkskort(Broadcom 802.11 netværksadapter)\Afsendte byte pr. sekund"	"\\AM-WORK\Netværkskort(Broadcom 802.11 netværksadapter)\Afsendte pakker pr. sekund"	"\\AM-WORK\Netværkskort(Broadcom 802.11 netværksadapter)\Modtagne byte pr. sekund"	"\\AM-WORK\Netværkskort(Broadcom 802.11 netværksadapter)\Modtagne pakker pr. sekund"	"\\AM-WORK\Proces(_Total)\% Processortid"	"\\AM-WORK\Proces(WaterGun)\% Processortid"	"\\AM-WORK\Proces(_Total)\Antal tråde"	"\\AM-WORK\Proces(WaterGun)\Antal tråde"	"\\AM-WORK\Proces(WaterGun)\Private byte"	"\\AM-WORK\Proces(_Total)\Private byte"	"\\AM-WORK\Proces(Gang Garrison 2)\% Processortid"	"\\AM-WORK\Proces(Gang Garrison 2)\Private byte"	"\\AM-WORK\Proces(Gang Garrison 2)\Antal tråde"
"06/09/2016 13:32:33.152"	" "	" "	" "	" "	" "	" "	"2034"	" "	" "	"2522435584"	" "	" "	" "
"06/09/2016 13:32:34.156"	"416.06857506579729"	"3.0369968982904911"	"327.99566501537305"	"2.0246645988603276"	"788.68784798361946"	" "	"2035"	" "	" "	"2522529792"	" "	" "	" "
"06/09/2016 13:32:35.168"	"0"	"0"	"0"	"0"	"802.39931715571208"	" "	"2035"	" "	" "	"2521235456"	" "	" "	" "
"06/09/2016 13:32:36.159"	"0"	"0"	"0"	"0"	"794.83248867452016"	" "	"2035"	" "	" "	"2521149440"	" "	" "	" "
"06/09/2016 13:32:37.160"	"0"	"0"	"0"	"0"	"799.37257246786999"	" "	"2035"	" "	" "	"2521165824"	" "	" "	" "
"06/09/2016 13:32:38.165"	"0"	"0"	"0"	"0"	"792.99724347938582"	" "	"2035"	" "	" "	"2522386432"	" "	" "	" "
"06/09/2016 13:32:39.175"	"0"	"0"	"0"	"0"	"804.20781323770609"	" "	"2035"	" "	" "	"2522378240"	" "	" "	" "
"06/09/2016 13:32:40.159"	"0"	"0"	"0"	"0"	"798.63167054006738"	" "	"2037"	" "	" "	"2526527488"	" "	" "	" "
"06/09/2016 13:32:41.158"	"0"	"0"	"0"	"0"	"801.38607735940082"	" "	"2037"	" "	" "	"2526556160"	" "	" "	" "
"06/09/2016 13:32:42.160"	"410.13029391241542"	"2.9936517803825944"	"323.31439228132018"	"1.9957678535883963"	"798.31459822023737"	" "	"2037"	" "	" "	"2526552064"	" "	" "	" "
"06/09/2016 13:32:43.164"	"409.3002724618849"	"2.987593229648795"	"322.66006880206987"	"1.9917288197658634"	"792.00690079813876"	" "	"2037"	" "	" "	"2526236672"	" "	" "	" "
"06/09/2016 13:32:44.175"	"0"	"0"	"0"	"0"	"800.32183938506"	" "	"2037"	" "	" "	"2526359552"	" "	" "	" "
"06/09/2016 13:32:45.172"	"0"	"0"	"0"	"0"	"802.17751085321106"	" "	"2037"	" "	" "	"2526281728"	" "	" "	" "
"06/09/2016 13:32:46.157"	"0"	"0"	"0"	"0"	"800.22046454855683"	" "	"2037"	" "	" "	"2526277632"	" "	" "	" "
"06/09/2016 13:32:47.162"	"0"	"0"	"0"	"0"	"795.24823275961478"	" "	"2037"	" "	" "	"2526265344"	" "	" "	" "
"06/09/2016 13:32:48.166"	"0"	"0"	"0"	"0"	"807.74569289452722"	" "	"2037"	" "	" "	"2526281728"	" "	" "	" "
"06/09/2016 13:32:49.164"	"0"	"0"	"0"	"0"	"789.42303451207135"	" "	"2037"	" "	" "	"2526298112"	" "	" "	" "
"06/09/2016 13:32:50.166"	"0"	"0"	"0"	"0"	"807.92066201630439"	" "	"2037"	" "	" "	"2526281728"	" "	" "	" "
"06/09/2016 13:32:51.159"	"414.03265673276235"	"3.022136180531112"	"326.3907074973601"	"2.014757453687408"	"793.29398125086186"	" "	"2037"	" "	" "	"2526281728"	" "	" "	" "
"06/09/2016 13:32:52.167"	"407.58766824299744"	"2.9750924689269884"	"321.30998664411476"	"1.983394979284659"	"805.74064175630633"	" "	"2037"	" "	" "	"2526281728"	" "	" "	" "
"06/09/2016 13:32:53.157"	"0"	"0"	"0"	"0"	"790.9389228691266"	" "	"2037"	" "	" "	"2526281728"	" "	" "	" "
"06/09/2016 13:32:54.157"	"0"	"0"	"0"	"0"	"788.72066846228847"	" "	"2037"	" "	" "	"2526326784"	" "	" "	" "
"06/09/2016 13:32:55.174"	"0"	"0"	"0"	"0"	"798.96599541722935"	" "	"2037"	" "	" "	"2526322688"	" "	" "	" "
"06/09/2016 13:32:56.153"	"0"	"0"	"0"	"0"	"804.32174585720679"	" "	"2037"	" "	" "	"2525868032"	" "	" "	" "
"06/09/2016 13:32:57.159"	"0"	"0"	"59.61976029716093"	"0.99366267161934885"	"794.92377575279784"	" "	"2034"	" "	" "	"2525569024"	" "	" "	" "
"06/09/2016 13:32:58.165"	"0"	"0"	"0"	"0"	"792.61784953017343"	" "	"2034"	" "	" "	"2525560832"	" "	" "	" "
"06/09/2016 13:32:59.174"	"0"	"0"	"0"	"0"	"805.06905163955662"	" "	"2037"	" "	" "	"2525671424"	" "	" "	" "
"06/09/2016 13:33:00.170"	"825.59354650467048"	"6.026230266457449"	"650.83286877740443"	"4.0174868443049654"	"803.50174093717828"	" "	"2037"	" "	" "	"2525761536"	" "	" "	" "
"06/09/2016 13:33:01.156"	"46.660580882060046"	"1.014360453957827"	"0"	"0"	"794.04900810884749"	" "	"2037"	" "	" "	"2525749248"	" "	" "	" "
"06/09/2016 13:33:02.165"	"0"	"0"	"0"	"0"	"803.05638494380003"	" "	"2037"	" "	" "	"2526126080"	" "	" "	" "
"06/09/2016 13:33:03.152"	"46.611420551095584"	"1.0132917511107735"	"60.797505066646409"	"1.0132917511107735"	"793.29204659391496"	" "	"2038"	" "	" "	"2527539200"	" "	" "	" "
"06/09/2016 13:33:04.166"	"45.393775177863382"	"0.98682119951876923"	"0"	"0"	"794.00158842253302"	" "	"2038"	" "	" "	"2527342592"	" "	" "	" "
"06/09/2016 13:33:05.155"	"0"	"0"	"0"	"0"	"793.02820657890641"	" "	"2037"	" "	" "	"2527174656"	" "	" "	" "
"06/09/2016 13:33:06.164"	"0"	"0"	"0"	"0"	"790.72892096815769"	" "	"2037"	" "	" "	"2527543296"	" "	" "	" "
"06/09/2016 13:33:07.165"	"0"	"0"	"0"	"0"	"801.18281946185698"	" "	"2036"	" "	" "	"2527453184"	" "	" "	" "
"06/09/2016 13:33:08.162"	"0"	"0"	"0"	"0"	"795.86030317991185"	" "	"2032"	" "	" "	"2525917184"	" "	" "	" "
"06/09/2016 13:33:09.163"	"821.49520714054449"	"5.9963153805879159"	"647.60206110349498"	"3.9975435870586109"	"799.49623742080109"	" "	"2031"	" "	" "	"2525843456"	" "	" "	" "
"06/09/2016 13:33:10.167"	"0"	"0"	"0"	"0"	"809.44918601789857"	" "	"2026"	" "	" "	"2525450240"	" "	" "	" "
"06/09/2016 13:33:11.158"	"0"	"0"	"0"	"0"	"791.38437050802656"	" "	"2025"	" "	" "	"2525380608"	" "	" "	" "
"06/09/2016 13:33:12.166"	"0"	"0"	"0"	"0"	"805.75598356872649"	" "	"2025"	" "	" "	"2525388800"	" "	" "	" "
"06/09/2016 13:33:13.159"	"3772.1042715911212"	"11.079612012684201"	"5541.8204812534977"	"10.072374556985638"	"793.21016130923294"	" "	"2027"	" "	" "	"2525843456"	" "	" "	" "
"06/09/2016 13:33:14.159"	"0"	"0"	"0"	"0"	"788.69015937575875"	" "	"2023"	" "	" "	"2525761536"	" "	" "	" "
"06/09/2016 13:33:15.171"	"0"	"0"	"0"	"0"	"802.87061075577844"	" "	"2021"	" "	" "	"2525655040"	" "	" "	" "
"06/09/2016 13:33:16.157"	"0"	"0"	"0"	"0"	"798.72455605874916"	" "	"2021"	" "	" "	"2525655040"	" "	" "	" "
"06/09/2016 13:33:17.166"	"0"	"0"	"0"	"0"	"805.51577546879776"	" "	"2019"	" "	" "	"2525364224"	" "	" "	" "
"06/09/2016 13:33:18.159"	"1042.9336011956771"	"9.0602339872211335"	"859.71553612076082"	"7.0468486567275477"	"792.77297086108842"	" "	"2019"	" "	" "	"2525372416"	" "	" "	" "
"06/09/2016 13:33:19.170"	"54.44152250204845"	"0.98984586367360816"	"65.329827002458131"	"0.98984586367360816"	"798.06149008102363"	" "	"2014"	" "	" "	"2512175104"	" "	" "	" "
"06/09/2016 13:33:20.167"	"0"	"0"	"0"	"0"	"800.86371662952922"	" "	"2014"	" "	" "	"2514280448"	" "	" "	" "
"06/09/2016 13:33:21.154"	"0"	"0"	"0"	"0"	"797.75659701652205"	" "	"2013"	" "	" "	"2512130048"	" "	" "	" "
"06/09/2016 13:33:22.156"	"0"	"0"	"0"	"0"	"797.07060362184882"	" "	"2012"	" "	" "	"2512064512"	" "	" "	" "
"06/09/2016 13:33:23.171"	"84.711438749118685"	"0.98501672964091491"	"76.831304911991367"	"0.98501672964091491"	"798.82247841018329"	" "	"2012"	" "	" "	"2512060416"	" "	" "	" "
"06/09/2016 13:33:24.163"	"108.87722044823296"	"2.0162448231154251"	"54.438610224116481"	"1.0081224115577125"	"787.56691672567331"	" "	"2012"	" "	" "	"2513432576"	" "	" "	" "
"06/09/2016 13:33:25.176"	"0"	"0"	"0"	"0"	"801.7562260441407"	" "	"2012"	" "	" "	"2513383424"	" "	" "	" "
"06/09/2016 13:33:26.168"	"0"	"0"	"0"	"0"	"806.72583462846444"	" "	"2012"	" "	" "	"2512060416"	" "	" "	" "
"06/09/2016 13:33:27.164"	"824.88554990018258"	"6.0210624080305299"	"650.27474006729722"	"4.0140416053536869"	"790.26022089955802"	" "	"2012"	" "	" "	"2512060416"	" "	" "	" "
"06/09/2016 13:33:28.166"	"85.856096634119979"	"0.99832670504790677"	"85.856096634119979"	"0.99832670504790677"	"811.14441545289515"	" "	"2012"	" "	" "	"2512056320"	" "	" "	" "
"06/09/2016 13:33:29.165"	"0"	"0"	"0"	"0"	"785.43982076501106"	" "	"2012"	" "	" "	"2512064512"	" "	" "	" "
"06/09/2016 13:33:30.173"	"0"	"0"	"0"	"0"	"805.67680371700112"	" "	"2013"	" "	" "	"2514190336"	" "	" "	" "
"06/09/2016 13:33:31.161"	"0"	"0"	"0"	"0"	"793.96924495916198"	" "	"2012"	" "	" "	"2514202624"	" "	" "	" "
"06/09/2016 13:33:32.174"	"0"	"0"	"0"	"0"	"801.99285106040236"	" "	"2012"	" "	" "	"2514206720"	" "	" "	" "
"06/09/2016 13:33:33.172"	"0"	"0"	"174.38301874556964"	"1.0022012571584462"	"801.65734639794323"	" "	"2012"	" "	" "	"2516197376"	" "	" "	" "
"06/09/2016 13:33:34.173"	"0"	"0"	"0"	"0"	"786.7396161609804"	" "	"2012"	" "	" "	"2516238336"	" "	" "	" "
"06/09/2016 13:33:35.168"	"412.89966677231803"	"3.0138661808198397"	"325.49754752854267"	"2.0092441205465597"	"803.64929106580064"	" "	"2012"	" "	" "	"2515472384"	" "	" "	" "
"06/09/2016 13:33:36.164"	"412.81324017042914"	"3.0132353297111618"	"325.42941560880547"	"2.0088235531407745"	"791.02361469164396"	" "	"2012"	" "	" "	"2515472384"	" "	" "	" "
"06/09/2016 13:33:37.164"	"0"	"0"	"0"	"0"	"799.94568368807757"	" "	"2012"	" "	" "	"2515394560"	" "	" "	" "
"06/09/2016 13:33:38.172"	"0"	"0"	"0"	"0"	"806.15027673030613"	" "	"2012"	" "	" "	"2515394560"	" "	" "	" "
"06/09/2016 13:33:39.158"	"0"	"0"	"0"	"0"	"794.01268411965498"	" "	"2012"	" "	" "	"2515386368"	" "	" "	" "
"06/09/2016 13:33:40.161"	"0"	"0"	"0"	"0"	"797.13501703527356"	" "	"2014"	" "	" "	"2519552000"	" "	" "	" "
"06/09/2016 13:33:41.162"	"0"	"0"	"0"	"0"	"798.24983146462273"	" "	"2014"	" "	" "	"2519552000"	" "	" "	" "
"06/09/2016 13:33:42.163"	"0"	"0"	"0"	"0"	"798.70793018134566"	" "	"2014"	" "	" "	"2519556096"	" "	" "	" "
"06/09/2016 13:33:43.178"	"0"	"0"	"0"	"0"	"800.81854003831518"	" "	"2014"	" "	" "	"2519560192"	" "	" "	" "
"06/09/2016 13:33:44.162"	"417.49062680467324"	"3.0473768379903157"	"329.11669850295408"	"2.0315845586602106"	"784.11376123079469"	" "	"2014"	" "	" "	"2519658496"	" "	" "	" "
"06/09/2016 13:33:45.176"	"405.23285810642244"	"2.957904073769507"	"319.45363996710677"	"1.9719360491796714"	"801.08944220314675"	" "	"2014"	" "	" "	"2519654400"	" "	" "	" "
"06/09/2016 13:33:46.163"	"0"	"0"	"0"	"0"	"798.15391812998269"	" "	"2014"	" "	" "	"2519662592"	" "	" "	" "
"06/09/2016 13:33:47.178"	"0"	"0"	"0"	"0"	"800.4650085957627"	" "	"2014"	" "	" "	"2519662592"	" "	" "	" "
"06/09/2016 13:33:48.177"	"0"	"0"	"0"	"0"	"800.56023205038878"	" "	"2014"	" "	" "	"2519658496"	" "	" "	" "
"06/09/2016 13:33:49.173"	"103.49764768342106"	"1.0048315309070006"	"151.7295611669571"	"1.0048315309070006"	"800.74049466394081"	" "	"2014"	" "	" "	"2519678976"	" "	" "	" "
"06/09/2016 13:33:50.162"	"0"	"0"	"0"	"0"	"797.1779307708332"	" "	"2014"	" "	" "	"2519678976"	" "	" "	" "
"06/09/2016 13:33:51.167"	"0"	"0"	"0"	"0"	"805.85590783607074"	" "	"2009"	" "	" "	"2520748032"	" "	" "	" "
"06/09/2016 13:33:52.158"	"0"	"0"	"0"	"0"	"783.43392057396215"	" "	"2004"	" "	" "	"2517311488"	" "	" "	" "
"06/09/2016 13:33:53.163"	"763.86420896118591"	"4.9730742770910537"	"644.51042631100063"	"3.9784594216728433"	"795.68943207070015"	" "	"2004"	" "	" "	"2517225472"	" "	" "	" "
"06/09/2016 13:33:54.179"	"53.177883607602695"	"0.98477562236301286"	"0"	"0"	"789.34151991787155"	" "	"2003"	" "	" "	"2517250048"	" "	" "	" "
"06/09/2016 13:33:55.169"	"0"	"0"	"0"	"0"	"807.62429640780817"	" "	"2003"	" "	" "	"2517233664"	" "	" "	" "
"06/09/2016 13:33:56.163"	"0"	"0"	"0"	"0"	"792.58139785794685"	" "	"2003"	" "	" "	"2517241856"	" "	" "	" "
"06/09/2016 13:33:57.171"	"0"	"0"	"59.526348224768768"	"0.9921058037461461"	"805.99993294080559"	" "	"2003"	" "	" "	"2517176320"	" "	" "	" "
"06/09/2016 13:33:58.157"	"0"	"0"	"0"	"0"	"798.48070667823913"	" "	"2003"	" "	" "	"2517176320"	" "	" "	" "
"06/09/2016 13:33:59.164"	"0"	"0"	"0"	"0"	"792.8561101271489"	" "	"2003"	" "	" "	"2517172224"	" "	" "	" "
"06/09/2016 13:34:00.151"	"0"	"0"	"42.569687479646554"	"1.0135639876106324"	"809.26867096533283"	" "	"2003"	" "	" "	"2517258240"	" "	" "	" "
"06/09/2016 13:34:01.167"	"0"	"0"	"41.324764119773455"	"0.98392295523270135"	"797.9550113518095"	" "	"2003"	" "	" "	"2518573056"	" "	" "	" "
"06/09/2016 13:34:02.152"	"881.84680627275327"	"7.1116677925222032"	"658.33724707919828"	"4.0638101671555447"	"800.05754318634422"	" "	"2003"	" "	" "	"2518581248"	" "	" "	" "
"06/09/2016 13:34:03.160"	"0"	"0"	"59.49094992593222"	"0.99151583209887029"	"793.2319860486358"	" "	"2003"	" "	" "	"2518573056"	" "	" "	" "
"06/09/2016 13:34:04.172"	"45.48162021974376"	"0.98873087434225571"	"0"	"0"	"787.89800528696242"	" "	"2004"	" "	" "	"2518691840"	" "	" "	" "
"06/09/2016 13:34:05.165"	"0"	"0"	"0"	"0"	"805.21302967542158"	" "	"2004"	" "	" "	"2518773760"	" "	" "	" "
"06/09/2016 13:34:06.160"	"46.234523558565627"	"1.0050983382296876"	"0"	"0"	"791.48409348135715"	" "	"2004"	" "	" "	"2517458944"	" "	" "	" "
"06/09/2016 13:34:07.169"	"0"	"0"	"0"	"0"	"804.96974948449736"	" "	"2004"	" "	" "	"2517454848"	" "	" "	" "
"06/09/2016 13:34:08.174"	"0"	"0"	"0"	"0"	"796.61296101236769"	" "	"2004"	" "	" "	"2517446656"	" "	" "	" "
"06/09/2016 13:34:09.172"	"0"	"0"	"0"	"0"	"797.78607169387442"	" "	"2004"	" "	" "	"2517073920"	" "	" "	" "
"06/09/2016 13:34:10.169"	"0"	"0"	"0"	"0"	"799.57203643610262"	" "	"2004"	" "	" "	"2517155840"	" "	" "	" "
"06/09/2016 13:34:11.153"	"835.36900865012831"	"6.0975840047454621"	"658.53907251250996"	"4.0650560031636411"	"800.24803116120108"	" "	"2004"	" "	" "	"2518753280"	" "	" "	" "
"06/09/2016 13:34:12.157"	"0"	"0"	"0"	"0"	"796.84703564934262"	" "	"2004"	" "	" "	"2518224896"	" "	" "	" "
"06/09/2016 13:34:13.163"	"107.32775184227786"	"1.9875509600421826"	"53.663875921138931"	"0.99377548002109128"	"791.93058141493577"	" "	"2003"	" "	" "	"2517966848"	" "	" "	" "
"06/09/2016 13:34:14.175"	"0"	"0"	"0"	"0"	"786.11456651449714"	" "	"2003"	" "	" "	"2518192128"	" "	" "	" "
"06/09/2016 13:34:15.164"	"0"	"0"	"0"	"0"	"796.05874600176332"	" "	"2003"	" "	" "	"2518196224"	" "	" "	" "
"06/09/2016 13:34:16.166"	"0"	"0"	"0"	"0"	"810.8431231621305"	" "	"2003"	" "	" "	"2516869120"	" "	" "	" "
"06/09/2016 13:34:17.159"	"0"	"0"	"0"	"0"	"793.24723486605149"	" "	"2003"	" "	" "	"2516688896"	" "	" "	" "
"06/09/2016 13:34:18.163"	"41.8211199101356"	"0.99574095024132381"	"41.8211199101356"	"0.99574095024132381"	"796.57861518989785"	" "	"2003"	" "	" "	"2516701184"	" "	" "	" "
"06/09/2016 13:34:19.170"	"0"	"0"	"0"	"0"	"803.70047281171287"	" "	"2003"	" "	" "	"2516697088"	" "	" "	" "
"06/09/2016 13:34:20.160"	"830.71860532028984"	"6.0636394548926269"	"654.87306112840372"	"4.0424263032617516"	"795.8455548261287"	" "	"2003"	" "	" "	"2516688896"	" "	" "	" "
"06/09/2016 13:34:21.168"	"0"	"0"	"0"	"0"	"805.75382609105259"	" "	"2013"	" "	" "	"2519797760"	" "	" "	" "
"06/09/2016 13:34:22.168"	"0"	"0"	"0"	"0"	"800.62913437379086"	" "	"2013"	" "	" "	"2519789568"	" "	" "	" "
"06/09/2016 13:34:23.152"	"0"	"0"	"0"	"0"	"800.21648015102403"	" "	"2013"	" "	" "	"2519789568"	" "	" "	" "
"06/09/2016 13:34:24.154"	"0"	"0"	"0"	"0"	"789.11605228482097"	" "	"2013"	" "	" "	"2519822336"	" "	" "	" "
"06/09/2016 13:34:25.166"	"0"	"0"	"0"	"0"	"799.43261643590984"	" "	"2010"	" "	" "	"2510819328"	" "	" "	" "
"06/09/2016 13:34:26.150"	"0"	"0"	"0"	"0"	"800.25852161002877"	" "	"2010"	" "	" "	"2510815232"	" "	" "	" "
"06/09/2016 13:34:27.157"	"0"	"0"	"0"	"0"	"792.73598425404805"	" "	"2010"	" "	" "	"2510684160"	" "	" "	" "
"06/09/2016 13:34:28.158"	"356.93628745956056"	"1.9996430670003393"	"323.94217685405499"	"1.9996430670003393"	"799.79765119424781"	" "	"2010"	" "	" "	"2510684160"	" "	" "	" "
"06/09/2016 13:34:29.167"	"460.62808495853125"	"3.9623921286755377"	"320.95376242271857"	"1.9811960643377688"	"804.97086599905106"	" "	"2011"	" "	" "	"2512117760"	" "	" "	" "
"06/09/2016 13:34:30.152"	"0"	"0"	"0"	"0"	"796.32747727008541"	" "	"2010"	" "	" "	"2510684160"	" "	" "	" "
"06/09/2016 13:34:31.161"	"0"	"0"	"0"	"0"	"789.70957021465733"	" "	"2010"	" "	" "	"2513321984"	" "	" "	" "
"06/09/2016 13:34:32.165"	"0"	"0"	"0"	"0"	"799.89135919133309"	" "	"2011"	" "	" "	"2513866752"	" "	" "	" "
"06/09/2016 13:34:33.153"	"234.69813353918801"	"2.0232597718895518"	"325.74482327421782"	"1.0116298859447759"	"796.67619609423298"	" "	"2011"	" "	" "	"2513862656"	" "	" "	" "
"06/09/2016 13:34:34.168"	"101.51821407742521"	"0.98561372890704102"	"148.82767306496319"	"0.98561372890704102"	"794.56261951700048"	" "	"2020"	" "	" "	"2562838528"	" "	" "	" "
"06/09/2016 13:34:35.152"	"0"	"0"	"0"	"0"	"763.75958786630736"	" "	"2017"	" "	" "	"2521985024"	" "	" "	" "
"06/09/2016 13:34:36.169"	"0"	"0"	"0"	"0"	"798.93543451222115"	" "	"2017"	" "	" "	"2520670208"	" "	" "	" "
"06/09/2016 13:34:37.174"	"409.1720779163083"	"2.9866575030387463"	"322.55901032818463"	"1.991105002025831"	"796.35040572560013"	" "	"2012"	" "	" "	"2520231936"	" "	" "	" "
"06/09/2016 13:34:38.170"	"412.63051250368494"	"3.0119015511217877"	"325.28536752115309"	"2.0079343674145251"	"803.2309160366658"	" "	"2012"	" "	" "	"2520240128"	" "	" "	" "
"06/09/2016 13:34:39.163"	"0"	"0"	"0"	"0"	"792.78470282905846"	" "	"2012"	" "	" "	"2520240128"	" "	" "	" "
"06/09/2016 13:34:40.164"	"0"	"0"	"0"	"0"	"797.96319067946013"	" "	"2019"	" "	" "	"2534912000"	" "	" "	" "
"06/09/2016 13:34:41.168"	"629.08297931691254"	"7.9630756875558557"	"230.92919493911981"	"1.9907689218889639"	"805.66082303970461"	" "	"2019"	" "	" "	"2536316928"	" "	" "	" "
"06/09/2016 13:34:42.160"	"292.30737018425458"	"4.0318257956448909"	"42.334170854271356"	"1.0079564489112227"	"793.74534714036986"	" "	"2019"	" "	" "	"2536292352"	" "	" "	" "
"06/09/2016 13:34:43.165"	"0"	"0"	"0"	"0"	"796.54252750511137"	" "	"2019"	" "	" "	"2536288256"	" "	" "	" "
"06/09/2016 13:34:44.175"	"0"	"0"	"0"	"0"	"799.49574550735974"	" "	"2019"	" "	" "	"2535833600"	" "	" "	" "
"06/09/2016 13:34:45.161"	"46.642698160530202"	"1.0139716991419609"	"0"	"0"	"793.79497094095655"	" "	"2019"	" "	" "	"2534445056"	" "	" "	" "
"06/09/2016 13:34:46.162"	"496.91728825810134"	"3.9993343119364293"	"401.9330983496111"	"2.9995007339523219"	"799.85546611727261"	" "	"2019"	" "	" "	"2533126144"	" "	" "	" "
"06/09/2016 13:34:47.177"	"404.7386899362977"	"2.9542970068342895"	"319.06407673810327"	"1.9695313378895265"	"800.13156624892417"	" "	"2018"	" "	" "	"2533068800"	" "	" "	" "
"06/09/2016 13:34:48.165"	"0"	"0"	"0"	"0"	"809.50930581541365"	" "	"2018"	" "	" "	"2533068800"	" "	" "	" "
"06/09/2016 13:34:49.153"	"0"	"0"	"0"	"0"	"797.26538479216526"	" "	"2018"	" "	" "	"2533072896"	" "	" "	" "
"06/09/2016 13:34:50.164"	"0"	"0"	"0"	"0"	"787.93243957034042"	" "	"2018"	" "	" "	"2533085184"	" "	" "	" "
"06/09/2016 13:34:51.168"	"0"	"0"	"0"	"0"	"808.22493547157035"	" "	"2017"	" "	" "	"2532986880"	" "	" "	" "
"06/09/2016 13:34:52.152"	"0"	"0"	"0"	"0"	"799.85520335518686"	" "	"2017"	" "	" "	"2532978688"	" "	" "	" "
"06/09/2016 13:34:53.158"	"0"	"0"	"0"	"0"	"795.51425422328577"	" "	"2017"	" "	" "	"2532978688"	" "	" "	" "
"06/09/2016 13:34:54.172"	"0"	"0"	"0"	"0"	"786.05782248740411"	" "	"2017"	" "	" "	"2533560320"	" "	" "	" "
"06/09/2016 13:34:55.156"	"835.3231711768907"	"6.0972494246488376"	"658.50293786207442"	"4.0648329497658917"	"797.07932858661059"	" "	"2017"	" "	" "	"2533556224"	" "	" "	" "
"06/09/2016 13:34:56.163"	"0"	"0"	"0"	"0"	"794.53936927677148"	" "	"2017"	" "	" "	"2533556224"	" "	" "	" "
"06/09/2016 13:34:57.175"	"0"	"0"	"59.254439950764905"	"0.98757399917941513"	"802.41873201841349"	" "	"2017"	" "	" "	"2533527552"	" "	" "	" "
"06/09/2016 13:34:58.164"	"46.542160444245184"	"1.0117860966140257"	"0"	"0"	"798.30592464022425"	" "	"2017"	" "	" "	"2533531648"	" "	" "	" "
"06/09/2016 13:34:59.159"	"0"	"0"	"0"	"0"	"802.18829179595036"	" "	"2017"	" "	" "	"2533531648"	" "	" "	" "
"06/09/2016 13:35:00.164"	"45.751328948553919"	"0.99459410757725919"	"0"	"0"	"790.89275402269493"	" "	"2017"	" "	" "	"2529923072"	" "	" "	" "
"06/09/2016 13:35:01.171"	"45.685470085470094"	"0.9931623931623933"	"59.589743589743598"	"0.9931623931623933"	"805.29160058827551"	" "	"2017"	" "	" "	"2531237888"	" "	" "	" "
"06/09/2016 13:35:02.159"	"0"	"0"	"0"	"0"	"797.30639021582044"	" "	"2016"	" "	" "	"2531160064"	" "	" "	" "
"06/09/2016 13:35:03.160"	"0"	"0"	"0"	"0"	"799.21325447229754"	" "	"2016"	" "	" "	"2531147776"	" "	" "	" "
"06/09/2016 13:35:04.171"	"813.07579078116078"	"5.9348597867238011"	"640.96485696617049"	"3.9565731911492006"	"791.3108529173702"	" "	"2016"	" "	" "	"2531172352"	" "	" "	" "
"06/09/2016 13:35:05.158"	"0"	"0"	"0"	"0"	"794.73202725235546"	" "	"2016"	" "	" "	"2531143680"	" "	" "	" "
"06/09/2016 13:35:06.158"	"0"	"0"	"0"	"0"	"799.94536373165715"	" "	"2016"	" "	" "	"2531139584"	" "	" "	" "
"06/09/2016 13:35:07.162"	"0"	"0"	"0"	"0"	"797.1722705220044"	" "	"2016"	" "	" "	"2531139584"	" "	" "	" "
"06/09/2016 13:35:08.170"	"0"	"0"	"0"	"0"	"805.71355529510492"	" "	"2016"	" "	" "	"2531139584"	" "	" "	" "
"06/09/2016 13:35:09.160"	"0"	"0"	"0"	"0"	"795.97369718815594"	" "	"2016"	" "	" "	"2531131392"	" "	" "	" "
"06/09/2016 13:35:10.171"	"0"	"0"	"0"	"0"	"798.45058702210713"	" "	"2017"	" "	" "	"2533183488"	" "	" "	" "
"06/09/2016 13:35:11.166"	"0"	"0"	"0"	"0"	"802.28187428519982"	" "	"2018"	" "	" "	"2533093376"	" "	" "	" "
"06/09/2016 13:35:12.172"	"0"	"0"	"0"	"0"	"795.60990411011085"	" "	"2018"	" "	" "	"2533101568"	" "	" "	" "
"06/09/2016 13:35:13.156"	"834.90291326823137"	"6.0941818486732222"	"658.17163965670795"	"4.0627878991154818"	"799.8838822534359"	" "	"2018"	" "	" "	"2533101568"	" "	" "	" "
"06/09/2016 13:35:14.161"	"0"	"0"	"0"	"0"	"787.17512629151486"	" "	"2018"	" "	" "	"2532966400"	" "	" "	" "
"06/09/2016 13:35:15.165"	"0"	"0"	"0"	"0"	"796.99119882619141"	" "	"2018"	" "	" "	"2532966400"	" "	" "	" "
"06/09/2016 13:35:16.157"	"0"	"0"	"0"	"0"	"802.73431833640097"	" "	"2018"	" "	" "	"2533105664"	" "	" "	" "
"06/09/2016 13:35:17.161"	"0"	"0"	"0"	"0"	"797.40595867583158"	" "	"2018"	" "	" "	"2533056512"	" "	" "	" "
"06/09/2016 13:35:18.161"	"102.97210781593238"	"0.9997292020964309"	"150.95910951656106"	"0.9997292020964309"	"798.19492856121019"	" "	"2018"	" "	" "	"2533076992"	" "	" "	" "
"06/09/2016 13:35:19.175"	"0"	"0"	"239.58727836620045"	"0.98595587805020768"	"801.13217477953094"	" "	"2018"	" "	" "	"2532802560"	" "	" "	" "
"06/09/2016 13:35:20.167"	"0"	"0"	"0"	"0"	"802.14039929282046"	" "	"2018"	" "	" "	"2532806656"	" "	" "	" "
"06/09/2016 13:35:21.162"	"0"	"0"	"0"	"0"	"789.40488200371317"	" "	"2018"	" "	" "	"2532810752"	" "	" "	" "
"06/09/2016 13:35:22.175"	"811.52403534162022"	"5.9235331046833597"	"639.74157530580283"	"3.9490220697889065"	"802.1521569600003"	" "	"2018"	" "	" "	"2532810752"	" "	" "	" "
"06/09/2016 13:35:23.159"	"42.682062140295237"	"1.0162395747689341"	"42.682062140295237"	"1.0162395747689341"	"800.24656739950956"	" "	"2018"	" "	" "	"2532802560"	" "	" "	" "
"06/09/2016 13:35:24.172"	"0"	"0"	"0"	"0"	"794.61040970618808"	" "	"2018"	" "	" "	"2532851712"	" "	" "	" "
"06/09/2016 13:35:25.167"	"0"	"0"	"0"	"0"	"802.38184869179906"	" "	"2018"	" "	" "	"2532794368"	" "	" "	" "
"06/09/2016 13:35:26.158"	"0"	"0"	"0"	"0"	"794.66750354825353"	" "	"2018"	" "	" "	"2532802560"	" "	" "	" "
"06/09/2016 13:35:27.163"	"0"	"0"	"0"	"0"	"795.81726404192204"	" "	"2018"	" "	" "	"2532786176"	" "	" "	" "
"06/09/2016 13:35:28.169"	"0"	"0"	"0"	"0"	"807.74601085312395"	" "	"2018"	" "	" "	"2532782080"	" "	" "	" "
"06/09/2016 13:35:29.175"	"0"	"0"	"0"	"0"	"795.45603693461476"	" "	"2018"	" "	" "	"2532782080"	" "	" "	" "
"06/09/2016 13:35:30.161"	"416.60758591865039"	"3.04093128407774"	"328.42057868039592"	"2.0272875227184932"	"793.500555735479"	" "	"2018"	" "	" "	"2532782080"	" "	" "	" "
"06/09/2016 13:35:31.171"	"407.24380456900599"	"2.9725825151022334"	"321.03891163104123"	"1.9817216767348222"	"803.48851864137953"	" "	"2010"	" "	" "	"2509885440"	" "	" "	" "
"06/09/2016 13:35:32.159"	"0"	"0"	"0"	"0"	"796.33936697340482"	" "	"2010"	" "	" "	"2509885440"	" "	" "	" "
"06/09/2016 13:35:33.160"	"0"	"0"	"0"	"0"	"798.38225194816516"	" "	"2009"	" "	" "	"2507771904"	" "	" "	" "
"06/09/2016 13:35:34.164"	"0"	"0"	"0"	"0"	"788.36024750643048"	" "	"2008"	" "	" "	"2507743232"	" "	" "	" "
"06/09/2016 13:35:35.168"	"0"	"0"	"0"	"0"	"804.87871707625709"	" "	"2010"	" "	" "	"2508984320"	" "	" "	" "
"06/09/2016 13:35:36.160"	"0"	"0"	"0"	"0"	"793.54514757974778"	" "	"2010"	" "	" "	"2508976128"	" "	" "	" "
"06/09/2016 13:35:37.165"	"0"	"0"	"0"	"0"	"808.69388224322233"	" "	"2010"	" "	" "	"2508951552"	" "	" "	" "
"06/09/2016 13:35:38.158"	"0"	"0"	"0"	"0"	"793.32570800415772"	" "	"2010"	" "	" "	"2508951552"	" "	" "	" "
"06/09/2016 13:35:39.159"	"410.31154460084906"	"2.9949747781083871"	"323.45727603570583"	"1.9966498520722582"	"798.65354998008854"	" "	"2010"	" "	" "	"2508947456"	" "	" "	" "
"06/09/2016 13:35:40.170"	"406.63535808421307"	"2.9681412998847669"	"320.55926038755479"	"1.9787608665898444"	"797.59639811896841"	" "	"2015"	" "	" "	"2519449600"	" "	" "	" "
"06/09/2016 13:35:41.163"	"0"	"0"	"0"	"0"	"791.8499266624176"	" "	"2015"	" "	" "	"2519441408"	" "	" "	" "
"06/09/2016 13:35:42.164"	"0"	"0"	"0"	"0"	"799.20574932631951"	" "	"2015"	" "	" "	"2519445504"	" "	" "	" "
"06/09/2016 13:35:43.177"	"0"	"0"	"0"	"0"	"802.02887145999262"	" "	"2015"	" "	" "	"2519445504"	" "	" "	" "
"06/09/2016 13:35:44.162"	"0"	"0"	"0"	"0"	"791.15882831527449"	" "	"2015"	" "	" "	"2519474176"	" "	" "	" "
"06/09/2016 13:35:45.163"	"0"	"0"	"0"	"0"	"798.11019500902671"	" "	"2015"	" "	" "	"2521489408"	" "	" "	" "
"06/09/2016 13:35:46.171"	"0"	"0"	"0"	"0"	"802.8683143202544"	" "	"2015"	" "	" "	"2521538560"	" "	" "	" "
"06/09/2016 13:35:47.164"	"0"	"0"	"0"	"0"	"794.8197770550986"	" "	"2015"	" "	" "	"2521546752"	" "	" "	" "
"06/09/2016 13:35:48.159"	"413.13340330904367"	"3.015572286927326"	"325.68180698815121"	"2.0103815246182175"	"802.57154603361926"	" "	"2015"	" "	" "	"2521542656"	" "	" "	" "
"06/09/2016 13:35:49.169"	"406.80095430838929"	"2.9693500314480969"	"320.68980339639444"	"1.9795666876320646"	"804.19857974076797"	" "	"2015"	" "	" "	"2521542656"	" "	" "	" "
"06/09/2016 13:35:50.153"	"0"	"0"	"0"	"0"	"800.21355286383482"	" "	"2015"	" "	" "	"2521546752"	" "	" "	" "
"06/09/2016 13:35:51.162"	"0"	"0"	"0"	"0"	"783.84264474779081"	" "	"2005"	" "	" "	"2518437888"	" "	" "	" "
"06/09/2016 13:35:52.165"	"0"	"0"	"0"	"0"	"809.6374458464652"	" "	"2005"	" "	" "	"2518429696"	" "	" "	" "
"06/09/2016 13:35:53.160"	"0"	"0"	"0"	"0"	"791.94335659082412"	" "	"2005"	" "	" "	"2518388736"	" "	" "	" "
"06/09/2016 13:35:54.155"	"0"	"0"	"0"	"0"	"796.17098227561962"	" "	"2005"	" "	" "	"2518536192"	" "	" "	" "
"06/09/2016 13:35:55.159"	"0"	"0"	"0"	"0"	"796.06996181252384"	" "	"2005"	" "	" "	"2518540288"	" "	" "	" "
"06/09/2016 13:35:56.160"	"0"	"0"	"0"	"0"	"796.77930680525265"	" "	"2005"	" "	" "	"2518532096"	" "	" "	" "
"06/09/2016 13:35:57.153"	"931.6289036446301"	"7.0501646762296337"	"865.15592241160789"	"6.042998293911114"	"805.53612759047826"	" "	"2005"	" "	" "	"2518515712"	" "	" "	" "
"06/09/2016 13:35:58.162"	"0"	"0"	"0"	"0"	"792.25256219430196"	" "	"2004"	" "	" "	"2518462464"	" "	" "	" "
"06/09/2016 13:35:59.167"	"0"	"0"	"0"	"0"	"808.84547437766673"	" "	"2004"	" "	" "	"2518466560"	" "	" "	" "
"06/09/2016 13:36:00.163"	"46.166998460684759"	"1.0036304013192339"	"0"	"0"	"791.91044754249708"	" "	"2004"	" "	" "	"2518532096"	" "	" "	" "
"06/09/2016 13:36:01.164"	"45.961994319524514"	"0.99917378955488079"	"0"	"0"	"797.77670155809938"	" "	"2004"	" "	" "	"2518503424"	" "	" "	" "
"06/09/2016 13:36:02.165"	"87.983823883062229"	"1.999632360978687"	"41.992279580552427"	"0.99981618048934351"	"796.6563974845302"	" "	"2004"	" "	" "	"2518503424"	" "	" "	" "
"06/09/2016 13:36:03.159"	"46.246989949074653"	"1.0053693467190143"	"0"	"0"	"802.78691924980342"	" "	"2004"	" "	" "	"2518495232"	" "	" "	" "
"06/09/2016 13:36:04.165"	"0"	"0"	"0"	"0"	"796.67133633059825"	" "	"2004"	" "	" "	"2518548480"	" "	" "	" "
"06/09/2016 13:36:05.158"	"0"	"0"	"0"	"0"	"793.35639826068075"	" "	"2004"	" "	" "	"2518630400"	" "	" "	" "
"06/09/2016 13:36:06.160"	"820.25803098933238"	"5.9872848977323532"	"646.62676895509424"	"3.9915232651549024"	"795.21110029374529"	" "	"2004"	" "	" "	"2518630400"	" "	" "	" "
"06/09/2016 13:36:07.153"	"0"	"0"	"0"	"0"	"805.83667503729509"	" "	"2004"	" "	" "	"2517598208"	" "	" "	" "
"06/09/2016 13:36:08.158"	"0"	"0"	"0"	"0"	"795.80879340863407"	" "	"2004"	" "	" "	"2517598208"	" "	" "	" "
"06/09/2016 13:36:09.165"	"0"	"0"	"0"	"0"	"806.63023246140165"	" "	"2004"	" "	" "	"2517598208"	" "	" "	" "
"06/09/2016 13:36:10.160"	"0"	"0"	"0"	"0"	"792.04140701956885"	" "	"2004"	" "	" "	"2517561344"	" "	" "	" "
"06/09/2016 13:36:11.172"	"0"	"0"	"0"	"0"	"798.18755536364745"	" "	"2004"	" "	" "	"2517561344"	" "	" "	" "
"06/09/2016 13:36:12.170"	"0"	"0"	"0"	"0"	"799.45856848366736"	" "	"2004"	" "	" "	"2529206272"	" "	" "	" "
"06/09/2016 13:36:13.159"	"0"	"0"	"0"	"0"	"796.16538442757121"	" "	"2004"	" "	" "	"2517032960"	" "	" "	" "
"06/09/2016 13:36:14.172"	"0"	"0"	"0"	"0"	"794.67201025317615"	" "	"2004"	" "	" "	"2517114880"	" "	" "	" "
"06/09/2016 13:36:15.156"	"835.31256487497978"	"6.097172006386713"	"658.49457668976504"	"4.0647813375911426"	"800.25055209666664"	" "	"2004"	" "	" "	"2517266432"	" "	" "	" "
"06/09/2016 13:36:16.162"	"0"	"0"	"0"	"0"	"792.30451219097517"	" "	"2004"	" "	" "	"2517274624"	" "	" "	" "
"06/09/2016 13:36:17.172"	"0"	"0"	"0"	"0"	"804.09201187779968"	" "	"2004"	" "	" "	"2517151744"	" "	" "	" "
"06/09/2016 13:36:18.163"	"0"	"0"	"0"	"0"	"795.17527026114158"	" "	"2004"	" "	" "	"2517147648"	" "	" "	" "
"06/09/2016 13:36:19.163"	"0"	"0"	"0"	"0"	"801.20356080475949"	" "	"2004"	" "	" "	"2518609920"	" "	" "	" "
"06/09/2016 13:36:20.155"	"0"	"0"	"0"	"0"	"804.69829413788091"	" "	"2004"	" "	" "	"2517291008"	" "	" "	" "
"06/09/2016 13:36:21.162"	"0"	"0"	"0"	"0"	"791.34492340625241"	" "	"2004"	" "	" "	"2517655552"	" "	" "	" "
"06/09/2016 13:36:22.172"	"0"	"0"	"0"	"0"	"801.98367783001527"	" "	"2004"	" "	" "	"2517655552"	" "	" "	" "
"06/09/2016 13:36:23.156"	"362.63274797392148"	"2.0315560110583837"	"329.11207379145816"	"2.0315560110583837"	"798.29421634538869"	" "	"2004"	" "	" "	"2517417984"	" "	" "	" "
"06/09/2016 13:36:24.168"	"459.40898443648217"	"3.9519052424643628"	"320.10432463961337"	"1.9759526212321814"	"794.94913461621104"	" "	"2004"	" "	" "	"2516840448"	" "	" "	" "
"06/09/2016 13:36:25.160"	"0"	"0"	"0"	"0"	"794.46034654208995"	" "	"2004"	" "	" "	"2516807680"	" "	" "	" "
"06/09/2016 13:36:26.170"	"0"	"0"	"0"	"0"	"799.33768209314394"	" "	"2004"	" "	" "	"2517319680"	" "	" "	" "
"06/09/2016 13:36:27.170"	"0"	"0"	"0"	"0"	"800.34566929456832"	" "	"2004"	" "	" "	"2517360640"	" "	" "	" "
"06/09/2016 13:36:28.159"	"0"	"0"	"0"	"0"	"795.73425810284823"	" "	"2004"	" "	" "	"2518507520"	" "	" "	" "
"06/09/2016 13:36:29.163"	"0"	"0"	"0"	"0"	"797.48791307381748"	" "	"2004"	" "	" "	"2517192704"	" "	" "	" "
"06/09/2016 13:36:30.175"	"177.75752284849153"	"1.9750835872054615"	"0"	"0"	"802.39852473229257"	" "	"2004"	" "	" "	"2517229568"	" "	" "	" "
"06/09/2016 13:36:31.170"	"774.01632987019627"	"10.052160128184367"	"267.38745940970415"	"3.0156480384553102"	"799.46909974338587"	" "	"2004"	" "	" "	"2517233664"	" "	" "	" "
"06/09/2016 13:36:32.163"	"599.16651388061291"	"5.0350127216858231"	"326.26882436524136"	"2.0140050886743293"	"781.91187188028175"	" "	"2007"	" "	" "	"2517336064"	" "	" "	" "
"06/09/2016 13:36:33.160"	"412.06467775656597"	"3.0077713704858828"	"324.83930801247539"	"2.0051809136572554"	"802.15490894739628"	" "	"2007"	" "	" "	"2517315584"	" "	" "	" "
"06/09/2016 13:36:34.164"	"0"	"0"	"0"	"0"	"788.05365971372009"	" "	"2007"	" "	" "	"2517360640"	" "	" "	" "
"06/09/2016 13:36:35.175"	"85.036820825495653"	"0.9888002421569263"	"77.126418888240252"	"0.9888002421569263"	"803.38956236280569"	" "	"2007"	" "	" "	"2517884928"	" "	" "	" "
"06/09/2016 13:36:36.163"	"0"	"0"	"0"	"0"	"795.83054913940691"	" "	"2007"	" "	" "	"2517884928"	" "	" "	" "
"06/09/2016 13:36:37.167"	"0"	"0"	"0"	"0"	"807.63475841892159"	" "	"2001"	" "	" "	"2504933376"	" "	" "	" "
"06/09/2016 13:36:38.166"	"2655.9215033424884"	"26.02863139348085"	"9138.051821526662"	"24.026428978597711"	"792.98968836875383"	" "	"2029"	" "	" "	"2515640320"	" "	" "	" "
"06/09/2016 13:36:39.162"	"0"	"0"	"0"	"0"	"774.60159762363526"	" "	"2020"	" "	" "	"2515689472"	" "	" "	" "
"06/09/2016 13:36:40.164"	"0"	"0"	"0"	"0"	"795.41438057295397"	" "	"2026"	" "	" "	"2521432064"	" "	" "	" "
"06/09/2016 13:36:41.173"	"407.40755402032221"	"2.9737777665716951"	"321.16799878974308"	"1.9825185110477967"	"803.95243962357449"	" "	"2020"	" "	" "	"2514010112"	" "	" "	" "
"06/09/2016 13:36:42.162"	"415.56845518756188"	"3.0333463882303788"	"327.60140992888091"	"2.0222309254869191"	"794.56745605369031"	" "	"2025"	" "	" "	"2515435520"	" "	" "	" "
"06/09/2016 13:36:43.162"	"41.983176131839599"	"0.99959943171046672"	"41.983176131839599"	"0.99959943171046672"	"796.47620436447471"	" "	"2025"	" "	" "	"2517532672"	" "	" "	" "
"06/09/2016 13:36:44.164"	"0"	"0"	"0"	"0"	"792.54817993993902"	" "	"2025"	" "	" "	"2519052288"	" "	" "	" "
"06/09/2016 13:36:45.167"	"0"	"0"	"0"	"0"	"809.6785132847566"	" "	"2027"	" "	" "	"2525310976"	" "	" "	" "
"06/09/2016 13:36:46.154"	"0"	"0"	"0"	"0"	"793.44666898101809"	" "	"2032"	" "	" "	"2527166464"	" "	" "	" "
"06/09/2016 13:36:47.154"	"0"	"0"	"0"	"0"	"798.63604091977265"	" "	"2029"	" "	" "	"2527449088"	" "	" "	" "
"06/09/2016 13:36:48.161"	"0"	"0"	"0"	"0"	"793.97216333595338"	" "	"2034"	" "	" "	"2537021440"	" "	" "	" "
"06/09/2016 13:36:49.171"	"0"	"0"	"0"	"0"	"802.80206443938414"	" "	"2034"	" "	" "	"2544717824"	" "	" "	" "
"06/09/2016 13:36:50.156"	"779.63229417046205"	"5.0757310818389456"	"657.81474820632741"	"4.0605848654711565"	"794.67452720006258"	" "	"2035"	" "	" "	"2546888704"	" "	" "	" "
"06/09/2016 13:36:51.158"	"53.896700177978737"	"0.9980870403329396"	"0"	"0"	"793.7961112886054"	" "	"2035"	" "	" "	"2547019776"	" "	" "	" "
"06/09/2016 13:36:52.159"	"0"	"0"	"0"	"0"	"791.82421105196931"	" "	"2035"	" "	" "	"2547064832"	" "	" "	" "
"06/09/2016 13:36:53.160"	"0"	"0"	"0"	"0"	"794.08960201290006"	" "	"2035"	" "	" "	"2547085312"	" "	" "	" "
"06/09/2016 13:36:54.176"	"0"	"0"	"0"	"0"	"783.08255163335571"	" "	"2035"	" "	" "	"2547240960"	" "	" "	" "
"06/09/2016 13:36:55.163"	"0"	"0"	"0"	"0"	"794.79717536050225"	" "	"2035"	" "	" "	"2547236864"	" "	" "	" "
"06/09/2016 13:36:56.164"	"0"	"0"	"59.899495562167743"	"0.9983249260361291"	"793.99684722414963"	" "	"2035"	" "	" "	"2548563968"	" "	" "	" "
"06/09/2016 13:36:57.173"	"45.613502337487638"	"0.99159787690190526"	"0"	"0"	"805.66977336236596"	" "	"2035"	" "	" "	"2548482048"	" "	" "	" "
"06/09/2016 13:36:58.157"	"46.727652184634685"	"1.015818525752928"	"0"	"0"	"799.94579668862059"	" "	"2035"	" "	" "	"2548441088"	" "	" "	" "
"06/09/2016 13:36:59.161"	"818.72243151659109"	"5.9760761424568694"	"645.41622338534182"	"3.9840507616379126"	"793.69940866592765"	" "	"2035"	" "	" "	"2548441088"	" "	" "	" "
"06/09/2016 13:37:00.162"	"0"	"0"	"0"	"0"	"792.06377963762066"	" "	"2038"	" "	" "	"2549510144"	" "	" "	" "
"06/09/2016 13:37:01.162"	"0"	"0"	"0"	"0"	"799.74767960708391"	" "	"2039"	" "	" "	"2551238656"	" "	" "	" "
"06/09/2016 13:37:02.167"	"45.791407407407405"	"0.99546537842190008"	"0"	"0"	"793.20049868981948"	" "	"2038"	" "	" "	"2548158464"	" "	" "	" "
"06/09/2016 13:37:03.168"	"0"	"0"	"0"	"0"	"797.36894587563199"	" "	"2038"	" "	" "	"2548183040"	" "	" "	" "
"06/09/2016 13:37:04.171"	"0"	"0"	"59.804194721770756"	"0.99673657869617927"	"789.6096613386278"	" "	"2038"	" "	" "	"2548158464"	" "	" "	" "
"06/09/2016 13:37:05.172"	"0"	"0"	"0"	"0"	"797.88919054825521"	" "	"2038"	" "	" "	"2548154368"	" "	" "	" "
"06/09/2016 13:37:06.167"	"0"	"0"	"0"	"0"	"800.54349054542445"	" "	"2038"	" "	" "	"2548207616"	" "	" "	" "
"06/09/2016 13:37:07.160"	"0"	"0"	"0"	"0"	"781.83527528001605"	" "	"2038"	" "	" "	"2548240384"	" "	" "	" "
"06/09/2016 13:37:08.163"	"820.10720590323888"	"5.9861839846951739"	"646.50787034707878"	"3.9907893231301164"	"785.72826134349657"	" "	"2038"	" "	" "	"2548264960"	" "	" "	" "
"06/09/2016 13:37:09.164"	"0"	"0"	"0"	"0"	"797.03296850290417"	" "	"2039"	" "	" "	"2547961856"	" "	" "	" "
"06/09/2016 13:37:10.166"	"0"	"0"	"0"	"0"	"803.16782615612999"	" "	"2039"	" "	" "	"2549235712"	" "	" "	" "
"06/09/2016 13:37:11.152"	"0"	"0"	"42.63704888252655"	"1.0151678305363465"	"789.86916975043437"	" "	"2039"	" "	" "	"2549235712"	" "	" "	" "
"06/09/2016 13:37:12.160"	"102.10119373063606"	"0.9912737255401558"	"149.68233255656352"	"0.9912737255401558"	"777.55128765467134"	" "	"2039"	" "	" "	"2549248000"	" "	" "	" "
"06/09/2016 13:37:13.169"	"0"	"0"	"0"	"0"	"799.06385890410365"	" "	"2039"	" "	" "	"2547929088"	" "	" "	" "
"06/09/2016 13:37:14.165"	"0"	"0"	"0"	"0"	"788.92999034638285"	" "	"2039"	" "	" "	"2548006912"	" "	" "	" "
"06/09/2016 13:37:15.150"	"0"	"0"	"0"	"0"	"790.56172172532195"	" "	"2039"	" "	" "	"2548035584"	" "	" "	" "
"06/09/2016 13:37:16.155"	"0"	"0"	"0"	"0"	"784.56256296386448"	" "	"2039"	" "	" "	"2548039680"	" "	" "	" "
"06/09/2016 13:37:17.157"	"863.03641361689449"	"6.9921931658776177"	"689.23046920793661"	"4.9944236899125842"	"794.50448893475334"	" "	"2039"	" "	" "	"2548051968"	" "	" "	" "
"06/09/2016 13:37:18.158"	"0"	"0"	"0"	"0"	"795.66813057953686"	" "	"2039"	" "	" "	"2548023296"	" "	" "	" "
"06/09/2016 13:37:19.165"	"0"	"0"	"0"	"0"	"790.12100990442298"	" "	"2039"	" "	" "	"2548064256"	" "	" "	" "
"06/09/2016 13:37:20.152"	"0"	"0"	"0"	"0"	"808.76379614923337"	" "	"2039"	" "	" "	"2548064256"	" "	" "	" "
"06/09/2016 13:37:21.158"	"0"	"0"	"0"	"0"	"795.06937725694104"	" "	"2039"	" "	" "	"2555584512"	" "	" "	" "
"06/09/2016 13:37:22.163"	"0"	"0"	"0"	"0"	"794.54652620651405"	" "	"2039"	" "	" "	"2548944896"	" "	" "	" "
"06/09/2016 13:37:23.159"	"0"	"0"	"0"	"0"	"803.04893589491223"	" "	"2039"	" "	" "	"2555531264"	" "	" "	" "
"06/09/2016 13:37:24.165"	"0"	"0"	"0"	"0"	"793.90454322952235"	" "	"2039"	" "	" "	"2557476864"	" "	" "	" "
"06/09/2016 13:37:25.155"	"415.2778351661284"	"3.0312250742053166"	"327.37230801417422"	"2.0208167161368777"	"805.16912770136457"	" "	"2040"	" "	" "	"2560073728"	" "	" "	" "
"06/09/2016 13:37:26.169"	"405.03023686578308"	"2.9564250866115551"	"319.29390935404797"	"1.9709500577410368"	"800.78752155227221"	" "	"2040"	" "	" "	"2553634816"	" "	" "	" "
"06/09/2016 13:37:27.171"	"0"	"0"	"0"	"0"	" "	" "	"2036"	" "	" "	"2545184768"	" "	" "	" "
"06/09/2016 13:37:28.169"	"0"	"0"	"0"	"0"	"801.31335258488662"	" "	"2036"	" "	" "	"2545184768"	" "	" "	" "
"06/09/2016 13:37:29.166"	"0"	"0"	"0"	"0"	"802.68860548406894"	" "	"2036"	" "	" "	"2545180672"	" "	" "	" "
"06/09/2016 13:37:30.156"	"0"	"0"	"0"	"0"	"790.58425950463436"	" "	"2036"	" "	" "	"2545041408"	" "	" "	" "
"06/09/2016 13:37:31.159"	"0"	"0"	"0"	"0"	" "	" "	"2026"	" "	" "	"2534309888"	" "	" "	" "
"06/09/2016 13:37:32.166"	"0"	"0"	"0"	"0"	"797.69405953447153"	" "	"2026"	" "	" "	"2534563840"	" "	" "	" "
"06/09/2016 13:37:33.150"	"55.889146706111646"	"1.0161663037474844"	"67.066976047333966"	"1.0161663037474844"	"800.27088280192982"	" "	"2026"	" "	" "	"2534400000"	" "	" "	" "
"06/09/2016 13:37:34.162"	"406.106068462672"	"2.9642778719903062"	"320.1420101749531"	"1.9761852479935376"	"778.1386804190862"	" "	"2026"	" "	" "	"2533900288"	" "	" "	" "
