"(PDH-TSV 4.0) (Romance Daylight Time)(-120)"	"\\ANDERSGPC\Network Adapter(Realtek PCIe GBE Family Controller)\Bytes Received/sec"	"\\ANDERSGPC\Network Adapter(Realtek PCIe GBE Family Controller)\Bytes Sent/sec"	"\\ANDERSGPC\Network Adapter(Realtek PCIe GBE Family Controller)\Packets Received/sec"	"\\ANDERSGPC\Network Adapter(Realtek PCIe GBE Family Controller)\Packets Sent/sec"	"\\ANDERSGPC\Process(_Total)\Thread Count"	"\\ANDERSGPC\Process(WaterGun)\Thread Count"	"\\ANDERSGPC\Process(WaterGun)\Private Bytes"	"\\ANDERSGPC\Process(_Total)\Private Bytes"	"\\ANDERSGPC\Process(_Total)\% Processor Time"	"\\ANDERSGPC\Process(WaterGun)\% Processor Time"	"\\ANDERSGPC\Process(Gang Garrison 2)\% Processor Time"	"\\ANDERSGPC\Process(Gang Garrison 2)\Thread Count"	"\\ANDERSGPC\Process(Gang Garrison 2)\Private Bytes"
"06/09/2016 14:23:27.813"	" "	" "	" "	" "	"1422"	" "	" "	"3680337920"	" "	" "	" "	"16"	"728612864"
"06/09/2016 14:23:28.788"	"2249.5088939266493"	"1757.4930216933778"	"32.869536349613142"	"29.78801731683691"	"1423"	" "	" "	"3680849920"	"391.53298746293405"	" "	"25.674294259864528"	"16"	"728612864"
"06/09/2016 14:23:29.789"	"2110.2726301603311"	"1822.5081805930133"	"30.974645613148802"	"30.974645613148802"	"1424"	" "	" "	"3681800192"	"398.09736561082212"	" "	"23.417492094754241"	"16"	"728612864"
"06/09/2016 14:23:30.793"	"2043.4867442988404"	"1762.6566946437367"	"29.87553719735147"	"29.87553719735147"	"1425"	" "	" "	"3680845824"	"398.35955535106433"	" "	"29.565748248711802"	"16"	"728612864"
"06/09/2016 14:23:31.789"	"2061.5099104323876"	"1778.2029929168257"	"30.139033778251282"	"30.139033778251282"	"1425"	" "	" "	"3680964608"	"395.56489127767105"	" "	"21.975827293203949"	"16"	"728612864"
"06/09/2016 14:23:32.778"	"2026.5709415051736"	"1789.935412407264"	"29.326625401022969"	"30.33788834588583"	"1425"	" "	" "	"3680964608"	"398.18800440307444"	" "	"26.86188918592169"	"16"	"728612864"
"06/09/2016 14:23:33.788"	"2095.772927359832"	"1751.4249676236557"	"30.674674574199617"	"29.685168942773824"	"1425"	" "	" "	"3680301056"	"398.90076061531204"	" "	"20.099650728678515"	"16"	"728612864"
"06/09/2016 14:23:34.781"	"2067.493830297059"	"1783.3645612211471"	"30.226517986799106"	"30.226517986799106"	"1425"	" "	" "	"3680268288"	"403.00947324143033"	" "	"25.188092077589396"	"16"	"728612864"
"06/09/2016 14:23:35.778"	"1991.261344917976"	"1774.6891140507641"	"29.076827292357152"	"30.079476509334985"	"1425"	" "	" "	"3680268288"	"394.80187062390326"	" "	"20.366763167106122"	"16"	"728612864"
"06/09/2016 14:23:36.788"	"2940.2980711811301"	"2393.8184296686777"	"36.62997597094337"	"33.659977919245264"	"1425"	" "	" "	"3680284672"	"400.6420172310099"	" "	"26.296966381958175"	"16"	"728612864"
"06/09/2016 14:23:37.780"	"2001.411697592006"	"1838.1545500542895"	"29.225044929591228"	"31.240565269563035"	"1425"	" "	" "	"3680260096"	"401.51972602485716"	" "	"26.767981734990482"	"16"	"728612864"
"06/09/2016 14:23:38.785"	"2168.1666685779815"	"1762.0087251529051"	"31.855524974515799"	"29.864554663608562"	"1425"	" "	" "	"3680264192"	"396.64063857910895"	" "	"24.887255753983307"	"16"	"728612864"
"06/09/2016 14:23:39.780"	"2392.9869697259023"	"1939.9067332244824"	"33.152212426933154"	"32.147599929147297"	"1425"	" "	" "	"3680264192"	"400.28312543475454"	" "	"26.685541695650304"	"16"	"728612864"
"06/09/2016 14:23:40.788"	"2095.8250648985677"	"1756.4443015485158"	"30.762583812431632"	"29.770242399127383"	"1425"	" "	" "	"3680264192"	"393.83412793141599"	" "	"21.707392878109541"	"16"	"728612864"
"06/09/2016 14:23:41.793"	"2042.2430638381356"	"1761.5839293340644"	"29.857354734475667"	"29.857354734475667"	"1425"	" "	" "	"3680260096"	"394.97823551739833"	" "	"24.8805187727495"	"16"	"728612864"
"06/09/2016 14:23:42.789"	"2079.0726620577939"	"1777.7577834986935"	"30.131487855910059"	"30.131487855910059"	"1425"	" "	" "	"3680260096"	"397.04819618964302"	" "	"18.832325510971209"	"16"	"728612864"
"06/09/2016 14:23:43.793"	"2214.0168187369827"	"1762.0547523221492"	"31.856357104129248"	"29.865334785121171"	"1425"	" "	" "	"3680260096"	"395.0907307508561"	" "	"20.221179132917829"	"16"	"728612864"
"06/09/2016 14:23:44.789"	"2121.1381234645987"	"1819.8400945633771"	"31.134129653126209"	"31.134129653126209"	"1425"	" "	" "	"3680260096"	"397.0330028143959"	" "	"28.247407314858208"	"16"	"728612864"
"06/09/2016 14:23:45.787"	"2891.2282206441291"	"2422.380401080216"	"36.065216889531754"	"34.061593729002212"	"1425"	" "	" "	"3680260096"	"397.5840115678289"	" "	"31.305827682506216"	"16"	"728612864"
"06/09/2016 14:23:46.785"	"2073.6994478517381"	"1773.1632959891674"	"30.053615186257073"	"30.053615186257073"	"1425"	" "	" "	"3680260096"	"396.02776574771696"	" "	"28.175888472169586"	"16"	"728612864"
"06/09/2016 14:23:47.785"	"2112.134499562856"	"1770.1127198040981"	"31.001974188659343"	"30.001910505154203"	"1425"	" "	" "	"3680260096"	"400.03352280921138"	" "	"20.314202330155268"	"16"	"728612864"
"06/09/2016 14:23:48.783"	"2431.6413592120284"	"2071.8065496666372"	"44.102316490242885"	"32.074411992903919"	"1425"	" "	" "	"3680292864"	"397.78002912225901"	" "	"31.321262135610944"	"16"	"728612864"
"06/09/2016 14:23:49.785"	"2535.3998103297763"	"1874.598757401307"	"35.934800461366905"	"31.942044854548364"	"1425"	" "	" "	"3680292864"	"399.27531530272557"	" "	"24.954707206420348"	"16"	"728612864"
"06/09/2016 14:23:50.783"	"2074.2034614489271"	"1773.5942641374884"	"30.060919731143869"	"30.060919731143869"	"1425"	" "	" "	"3680260096"	"400.8220459340061"	" "	"28.182800104734802"	"16"	"728612864"
"06/09/2016 14:23:51.784"	"2048.178296173126"	"1766.7035010850061"	"29.944127137034002"	"29.944127137034002"	"1425"	" "	" "	"3680223232"	"399.24594418521735"	" "	"32.750643858943612"	"16"	"728612864"
"06/09/2016 14:23:52.783"	"2057.7816761795334"	"1774.2606370564527"	"30.055233829301852"	"30.055233829301852"	"1425"	" "	" "	"3680223232"	"400.73811954238511"	" "	"25.046132471399069"	"16"	"728612864"
"06/09/2016 14:23:53.784"	"2066.3236287635514"	"1766.8564361891238"	"29.946719257442776"	"29.946719257442776"	"1425"	" "	" "	"3680223232"	"396.16914543358098"	" "	"26.515257765239674"	"16"	"728612864"
"06/09/2016 14:23:54.783"	"2890.0312119071941"	"2421.3775018681895"	"36.050285387615723"	"34.047491754970409"	"1425"	" "	" "	"3680223232"	"400.57554694585178"	" "	"23.471223453858503"	"16"	"728612864"
"06/09/2016 14:23:55.782"	"2052.9768800783727"	"1770.8426304769589"	"30.01428187249083"	"30.01428187249083"	"1425"	" "	" "	"3680223232"	"395.47765146725271"	" "	"23.447291588967552"	"16"	"728612864"
"06/09/2016 14:23:56.784"	"2049.2379789463189"	"1767.6175549390762"	"29.95961957523858"	"29.95961957523858"	"1425"	" "	" "	"3680239616"	"399.46631300582419"	" "	"23.406229277685011"	"16"	"728612864"
"06/09/2016 14:23:57.782"	"2073.3086402738427"	"1826.9154395456469"	"30.047951308316559"	"31.049549685260445"	"1427"	" "	" "	"3680378880"	"397.51010188978933"	" "	"29.735007621677152"	"16"	"728612864"
"06/09/2016 14:23:58.784"	"2048.8804834836901"	"1821.2270964299466"	"29.95439303338728"	"30.952872801166858"	"1427"	" "	" "	"3680403456"	"394.71356164156509"	" "	"34.322918403614352"	"16"	"728612864"
"06/09/2016 14:23:59.782"	"2023.8631165395238"	"1581.0178207422616"	"30.057373017913719"	"27.051635716122348"	"1426"	" "	" "	"3680362496"	"399.2096113092332"	" "	"32.876085637230965"	"16"	"728612864"
"06/09/2016 14:24:00.782"	"2055.7519962219285"	"912.88986991761715"	"30.996260643424019"	"15.998070009509172"	"1425"	" "	" "	"3680313344"	"395.26542388801494"	" "	"20.310081069344641"	"16"	"728612864"
"06/09/2016 14:24:01.784"	"1894.5564838868663"	"808.53042779154998"	"29.945571399687037"	"14.972785699843518"	"1421"	" "	" "	"3687100416"	"396.15142941417503"	" "	"24.954420750499214"	"16"	"735657984"
"06/09/2016 14:24:02.792"	"2355.3725673327267"	"1124.6284174127629"	"33.7190178060264"	"16.8595089030132"	"1421"	" "	" "	"3687096320"	"395.13468768603872"	" "	"27.891860307249793"	"16"	"735657984"
"06/09/2016 14:24:03.784"	"2269.0330295778554"	"1143.0846093031043"	"32.256355818077019"	"17.136189028353414"	"1421"	" "	" "	"3687112704"	"403.20629646952568"	" "	"25.200393529345355"	"16"	"735657984"
"06/09/2016 14:24:04.781"	"1952.2414964064621"	"1064.4029947005429"	"30.096220396810821"	"19.060939584646853"	"1421"	" "	" "	"3683213312"	"401.29840097635901"	" "	"23.513578182208537"	"16"	"731758592"
"06/09/2016 14:24:05.781"	"2050.970257749962"	"1769.1117720357861"	"29.984945288742136"	"29.984945288742136"	"1421"	" "	" "	"3683213312"	"399.78427640445216"	" "	"31.233146594097828"	"16"	"731758592"
"06/09/2016 14:24:06.783"	"2048.3791524239664"	"1766.8767542838305"	"29.947063631929332"	"29.947063631929332"	"1421"	" "	" "	"3683213312"	"396.18421320585423"	" "	"24.956485871234914"	"16"	"731758592"
"06/09/2016 14:24:07.781"	"2075.2461770085079"	"1882.7595750830812"	"30.076031550847944"	"32.081100320904476"	"1421"	" "	" "	"3683213312"	"401.00331028232637"	" "	"18.797030169484049"	"16"	"731758592"
"06/09/2016 14:24:08.783"	"2047.4798587195226"	"1873.8631455532473"	"29.933916063150914"	"31.929510467360974"	"1421"	" "	" "	"3683217408"	"399.11978123446551"	" "	"14.031554809024177"	"16"	"731758592"
"06/09/2016 14:24:09.780"	"2117.2683957756371"	"1828.5499781698684"	"31.077329672843156"	"31.077329672843156"	"1421"	" "	" "	"3683217408"	"399.44113579780554"	" "	"23.496537399870913"	"16"	"731758592"
"06/09/2016 14:24:10.781"	"2050.5078993035845"	"1876.6344224620527"	"29.978185662333111"	"31.976731373155317"	"1421"	" "	" "	"3683217408"	"398.14064633409328"	" "	"31.226717359536732"	"16"	"731758592"
"06/09/2016 14:24:11.783"	"2481.3172371099522"	"2089.2152370358826"	"32.924595426066922"	"31.9268804131558"	"1421"	" "	" "	"3683217408"	"397.52569531266136"	" "	"34.296334497562938"	"16"	"731758592"
"06/09/2016 14:24:12.781"	"2475.0954143143604"	"2099.1696223468089"	"33.081469693144548"	"32.079000914564411"	"1421"	" "	" "	"3683217408"	"400.98570305525038"	" "	"32.893358453751006"	"16"	"731758592"
"06/09/2016 14:24:13.782"	"2222.604572002012"	"1768.8894300555583"	"31.979921899309527"	"29.981176780602681"	"1421"	" "	" "	"3683217408"	"399.7555494814921"	" "	"35.915537648727799"	"16"	"731758592"
"06/09/2016 14:24:14.782"	"2068.2686259269362"	"1822.4743834254741"	"29.974907622129507"	"30.974071209533825"	"1421"	" "	" "	"3683217408"	"398.1063949113522"	" "	"32.785232522111365"	"16"	"731758592"
"06/09/2016 14:24:15.781"	"2054.5844805798988"	"1772.2293034241818"	"30.037784803799692"	"30.037784803799692"	"1421"	" "	" "	"3683217408"	"400.49509203277091"	" "	"28.159811158554206"	"16"	"731758592"
"06/09/2016 14:24:16.783"	"2049.1181451399011"	"2037.1349980922992"	"29.9578676190044"	"34.950845555505133"	"1421"	" "	" "	"3683217408"	"399.43874861432198"	" "	"31.206152235493906"	"16"	"731758592"
"06/09/2016 14:24:17.781"	"2054.697712600499"	"1826.3979667559993"	"30.039440242697356"	"31.040754917453935"	"1421"	" "	" "	"3683209216"	"398.96053726435355"	" "	"28.16192027748378"	"16"	"731758592"
"06/09/2016 14:24:18.781"	"2071.2971179000151"	"1933.2106433733475"	"30.018798810145146"	"33.020678691159659"	"1421"	" "	" "	"3683180544"	"397.1333749737579"	" "	"28.143310037510403"	"16"	"731758592"
"06/09/2016 14:24:19.781"	"2052.0623821574359"	"1824.0554508066095"	"30.000912019845554"	"31.000942420507073"	"1421"	" "	" "	"3683180544"	"398.45252166006662"	" "	"28.126060352475292"	"16"	"731758592"
"06/09/2016 14:24:20.780"	"2896.5292492517096"	"2526.4616310807382"	"36.006579065283681"	"36.006579065283681"	"1421"	" "	" "	"3683180544"	"396.9375176590313"	" "	"35.94316104786504"	"16"	"731758592"
"06/09/2016 14:24:21.781"	"2129.8875429093637"	"1769.9065497415838"	"31.998310503802646"	"29.99841609731498"	"1421"	" "	" "	"3683164160"	"396.85214131666015"	" "	"34.373020114041431"	"16"	"731758592"
"06/09/2016 14:24:22.791"	"2096.1452751116431"	"1751.7361364247442"	"31.669805856266564"	"29.690442990249903"	"1421"	" "	" "	"3683164160"	"394.3261764194159"	" "	"29.381166086152554"	"16"	"731758592"
"06/09/2016 14:24:23.789"	"2056.1583386961329"	"1827.6963010632292"	"31.062820906228126"	"31.062820906228126"	"1421"	" "	" "	"3683164160"	"397.67914700315509"	" "	"36.010316460915618"	"16"	"731758592"
"06/09/2016 14:24:24.791"	"2557.1590329175588"	"1981.2492897507236"	"35.931977043338058"	"32.937645623059886"	"1421"	" "	" "	"3683164160"	"399.24431036933294"	" "	"26.512317485463516"	"16"	"731758592"
"06/09/2016 14:24:25.789"	"2176.2905633008922"	"1815.5794202123463"	"32.063212718981838"	"31.061237321513655"	"1421"	" "	" "	"3683164160"	"396.08387334333617"	" "	"23.483233597430996"	"16"	"731758592"
"06/09/2016 14:24:26.789"	"1985.7407439284452"	"1769.7689409634179"	"28.996214286971256"	"29.996083745142677"	"1421"	" "	" "	"3683180544"	"398.397700069763"	" "	"28.122190593159747"	"16"	"731758592"
"06/09/2016 14:24:27.791"	"2114.2248726844346"	"1820.748898855717"	"30.944745539762732"	"30.944745539762732"	"1421"	" "	" "	"3683180544"	"397.73371019980146"	" "	"28.075320719985985"	"16"	"731758592"
"06/09/2016 14:24:28.789"	"2078.3761910976841"	"1936.0765675991929"	"30.063300739117903"	"33.06963081302969"	"1421"	" "	" "	"3683180544"	"400.83642536881712"	" "	"31.315345731938837"	"16"	"731758592"
"06/09/2016 14:24:29.791"	"2999.3132687993652"	"2777.8070992473163"	"37.915470463864231"	"40.90879707943246"	"1421"	" "	" "	"3683176448"	"399.10855114017329"	" "	"29.621337779934738"	"16"	"731758592"
"06/09/2016 14:24:30.789"	"2056.4755101137634"	"2260.9204438677634"	"30.065431434411746"	"39.085060864735269"	"1421"	" "	" "	"3683176448"	"400.88358751524237"	" "	"28.187127247165478"	"16"	"731758592"
"06/09/2016 14:24:31.790"	"2108.7501909840203"	"2090.7778882199523"	"30.952299204784392"	"35.944605528136712"	"1421"	" "	" "	"3683192832"	"394.69413270229529"	" "	"31.201117209667611"	"16"	"731758592"
"06/09/2016 14:24:32.789"	"2073.4169616302179"	"2151.5457167061395"	"30.04952118304664"	"37.061076125757523"	"1421"	" "	" "	"3683184640"	"394.41008471778372"	" "	"31.302387676014575"	"16"	"731758592"
"06/09/2016 14:24:33.790"	"2049.1482659801827"	"2198.9398058910147"	"29.958307982166414"	"37.947190110744124"	"1421"	" "	" "	"3683184640"	"397.87462676551485"	" "	"26.52497511770099"	"16"	"731758592"
"06/09/2016 14:24:34.789"	"2053.0347205591761"	"1987.0014400733548"	"30.015127493555209"	"34.017144492695905"	"1421"	" "	" "	"3683184640"	"397.08223721960491"	" "	"28.139686102176725"	"16"	"731758592"
"06/09/2016 14:24:35.789"	"2071.6904848298323"	"2149.7541842582027"	"30.024499780142495"	"37.030216395509079"	"1421"	" "	" "	"3683184640"	"397.19009089911026"	" "	"31.274810307016555"	"16"	"731758592"
"06/09/2016 14:24:36.790"	"2049.5405725623782"	"2091.4902334042981"	"29.964043458514301"	"35.956852150217159"	"1421"	" "	" "	"3682869248"	"393.28069814290603"	" "	"23.409565365649172"	"16"	"731758592"
"06/09/2016 14:24:37.789"	"2054.2639436465411"	"2042.2507042100115"	"30.033098591323697"	"35.03861502321098"	"1421"	" "	" "	"3682869248"	"398.88540842512054"	" "	"29.72087356893055"	"16"	"731758592"
"06/09/2016 14:24:38.790"	"2885.1582590737844"	"2685.3550555368188"	"35.964576636653824"	"38.961624689708309"	"1421"	" "	" "	"3682877440"	"394.9217644062964"	" "	"32.78006740131314"	"16"	"731758592"
"06/09/2016 14:24:39.788"	"2073.1777393832585"	"2097.2145827384265"	"30.046054193960266"	"36.055265032752317"	"1421"	" "	" "	"3682877440"	"399.0518403081544"	" "	"35.992911086617845"	"16"	"731758592"
"06/09/2016 14:24:40.781"	"2219.519474377194"	"2296.0893699980143"	"31.232457424281897"	"38.284947810410067"	"1421"	" "	" "	"3682873344"	"398.27551048782522"	" "	"29.910018574184505"	"16"	"731758592"
"06/09/2016 14:24:41.781"	"2050.8561243711561"	"2254.7424057413882"	"29.983276672092927"	"38.978259673720807"	"1421"	" "	" "	"3682873344"	"396.64324135407679"	" "	"31.231751287722581"	"16"	"731758592"
"06/09/2016 14:24:42.780"	"2073.6575685643443"	"2043.604560324281"	"30.053008240062958"	"35.061842946740114"	"1421"	" "	" "	"3682873344"	"399.14354501678019"	" "	"32.87064488373484"	"16"	"731758592"
"06/09/2016 14:24:43.781"	"2221.849978788709"	"1984.0800619938743"	"31.96906444300301"	"33.967130970690697"	"1421"	" "	" "	"3682873344"	"399.62071997467206"	" "	"28.098331873219131"	"16"	"731758592"
"06/09/2016 14:24:44.780"	"2114.0511192362574"	"1933.8763079377129"	"31.030106390304915"	"33.032048738066521"	"1421"	" "	" "	"3682873344"	"400.37911898776952"	" "	"32.843599604465467"	"16"	"731758592"
"06/09/2016 14:24:45.784"	"2102.1432196911787"	"1815.4873260969273"	"30.855321879936813"	"30.855321879936813"	"1421"	" "	" "	"3682840576"	"396.58706441614072"	" "	"32.660111187211591"	"16"	"731758592"
"06/09/2016 14:24:46.790"	"2660.9037182540519"	"1814.388180222576"	"35.810293030708735"	"30.83664122088808"	"1421"	" "	" "	"3683155968"	"394.78610774669073"	" "	"23.314140221261262"	"16"	"731758592"
"06/09/2016 14:24:47.792"	"2878.0924517481899"	"2680.6349654536152"	"35.901361144468062"	"38.893141239840404"	"1421"	" "	" "	"3683155968"	"394.2268387088796"	" "	"34.280594670337358"	"16"	"731758592"
"06/09/2016 14:24:48.782"	"2073.0963091607273"	"1842.7522748095355"	"30.308425572525252"	"31.318706424942761"	"1421"	" "	" "	"3683155968"	"402.53445543396128"	" "	"33.149896329855636"	"16"	"731758592"
"06/09/2016 14:24:49.783"	"2127.3913301941698"	"1983.5676909697752"	"30.962033444140499"	"33.958359261315387"	"1421"	" "	" "	"3683155968"	"397.94265830439849"	" "	"28.090069997957539"	"16"	"731758592"
"06/09/2016 14:24:50.785"	"2049.0074913942426"	"2144.867490991634"	"29.956249874184834"	"36.946041511494627"	"1421"	" "	" "	"3683155968"	"396.29367680549399"	" "	"32.764437846123521"	"16"	"731758592"
"06/09/2016 14:24:51.781"	"2179.7584781033711"	"1938.9011877052087"	"32.114305386421677"	"33.117877429747352"	"1421"	" "	" "	"3683139584"	"401.43214933597102"	" "	"29.793792333529101"	"16"	"731758592"
"06/09/2016 14:24:52.784"	"2166.8882680654669"	"1927.4531003234263"	"31.92468903227207"	"32.92233556453057"	"1421"	" "	" "	"3683139584"	"395.94034322578125"	" "	"28.058764480567174"	"16"	"731758592"
"06/09/2016 14:24:53.789"	"2059.2150777648394"	"2190.5273435933223"	"29.843696779200574"	"37.802015920320727"	"1421"	" "	" "	"3683131392"	"397.92129892653765"	" "	"21.761321035045029"	"16"	"731758592"
"06/09/2016 14:24:54.792"	"2046.2796337821335"	"2142.0120143099525"	"29.916368914943472"	"36.896854995096952"	"1421"	" "	" "	"3683131392"	"397.32804091136319"	" "	"24.930386880712984"	"16"	"731758592"
"06/09/2016 14:24:55.792"	"2528.6205079129841"	"2309.6533702170791"	"33.994898089775191"	"35.994597977409029"	"1421"	" "	" "	"3683131392"	"398.37682720921606"	" "	"31.245241349742436"	"16"	"731758592"
"06/09/2016 14:24:56.781"	"2574.8559933799579"	"2389.85456158234"	"34.371850716497278"	"37.404661073835271"	"1421"	" "	" "	"3683180544"	"401.20670846933086"	" "	"23.693309555275444"	"16"	"731758592"
"06/09/2016 14:24:57.784"	"2286.0387938628405"	"1980.8346616979065"	"33.911570240548251"	"33.911570240548251"	"1421"	" "	" "	"3683180544"	"395.84224757607404"	" "	"34.285549002652083"	"16"	"731758592"
"06/09/2016 14:24:58.788"	"2161.5465055698151"	"1922.7015878272941"	"31.845989032336135"	"32.841176189596638"	"1421"	" "	" "	"3683180544"	"396.51168240970429"	" "	"23.324216612335547"	"16"	"731758592"
"06/09/2016 14:24:59.792"	"2044.6393618930981"	"2086.4887055575768"	"29.892388331770441"	"35.870865998124529"	"1421"	" "	" "	"3683180544"	"398.57394229187389"	" "	"28.024730317397385"	"16"	"731758592"
"06/09/2016 14:25:00.784"	"2390.1898548713461"	"1839.5385212174413"	"35.298162413711864"	"31.26408670928765"	"1421"	" "	" "	"3683188736"	"401.84072932068989"	" "	"29.941073949384734"	"16"	"731758592"
"06/09/2016 14:25:01.788"	"2161.5912498905282"	"1976.4826069441019"	"31.846648248847561"	"33.837063764400533"	"1421"	" "	" "	"3683205120"	"393.4192877037122"	" "	"29.545322001464552"	"16"	"731758592"
"06/09/2016 14:25:02.791"	"2106.6259593443856"	"2088.6717608272461"	"30.921119668407172"	"35.908397034279297"	"1421"	" "	" "	"3683201024"	"398.97240666938234"	" "	"32.728205234597766"	"16"	"731758592"
"06/09/2016 14:25:03.781"	"2331.3558809459164"	"2494.9952452064181"	"32.32382503911149"	"38.384542233944899"	"1421"	" "	" "	"3683201024"	"400.89068187123598"	" "	"26.831266109492173"	"16"	"731758592"
"06/09/2016 14:25:04.783"	"2464.7952927428751"	"2359.9741077538097"	"32.943800996563333"	"36.936988996146766"	"1421"	" "	" "	"3683201024"	"396.21367974713405"	" "	"28.078134785229974"	"16"	"731758592"
"06/09/2016 14:25:05.783"	"2649.1500465622348"	"2202.1247272669088"	"37.002095780597472"	"34.00192585244092"	"1421"	" "	" "	"3683201024"	"398.44833779478802"	" "	"28.125765020808569"	"16"	"731758592"
"06/09/2016 14:25:06.788"	"2099.8458611918431"	"1759.8140029874821"	"30.821601182266633"	"29.827355982838679"	"1421"	" "	" "	"3683172352"	"397.68578686905164"	" "	"20.194981364444029"	"16"	"731758592"
"06/09/2016 14:25:07.780"	"2147.0920794155122"	"2110.8031992000388"	"31.248757963324355"	"36.288880215473441"	"1421"	" "	" "	"3683172352"	"400.07907326615941"	" "	"28.352060310200272"	"16"	"731758592"
"06/09/2016 14:25:08.783"	"2046.6238112928613"	"2088.5137723427151"	"29.921400749895632"	"35.90568089987476"	"1421"	" "	" "	"3683172352"	"397.40678576045173"	" "	"29.61070168411209"	"16"	"731758592"
"06/09/2016 14:25:09.789"	"2291.1578960096967"	"2188.7320004849576"	"31.821637444579121"	"36.793768295294605"	"1421"	" "	" "	"3683172352"	"396.18967824152884"	" "	"17.090535139830656"	"16"	"731758592"
"06/09/2016 14:25:10.791"	"2065.1837027885126"	"1765.8817168771338"	"29.930198591137863"	"29.930198591137863"	"1410"	" "	" "	"3679424512"	"388.16308731039311"	" "	"26.501094314364188"	"16"	"731758592"
"06/09/2016 14:25:11.780"	"2263.9100397263742"	"1789.6921707528727"	"43.478397368572615"	"30.333765605980894"	"1410"	" "	" "	"3679424512"	"404.45887598653837"	" "	"30.018432202125894"	"16"	"731758592"
"06/09/2016 14:25:12.783"	"2233.0861244507792"	"1765.3248951665382"	"36.90227181986549"	"29.92076093502607"	"1410"	" "	" "	"3679424512"	"395.82621885053362"	" "	"24.933935045702906"	"16"	"731758592"
"06/09/2016 14:25:13.788"	"2837.1281298067615"	"2185.5436539920952"	"36.807061992584217"	"32.827920155548085"	"1410"	" "	" "	"3679436800"	"397.90495085276996"	" "	"31.086324285372658"	"16"	"731758592"
"06/09/2016 14:25:14.790"	"2601.4458570252123"	"2131.4493097836034"	"34.925433446828706"	"32.929694392724208"	"1410"	" "	" "	"3679404032"	"394.47935959254056"	" "	"23.388104323668411"	"16"	"731758592"
"06/09/2016 14:25:15.790"	"2051.6284122724869"	"1769.6794784221745"	"29.994567430884313"	"29.994567430884313"	"1410"	" "	" "	"3679477760"	"398.35615567301159"	" "	"26.557077044867437"	"16"	"731758592"
"06/09/2016 14:25:16.780"	"2073.0152174974228"	"1788.1271612916366"	"30.307240021892145"	"30.307240021892145"	"1410"	" "	" "	"3679506432"	"404.09979446474205"	" "	"18.942177865534784"	"16"	"731758592"
"06/09/2016 14:25:17.782"	"2065.5173703121741"	"1873.9331504571319"	"29.93503435235035"	"31.930703309173705"	"1410"	" "	" "	"3679506432"	"399.14347801053719"	" "	"32.742238430551879"	"16"	"731758592"
"06/09/2016 14:25:18.782"	"2052.3099782208988"	"1770.2673788747518"	"30.004531845334775"	"30.004531845334775"	"1410"	" "	" "	"3679420416"	"396.92620348024894"	" "	"31.254031770098344"	"16"	"731758592"
"06/09/2016 14:25:19.787"	"2101.0076230901291"	"1814.5065835778387"	"30.838653558614581"	"30.838653558614581"	"1410"	" "	" "	"3679420416"	"394.81579872019495"	" "	"31.087858166944482"	"16"	"731758592"
"06/09/2016 14:25:20.791"	"2114.8717594305326"	"1764.0542008445063"	"30.895864534564801"	"29.899223743127227"	"1410"	" "	" "	"3679420416"	"397.08791729548784"	" "	"28.029735338505024"	"16"	"731758592"
"06/09/2016 14:25:21.780"	"2092.6736722171036"	"1789.3876327653495"	"30.328603945175416"	"30.328603945175416"	"1410"	" "	" "	"3679404032"	"399.6421430493682"	" "	"30.012651059043467"	"16"	"731758592"
"06/09/2016 14:25:22.791"	"2974.09230996209"	"2392.3337343607232"	"37.596642640904662"	"33.639101310283124"	"1410"	" "	" "	"3679395840"	"395.76601600754805"	" "	"32.465181000619175"	"16"	"731758592"
"06/09/2016 14:25:23.780"	"2073.6265771147978"	"1788.6545036516532"	"30.316178027994123"	"30.316178027994123"	"1410"	" "	" "	"3679395840"	"402.62528612605433"	" "	"34.736299195189005"	"16"	"731758592"
"06/09/2016 14:25:24.779"	"2193.745855617542"	"1771.409746552486"	"32.025486943321781"	"30.02389400936417"	"1410"	" "	" "	"3679395840"	"400.33015227658251"	" "	"31.275793146608006"	"16"	"731758592"
"06/09/2016 14:25:25.782"	"2106.4565283789907"	"1853.1232148334111"	"30.918632755562836"	"31.916008005742281"	"1410"	" "	" "	"3679395840"	"395.83529900363703"	" "	"32.726540468804636"	"16"	"731758592"
"06/09/2016 14:25:26.787"	"2041.3127585640486"	"1760.7814730303928"	"29.843753780176147"	"29.843753780176147"	"1410"	" "	" "	"3679395840"	"397.91266950955378"	" "	"37.304312766520667"	"16"	"731758592"
"06/09/2016 14:25:27.790"	"2224.9670289849291"	"1764.4227783617046"	"32.896017901658901"	"29.90547081968991"	"1410"	" "	" "	"3679395840"	"397.17254516091697"	" "	"37.380945426909832"	"16"	"731758592"
"06/09/2016 14:25:28.780"	"2213.4281375830788"	"1898.0904303109687"	"32.342328950985625"	"32.342328950985625"	"1410"	" "	" "	"3679416320"	"402.70003964968799"	" "	"25.267453468215717"	"16"	"731758592"
"06/09/2016 14:25:29.781"	"2102.7076928483793"	"1928.9797068295675"	"30.951537738983742"	"32.948411141498823"	"1410"	" "	" "	"3679416320"	"399.37605478960216"	" "	"24.961003424350135"	"16"	"731758592"
"06/09/2016 14:25:30.787"	"2726.1379398767504"	"1813.4484326532431"	"46.728112025604403"	"30.820669633909286"	"1410"	" "	" "	"3679412224"	"396.12366246282215"	" "	"18.64111352766222"	"16"	"731758592"
"06/09/2016 14:25:31.788"	"3086.0318693196714"	"2416.458892491893"	"37.975780775306838"	"33.978330167379802"	"1410"	" "	" "	"3679428608"	"396.62964490166382"	" "	"29.669146665872493"	"16"	"731758592"
"06/09/2016 14:25:32.790"	"2048.0984880133374"	"1766.6346607132589"	"29.942960351072184"	"29.942960351072184"	"1410"	" "	" "	"3679428608"	"399.24893290741454"	" "	"35.87002131590053"	"16"	"731758592"
"06/09/2016 14:25:33.779"	"2007.8581581989299"	"1789.4808358570524"	"29.319177536640971"	"30.330183658594109"	"1410"	" "	" "	"3679428608"	"401.23136959538186"	" "	"34.752323350781104"	"16"	"731758592"
"06/09/2016 14:25:34.780"	"2115.0619505280297"	"1767.5446895347557"	"30.956997387331882"	"29.958384568385689"	"1410"	" "	" "	"3679428608"	"396.32470314967668"	" "	"32.767003016311854"	"16"	"731758592"
"06/09/2016 14:25:35.787"	"2055.5311589616094"	"1757.628092445434"	"29.790306651617527"	"29.790306651617527"	"1410"	" "	" "	"3679428608"	"394.10080619495187"	" "	"32.583137520055075"	"16"	"731758592"
"06/09/2016 14:25:36.789"	"2047.6269618332017"	"1766.2279349146038"	"29.936066693467861"	"29.936066693467861"	"1410"	" "	" "	"3679428608"	"399.15686096258872"	" "	"32.743336250837359"	"16"	"731758592"
"06/09/2016 14:25:37.789"	"1986.0273274999167"	"1770.0243553246992"	"29.000399042043096"	"30.000412802113548"	"1410"	" "	" "	"3679428608"	"398.4431180479645"	" "	"37.500528757455484"	"16"	"731758592"
"06/09/2016 14:25:38.779"	"2073.8519057766262"	"1952.574016549923"	"30.319472306675824"	"33.351419537343403"	"1410"	" "	" "	"3679432704"	"401.09341982431835"	" "	"34.740374945413393"	"16"	"731758592"
"06/09/2016 14:25:39.780"	"2127.1608603865911"	"1767.6407149691393"	"30.958679188725036"	"29.960012118121004"	"1410"	" "	" "	"3679432704"	"399.4682677887464"	" "	"35.889727184145187"	"16"	"731758592"
"06/09/2016 14:25:40.778"	"2891.0400800877296"	"2422.2227698032329"	"36.062870021884365"	"34.05937724289079"	"1410"	" "	" "	"3679363072"	"399.13418872642194"	" "	"25.043713802442163"	"16"	"731758592"
"06/09/2016 14:25:41.781"	"2113.1968296335081"	"1765.986019098824"	"30.929698639583922"	"29.931966425403797"	"1410"	" "	" "	"3679363072"	"397.53192228104382"	" "	"31.178974296552454"	"16"	"731758592"
"06/09/2016 14:25:42.786"	"2059.4609233500337"	"1760.9883257630722"	"29.84725975869614"	"29.84725975869614"	"1410"	" "	" "	"3679281152"	"397.97308328949828"	" "	"32.646229488591658"	"16"	"731758592"
"06/09/2016 14:25:43.789"	"2216.8904052217363"	"1764.3417343716158"	"31.897703672255201"	"29.90409719273925"	"1410"	" "	" "	"3679281152"	"395.59745757052178"	" "	"35.821817024102366"	"16"	"731758592"
"06/09/2016 14:25:44.779"	"2006.9368262975411"	"1788.6597092379898"	"29.305724049661979"	"30.316266258271014"	"1410"	" "	" "	"3679281152"	"397.91039189348146"	" "	"23.685142374611992"	"16"	"731758592"
"06/09/2016 14:25:45.780"	"2132.7391553147877"	"1767.2978955557933"	"30.952675006909374"	"29.954201619589718"	"1410"	" "	" "	"3679281152"	"394.70067448448162"	" "	"18.720980607959604"	"16"	"731758592"
"06/09/2016 14:25:46.780"	"1985.7896669757513"	"1769.8125430750654"	"28.996928671851354"	"29.996822763984156"	"1410"	" "	" "	"3678781440"	"396.82853137897553"	" "	"20.310121684750715"	"16"	"731758592"
"06/09/2016 14:25:47.786"	"2106.6565110918582"	"1760.5203138019781"	"30.833971597661762"	"29.8393273525759"	"1410"	" "	" "	"3678781440"	"394.76148647754786"	" "	"34.191939773645878"	"16"	"731758592"
"06/09/2016 14:25:48.789"	"2044.8910386234727"	"1817.6809232208645"	"29.896067816132639"	"30.89260341000373"	"1410"	" "	" "	"3678785536"	"395.49097931787708"	" "	"34.255124192886996"	"16"	"731758592"
"06/09/2016 14:25:49.778"	"3001.7606930102711"	"2553.8725195499983"	"36.397233057719689"	"36.397233057719689"	"1410"	" "	" "	"3678785536"	"394.93372696114608"	" "	"33.174433064736277"	"16"	"731758592"
"06/09/2016 14:25:50.780"	"2047.9611278778993"	"1766.516177555498"	"29.94095216195759"	"29.94095216195759"	"1410"	" "	" "	"3678785536"	"397.64820807179831"	" "	"21.831666325510493"	"16"	"731758592"
"06/09/2016 14:25:51.781"	"2117.1267351093106"	"1769.2702177259112"	"30.987218502544206"	"29.987630808913746"	"1410"	" "	" "	"3678752768"	"399.84234216448453"	" "	"28.113914683440321"	"16"	"731758592"
"06/09/2016 14:25:52.785"	"2060.1122060772745"	"1761.5452196892638"	"29.856698638801081"	"29.856698638801081"	"1410"	" "	" "	"3678752768"	"396.5555267810027"	" "	"27.992154831600192"	"16"	"731758592"
"06/09/2016 14:25:53.788"	"2196.3421537725317"	"1867.339470728984"	"30.906312649545384"	"30.906312649545384"	"1410"	" "	" "	"3678756864"	"397.2110314980435"	" "	"28.038425752803072"	"16"	"731758592"
"06/09/2016 14:25:54.778"	"2201.6294443418328"	"1951.9497047860787"	"30.325474439970151"	"32.347172735968158"	"1410"	" "	" "	"3678724096"	"398.0136012998442"	" "	"33.16780010832035"	"16"	"731758592"
"06/09/2016 14:25:55.779"	"2114.1303292792427"	"1766.766139199367"	"30.943361759988914"	"29.945188799989271"	"1410"	" "	" "	"3678724096"	"399.27491675117983"	" "	"38.991691088982407"	"16"	"731758592"
"06/09/2016 14:25:56.786"	"2057.3341727449269"	"1759.1697998833431"	"29.816437286158358"	"29.816437286158358"	"1410"	" "	" "	"3679240192"	"394.44815770969115"	" "	"29.505964553087132"	"16"	"731758592"
"06/09/2016 14:25:57.789"	"2463.7467921117391"	"2087.8534126596446"	"32.903134010395547"	"31.906069343413861"	"1410"	" "	" "	"3679240192"	"395.71117386654112"	" "	"20.252934095531632"	"16"	"731758592"
"06/09/2016 14:25:58.777"	"2490.7720678678252"	"2214.6937996875913"	"33.372098351456856"	"34.383374059076758"	"1410"	" "	" "	"3679248384"	"396.60965802602436"	" "	"31.602363189324649"	"16"	"731758592"
"06/09/2016 14:25:59.780"	"2046.6198921117486"	"1873.076100090577"	"29.921343451926148"	"31.916099682054558"	"1410"	" "	" "	"3679248384"	"403.63949042705525"	" "	"29.610618988857329"	"16"	"731758592"
"06/09/2016 14:26:00.786"	"2396.5724083988216"	"2044.5447600282064"	"33.810565097742717"	"32.816136712514989"	"1410"	" "	" "	"3679240192"	"397.75855101332968"	" "	"24.859909438333105"	"16"	"731758592"
"06/09/2016 14:26:01.788"	"2047.4157937487071"	"1766.0457870054636"	"29.93297944077057"	"29.93297944077057"	"1410"	" "	" "	"3679256576"	"399.10703791337261"	" "	"29.621225470133123"	"16"	"731758592"
"06/09/2016 14:26:02.793"	"2041.6695679084476"	"1761.0892471724912"	"29.848970291059175"	"29.848970291059175"	"1410"	" "	" "	"3679252480"	"397.98551671006862"	" "	"32.647249417622817"	"16"	"731758592"
"06/09/2016 14:26:03.780"	"2030.4251869758225"	"1793.3396112511007"	"29.382400410328767"	"30.395586631374588"	"1410"	" "	" "	"3679252480"	"403.68995031251114"	" "	"37.994348264706929"	"16"	"731758592"
"06/09/2016 14:26:04.785"	"2029.4373737161407"	"1034.1272345713928"	"31.849924452631928"	"18.910892643750206"	"1410"	" "	" "	"3679252480"	"395.00327697206785"	" "	"27.992358210618985"	"16"	"731758592"
"06/09/2016 14:26:05.788"	"1949.8901888753385"	"849.33867122790809"	"30.903167615099942"	"15.950021994890294"	"1410"	" "	" "	"3679285248"	"394.09376503163969"	" "	"17.134511523114767"	"16"	"731758592"
"06/09/2016 14:26:06.780"	"2340.6176738694976"	"1143.0923523548709"	"33.264592264295182"	"17.136305105849036"	"1410"	" "	" "	"3683463168"	"403.20198826964457"	" "	"28.350139800209384"	"16"	"735936512"
"06/09/2016 14:26:07.793"	"2221.1901093380511"	"1118.9824895554641"	"31.576225454827913"	"16.774869772877327"	"1410"	" "	" "	"3683463168"	"391.6355044043267"	" "	"24.669953033343415"	"16"	"735936512"
"06/09/2016 14:26:08.779"	"1923.5255669238272"	"821.75934029973632"	"30.435531122212456"	"15.217765561106228"	"1410"	" "	" "	"3683467264"	"405.79219665663749"	" "	"19.021509218279885"	"16"	"735936512"
"06/09/2016 14:26:09.785"	"2137.6488735254229"	"1685.4730309154427"	"31.801377941800805"	"28.819998759756981"	"1410"	" "	" "	"3679563776"	"395.96961934741722"	" "	"29.503618696474227"	"16"	"732037120"
"06/09/2016 14:26:10.787"	"2132.6744215470139"	"1767.2442538100256"	"30.951735518706666"	"29.953292437458064"	"1409"	" "	" "	"3679494144"	"393.11598254335405"	" "	"21.839776807964114"	"16"	"732037120"
"06/09/2016 14:26:11.787"	"2051.578527348865"	"1769.6364490289916"	"29.993838119135454"	"29.993838119135454"	"1409"	" "	" "	"3679494144"	"399.94188844360912"	" "	"20.309549022527026"	"16"	"732037120"
"06/09/2016 14:26:12.793"	"2040.5209445533599"	"1760.0984755650325"	"29.832177551949705"	"29.832177551949705"	"1409"	" "	" "	"3679494144"	"394.65408414149374"	" "	"26.413856025218085"	"16"	"732037120"
"06/09/2016 14:26:13.779"	"2188.3331870941779"	"1794.8793981263648"	"31.435740871139721"	"30.421684714006183"	"1409"	" "	" "	"3679494144"	"404.02856854002744"	" "	"31.68851517961"	"16"	"732037120"
"06/09/2016 14:26:14.785"	"2123.2558191020757"	"1759.4395130199782"	"30.815042318429001"	"29.82100869525387"	"1409"	" "	" "	"3679494144"	"396.07062157254467"	" "	"29.511144352464107"	"16"	"732037120"
"06/09/2016 14:26:15.787"	"2819.7532853334187"	"2412.6551464742415"	"34.922634460958825"	"33.924844904931433"	"1409"	" "	" "	"3679494144"	"395.99758814394943"	" "	"26.503775584437562"	"16"	"732037120"
"06/09/2016 14:26:16.787"	"2112.1277403820613"	"1770.1070551497389"	"31.00187497719882"	"30.001814494063375"	"1408"	" "	" "	"3679465472"	"396.88452522860547"	" "	"26.563137515300365"	"16"	"732037120"
"06/09/2016 14:26:17.792"	"2058.454311857708"	"1813.8264081296907"	"29.832671186343596"	"30.827093559221716"	"1408"	" "	" "	"3679465472"	"397.77298837001285"	" "	"26.41461250894616"	"16"	"732037120"
"06/09/2016 14:26:18.779"	"2013.8867742201357"	"1959.1285235615821"	"29.407208687000974"	"33.463375402449387"	"1410"	" "	" "	"3679653888"	"405.61628476372391"	" "	"26.935456410091042"	"16"	"732037120"
"06/09/2016 14:26:19.784"	"2040.9346378227674"	"1814.1641225091266"	"29.838225699163264"	"30.832833222468707"	"1410"	" "	" "	"3679653888"	"393.17504319517377"	" "	"18.648618649573461"	"16"	"732037120"
"06/09/2016 14:26:20.787"	"2199.8236524910167"	"1765.0443630594284"	"31.910406563786278"	"29.916006153549635"	"1410"	" "	" "	"3679653888"	"398.89533913732703"	" "	"18.698219022062204"	"16"	"732037120"
"06/09/2016 14:26:21.786"	"2053.9810064852386"	"1771.708762903934"	"30.028962083117527"	"30.028962083117527"	"1410"	" "	" "	"3678572544"	"398.82216397715592"	" "	"23.46012729277388"	"16"	"730988544"
"06/09/2016 14:26:22.784"	"1989.3822388847182"	"1827.106346286871"	"29.049388181096088"	"31.052794262550989"	"1410"	" "	" "	"3678572544"	"399.11759638423871"	" "	"28.173006803593324"	"16"	"730988544"
"06/09/2016 14:26:23.786"	"2048.8490612757932"	"1767.2820850185935"	"29.953933644382939"	"29.953933644382939"	"1410"	" "	" "	"3678572544"	"399.36473052315682"	" "	"18.720221743272976"	"16"	"730988544"
"06/09/2016 14:26:24.792"	"3011.3883354254517"	"2403.1475231216973"	"37.766586384873655"	"33.791156239097482"	"1410"	" "	" "	"3678572544"	"396.00015862368707"	" "	"26.400010574912468"	"16"	"730988544"
"06/09/2016 14:26:25.778"	"2075.222869951227"	"1892.651942976046"	"30.428487829196879"	"32.457053684476669"	"1410"	" "	" "	"3678478336"	"399.38285586077478"	" "	"25.357641641953954"	"16"	"730988544"
"06/09/2016 14:26:26.794"	"2202.9935020324851"	"1787.5943698351175"	"32.483818394580879"	"30.515102128242646"	"1410"	" "	" "	"3678265344"	"398.34940249189174"	" "	"26.146485877846175"	"16"	"730988544"
"06/09/2016 14:26:27.783"	"2006.4806938216932"	"1788.2531863365543"	"29.299063504949196"	"30.309376039602615"	"1410"	" "	" "	"3678265344"	"402.55629498779717"	" "	"31.573042744140949"	"16"	"730988544"
"06/09/2016 14:26:28.785"	"2076.0359681302489"	"1820.5238489757567"	"29.942826463417049"	"30.940920678864284"	"1410"	" "	" "	"3678269440"	"394.55018957871494"	" "	"26.511277560625118"	"16"	"730988544"
"06/09/2016 14:26:29.778"	"2108.0731600670706"	"1714.0690464981296"	"31.238177802141106"	"29.222811492325551"	"1410"	" "	" "	"3678273536"	"395.20022991269343"	" "	"23.617543620280486"	"16"	"730988544"
"06/09/2016 14:26:30.785"	"1943.2303334086005"	"849.54298539211538"	"30.766159517705113"	"15.879308138170382"	"1410"	" "	" "	"3678240768"	"396.99175527522647"	" "	"24.811984704701654"	"16"	"730988544"
"06/09/2016 14:26:31.785"	"1843.1091111166581"	"856.0506777622677"	"29.001716886805795"	"16.000947247892853"	"1410"	" "	" "	"3683205120"	"396.88972460878296"	" "	"35.938833330716569"	"16"	"735936512"
"06/09/2016 14:26:32.792"	"1945.7069738941248"	"858.57549818412861"	"30.805370883921281"	"15.899546262669048"	"1410"	" "	" "	"3683205120"	"389.73389131384459"	" "	"18.632695999068265"	"16"	"735936512"
"06/09/2016 14:26:33.778"	"2766.2868496239994"	"1423.7048155689497"	"36.505251681255125"	"18.252625840627562"	"1410"	" "	" "	"3683360768"	"391.33601952292065"	" "	"31.687127086876167"	"16"	"735936512"
"06/09/2016 14:26:34.783"	"1907.832105859218"	"986.74111001686356"	"29.840960988413212"	"17.904576593047928"	"1410"	" "	" "	"3679461376"	"402.55620642072608"	" "	"24.868337076183852"	"16"	"732037120"
"06/09/2016 14:26:35.785"	"2066.4681884046863"	"1766.9800451576302"	"30.947108135529117"	"29.948814324705598"	"1408"	" "	" "	"3679461376"	"393.07128381423797"	" "	"26.516713590643036"	"16"	"732037120"
"06/09/2016 14:26:36.785"	"2051.8345414921355"	"1823.8529257707871"	"28.997661648767998"	"30.997500383165793"	"1408"	" "	" "	"3679318016"	"398.41698152545143"	" "	"28.123551637090689"	"16"	"732037120"
"06/09/2016 14:26:37.792"	"2038.2917098425833"	"1816.7814509269419"	"29.799586401207357"	"30.792905947914271"	"1408"	" "	" "	"3679318016"	"395.77048187672909"	" "	"21.728575475585128"	"16"	"732037120"
"06/09/2016 14:26:38.794"	"2065.9316372959593"	"2035.9905990742789"	"29.941038221680571"	"34.931211258627336"	"1408"	" "	" "	"3679318016"	"402.34196207341267"	" "	"31.189299385535868"	"16"	"732037120"
"06/09/2016 14:26:39.784"	"2333.0857776319808"	"2108.8671444569591"	"32.319802980183283"	"35.349784509575464"	"1408"	" "	" "	"3679318016"	"399.24925737744456"	" "	"28.405085505114631"	"16"	"732037120"
"06/09/2016 14:26:40.785"	"1983.8561841757012"	"1768.0893484345372"	"28.968695539322926"	"29.967616075161647"	"1408"	" "	" "	"3679318016"	"394.88574697324606"	" "	"28.094638124578768"	"16"	"732037120"
"06/09/2016 14:26:41.785"	"2136.1647396013677"	"1770.1365117483244"	"31.002390883727717"	"30.002313758446178"	"1408"	" "	" "	"3679318016"	"395.34313909327972"	" "	"29.68980095957437"	"16"	"732037120"
"06/09/2016 14:26:42.791"	"2869.1670864402781"	"2462.5526240861295"	"35.790026026282057"	"34.795858636663112"	"1408"	" "	" "	"3679318016"	"397.67985618305681"	" "	"31.068738764301312"	"16"	"732037120"
"06/09/2016 14:26:43.793"	"2217.9169274425121"	"1765.158705743366"	"31.912473776151252"	"29.917944165141797"	"1408"	" "	" "	"3679318016"	"402.02068936837401"	" "	"28.04795507221214"	"16"	"732037120"
"06/09/2016 14:26:44.783"	"2133.6145231946139"	"1825.4931076764524"	"31.317258626436097"	"31.317258626436097"	"1408"	" "	" "	"3679318016"	"397.77918491989055"	" "	"18.941865948566218"	"16"	"732037120"
"06/09/2016 14:26:45.783"	"2004.999603965975"	"1824.909819178612"	"29.014465326852932"	"31.015462935601409"	"1408"	" "	" "	"3679318016"	"400.18800832631172"	" "	"29.701453742968447"	"16"	"732037120"
"06/09/2016 14:26:46.784"	"2539.1957082910903"	"1821.2713220302589"	"33.94913648521316"	"30.953624442400233"	"1408"	" "	" "	"3679776768"	"396.28164748921438"	" "	"24.962623463887521"	"16"	"732037120"
"06/09/2016 14:26:47.783"	"2054.4462491021386"	"1880.2388186227176"	"30.03576387576226"	"32.038148134146411"	"1408"	" "	" "	"3679776768"	"394.21979172579967"	" "	"23.46546379320236"	"16"	"732037120"
"06/09/2016 14:26:48.784"	"1983.2488609499314"	"1929.3236653349786"	"28.959827274696885"	"32.954286209137834"	"1408"	" "	" "	"3679772672"	"394.76488215547391"	" "	"28.086039046634507"	"16"	"732037120"
"06/09/2016 14:26:49.791"	"2182.059379483318"	"2032.0179558485363"	"31.796857988827952"	"34.77781342528057"	"1408"	" "	" "	"3679735808"	"394.36619998219328"	" "	"26.394588187784588"	"16"	"732037120"
"06/09/2016 14:26:50.793"	"2404.296851306553"	"2089.9118333897559"	"31.937525629642877"	"31.937525629642877"	"1408"	" "	" "	"3679735808"	"396.10157207037537"	" "	"26.510735138568432"	"16"	"732037120"
"06/09/2016 14:26:51.793"	"2529.043701497581"	"2094.0361846326355"	"34.00058752507622"	"32.000552964777619"	"1408"	" "	" "	"3679703040"	"395.31036532402726"	" "	"24.999865000728995"	"16"	"732037120"
"06/09/2016 14:26:52.782"	"2091.5301931094154"	"1728.7962127585554"	"30.312031784194424"	"29.301630724721278"	"1408"	" "	" "	"3679703040"	"402.57919449504556"	" "	"28.417354905532626"	"16"	"732037120"
"06/09/2016 14:26:53.784"	"1982.8097659625791"	"1767.1567400572835"	"28.953415515062837"	"29.951809153513278"	"1408"	" "	" "	"3679703040"	"397.80622130740727"	" "	"26.520414753827154"	"16"	"732037120"
"06/09/2016 14:26:54.790"	"2105.4897930554034"	"1813.2263373621604"	"30.81689498806303"	"30.81689498806303"	"1408"	" "	" "	"3679703040"	"394.53748376990842"	" "	"27.959349243536817"	"16"	"732037120"
"06/09/2016 14:26:55.792"	"2064.8863943237384"	"1878.3483480732364"	"29.9258897728078"	"31.920949090994988"	"1408"	" "	" "	"3679703040"	"397.45245383840688"	" "	"29.614104403646003"	"16"	"732037120"
"06/09/2016 14:26:56.792"	"2052.0407121359758"	"1770.0351171933125"	"30.000595206666315"	"30.000595206666315"	"1408"	" "	" "	"3679719424"	"400.0094802246814"	" "	"14.062833289148951"	"16"	"732037120"
"06/09/2016 14:26:57.782"	"6542.4850954705453"	"3158.0577576993287"	"41.433717781015197"	"44.465453228406552"	"1408"	" "	" "	"3680141312"	"402.64725760774047"	" "	"23.685132800455317"	"16"	"732037120"
"06/09/2016 14:26:58.784"	"2041.6625661868156"	"2143.446330483519"	"29.936401263736297"	"36.921561558608104"	"1408"	" "	" "	"3680243712"	"397.58067388970034"	" "	"29.623658054526693"	"16"	"732037120"
"06/09/2016 14:26:59.790"	"2688.4184911962216"	"2238.0288549122392"	"34.798316269181861"	"33.804078661490948"	"1408"	" "	" "	"3680247808"	"393.03677775313156"	" "	"24.856080806522158"	"16"	"732037120"
"06/09/2016 14:27:00.792"	"2463.9719636942405"	"2310.2855795675036"	"32.932796598586449"	"35.926687198457941"	"1408"	" "	" "	"3680301056"	"399.18570108834984"	" "	"20.271148883392769"	"16"	"732037120"
"06/09/2016 14:27:01.790"	"2427.6527118168783"	"1826.748575228542"	"39.05876887824185"	"31.046713723730701"	"1408"	" "	" "	"3680251904"	"399.04608518451494"	" "	"15.648866085667251"	"16"	"732037120"
"06/09/2016 14:27:02.791"	"2441.1009014841766"	"1865.3129738613734"	"38.985640932793977"	"31.988218201266854"	"1408"	" "	" "	"3680247808"	"399.8505358696919"	" "	"28.114490803337709"	"16"	"732037120"
"06/09/2016 14:27:03.784"	"2251.5140586706466"	"2049.1194585844214"	"32.22202588437419"	"35.24284081103427"	"1408"	" "	" "	"3680247808"	"394.90249413744436"	" "	"34.612967613640535"	"16"	"732037120"
"06/09/2016 14:27:04.790"	"2040.5449692449172"	"1974.9134059066303"	"29.832528790130368"	"33.810199295481084"	"1408"	" "	" "	"3680247808"	"394.65714524088975"	" "	"20.198987748549477"	"16"	"732037120"
"06/09/2016 14:27:05.792"	"2051.6223680786284"	"1825.1056961166398"	"29.936124047839908"	"30.933994849434573"	"1408"	" "	" "	"3680247808"	"396.02983273396245"	" "	"29.624278826556242"	"16"	"732037120"
"06/09/2016 14:27:06.792"	"2069.4629376186481"	"1877.5127521003965"	"29.992216487226781"	"31.991697586375235"	"1408"	" "	" "	"3680247808"	"399.90634193471891"	" "	"17.183475630007454"	"16"	"732037120"
"06/09/2016 14:27:07.782"	"2005.9515026931638"	"1728.1888323806661"	"29.291336142045189"	"29.291336142045189"	"1408"	" "	" "	"3680247808"	"402.43069909793911"	" "	"29.985032481807227"	"16"	"732037120"
"06/09/2016 14:27:08.789"	"2517.0417669238273"	"2293.6356929365052"	"33.759140069195318"	"35.744971837971512"	"1408"	" "	" "	"3680243712"	"395.61659542796048"	" "	"27.925877324326621"	"16"	"732037120"
"06/09/2016 14:27:09.792"	"2540.0820953822799"	"2416.4188916809048"	"33.907652627796438"	"37.896788231066608"	"1408"	" "	" "	"3679383552"	"397.35986005951861"	" "	"29.607205259336677"	"16"	"732037120"
"06/09/2016 14:27:10.782"	"2450.6878197382553"	"1837.5107766297963"	"43.437582954964952"	"31.315466781486357"	"1408"	" "	" "	"3679383552"	"402.49655702866704"	" "	"23.676268060509823"	"16"	"732037120"
"06/09/2016 14:27:11.782"	"2419.7034437081857"	"1823.7764798858391"	"33.995833506643933"	"30.99620113841064"	"1408"	" "	" "	"3679404032"	"396.81734244014348"	" "	"15.622730017328482"	"16"	"732037120"
"06/09/2016 14:27:12.789"	"2103.166244262914"	"1972.090727623299"	"30.782886483545958"	"33.761875498082667"	"1408"	" "	" "	"3679404032"	"397.19776973452292"	" "	"18.618645456305764"	"16"	"732037120"
"06/09/2016 14:27:13.792"	"2236.2502031558902"	"1932.0324012100623"	"31.917933318906552"	"32.915368735122385"	"1407"	" "	" "	"3679346688"	"398.97113324159659"	" "	"24.935695827599787"	"16"	"732037120"
"06/09/2016 14:27:14.781"	"2006.8888025869039"	"1838.1322919967665"	"29.305022797089734"	"31.32605885206144"	"1407"	" "	" "	"3679346688"	"402.63789909089604"	" "	"11.052805073083421"	"16"	"732037120"
"06/09/2016 14:27:15.782"	"2049.0958824792551"	"1821.4185622037824"	"29.957542141509581"	"30.9561268795599"	"1407"	" "	" "	"3679346688"	"399.43787108402347"	" "	"26.525171126673431"	"16"	"732037120"
"06/09/2016 14:27:16.783"	"2051.2379306682774"	"1769.3426594945668"	"29.988858635501131"	"29.988858635501131"	"1407"	" "	" "	"3679408128"	"398.28479760859688"	" "	"21.866616339295515"	"16"	"732037120"
"06/09/2016 14:27:17.789"	"2953.1760197019885"	"2569.3625706767471"	"36.790408326253726"	"36.790408326253726"	"1407"	" "	" "	"3679408128"	"393.06495458965634"	" "	"32.625944847362781"	"16"	"732037120"
"06/09/2016 14:27:18.790"	"2049.3584817141277"	"1875.5824701067895"	"29.961381311610058"	"31.958806732384062"	"1407"	" "	" "	"3679420416"	"399.49428019070655"	" "	"28.089441575909056"	"16"	"732037120"
"06/09/2016 14:27:19.791"	"2049.6532492916172"	"1880.8465245692569"	"29.96569077911721"	"31.963403497725025"	"1407"	" "	" "	"3679420416"	"397.9697263836087"	" "	"26.531315092240582"	"16"	"732037120"
"06/09/2016 14:27:20.781"	"2093.9942898460449"	"1891.0565597307821"	"30.28921345003922"	"32.3084943467085"	"1407"	" "	" "	"3679420416"	"402.28600933692258"	" "	"20.508698515215663"	"16"	"732037120"
"06/09/2016 14:27:21.782"	"2050.4344658028858"	"1930.5260175103192"	"29.977112073141601"	"32.974823280455766"	"1407"	" "	" "	"3679383552"	"399.69163790135906"	" "	"26.542022829387129"	"16"	"732037120"
"06/09/2016 14:27:22.791"	"2101.9996395696667"	"2134.719445279949"	"30.736787182386632"	"36.685842766074366"	"1407"	" "	" "	"3679383552"	"393.50685676092621"	" "	"15.492395935469535"	"16"	"732037120"
"06/09/2016 14:27:23.781"	"2005.8743523081616"	"1946.2839259304269"	"29.290209575496821"	"33.330238482461901"	"1407"	" "	" "	"3679383552"	"400.84509002513596"	" "	"22.093823859653163"	"16"	"732037120"
"06/09/2016 14:27:24.782"	"2318.6744930275004"	"1982.1571355123119"	"31.954170446546087"	"32.952738273000655"	"1407"	" "	" "	"3679383552"	"397.87959323436678"	" "	"23.404681954962751"	"16"	"732037120"
"06/09/2016 14:27:25.789"	"2283.2274632890399"	"2114.3202967271873"	"33.781433312370474"	"36.762148016403167"	"1407"	" "	" "	"3679383552"	"397.42492494133512"	" "	"32.601263374093897"	"16"	"732037120"
"06/09/2016 14:27:26.788"	"2887.3850088745803"	"2519.2084034463592"	"36.017276617978133"	"36.017276617978133"	"1407"	" "	" "	"3679383552"	"397.05633562848152"	" "	"18.758567037566056"	"16"	"732037120"
"06/09/2016 14:27:27.791"	"2124.7510603313963"	"2093.8274533500471"	"30.923606981348957"	"35.911285526727823"	"1407"	" "	" "	"3679383552"	"397.46514127837662"	" "	"17.145555113969184"	"16"	"732037120"
"06/09/2016 14:27:28.781"	"2005.9994815556304"	"1946.4053378437563"	"29.292036739734787"	"33.33231766935338"	"1407"	" "	" "	"3679383552"	"400.86553624016358"	" "	"25.251372361585105"	"16"	"732037120"
"06/09/2016 14:27:29.782"	"2169.7226787524369"	"2091.8044610071834"	"31.966448305744926"	"35.962254343963039"	"1407"	" "	" "	"3679383552"	"399.57688803326158"	" "	"31.216944377598558"	"16"	"732037120"
"06/09/2016 14:27:30.788"	"2039.8017644729246"	"1866.836117777852"	"29.821663223288372"	"31.80977410484093"	"1407"	" "	" "	"3679383552"	"397.63154745076423"	" "	"29.511716412361409"	"16"	"732037120"
"06/09/2016 14:27:31.790"	"2190.8807446471938"	"2147.9809850753227"	"31.925402472090255"	"36.913746608354359"	"1407"	" "	" "	"3679399936"	"399.0703257690883"	" "	"34.295106120781028"	"16"	"732037120"
"06/09/2016 14:27:32.780"	"2127.1859078969187"	"1883.7614996333111"	"31.311853345111338"	"32.321913130437508"	"1407"	" "	" "	"3679399936"	"404.02289638156088"	" "	"28.407859901828498"	"16"	"732037120"
"06/09/2016 14:27:33.782"	"2048.9328559720489"	"2144.7893638537821"	"29.955158713041648"	"36.944695746084697"	"1407"	" "	" "	"3679399936"	"397.83990467918142"	" "	"29.642973289821363"	"16"	"732037120"
"06/09/2016 14:27:34.780"	"2224.1229975655629"	"2308.2411118363898"	"31.043589790424335"	"39.054838768598358"	"1407"	" "	" "	"3679399936"	"394.28279433999165"	" "	"28.16305673857083"	"16"	"732037120"
"06/09/2016 14:27:35.790"	"2923.230978565693"	"2608.3300804681689"	"36.639412671724472"	"37.629667068257561"	"1407"	" "	" "	"3679399936"	"394.56664340157317"	" "	"17.020521872224727"	"16"	"732037120"
"06/09/2016 14:27:36.790"	"2112.1561292321162"	"2094.1547985852517"	"31.00229166960019"	"36.002661293729254"	"1407"	" "	" "	"3679399936"	"396.90456939041957"	" "	"20.314013393997854"	"16"	"732037120"
"06/09/2016 14:27:37.780"	"2005.5424788403968"	"2060.0738453345466"	"29.285363487598946"	"35.344404209171138"	"1407"	" "	" "	"3679399936"	"399.18773469083163"	" "	"15.778171331653427"	"16"	"732037120"
"06/09/2016 14:27:38.781"	"2067.8501161662207"	"1983.9373578290406"	"30.967803672054512"	"33.964687898382365"	"1407"	" "	" "	"3679404032"	"396.46521355526926"	" "	"15.6088666754043"	"16"	"732037120"
"06/09/2016 14:27:39.788"	"2098.2316904639051"	"2014.7792936840908"	"31.791389249453111"	"34.771831991589337"	"1407"	" "	" "	"3679404032"	"397.41296084876285"	" "	"21.733521296416715"	"16"	"732037120"
"06/09/2016 14:27:40.790"	"2048.6481128639612"	"1928.8441296555425"	"31.947728855578344"	"32.946095382315164"	"1407"	" "	" "	"3679404032"	"396.23013545454768"	" "	"29.639262100930736"	"16"	"732037120"
"06/09/2016 14:27:41.790"	"2134.7301027284011"	"1930.8513850520931"	"29.982164364162937"	"32.980380800579233"	"1407"	" "	" "	"3679404032"	"398.19042284262616"	" "	"24.984497119537327"	"16"	"732037120"
"06/09/2016 14:27:42.780"	"2006.8823130725525"	"1952.3145160403683"	"29.304928035802632"	"33.346987075223687"	"1407"	" "	" "	"3679404032"	"401.04741711821453"	" "	"25.262829424769418"	"16"	"732037120"
"06/09/2016 14:27:43.781"	"2221.1796592835717"	"1929.549955816484"	"31.959419558037002"	"32.958151419225658"	"1407"	" "	" "	"3679404032"	"397.93017881502874"	" "	"24.968168082511603"	"16"	"732037120"
"06/09/2016 14:27:44.787"	"2867.9590871581736"	"2563.8719490187414"	"35.774957428168484"	"36.768706245617608"	"1407"	" "	" "	"3679371264"	"395.95006251725408"	" "	"31.054906864098363"	"16"	"732037120"
"06/09/2016 14:27:45.780"	"2085.9868652084419"	"2055.7551715097688"	"30.231693698673073"	"35.270309315118588"	"1407"	" "	" "	"3679371264"	"403.07830904618572"	" "	"20.468820381251618"	"16"	"732037120"
"06/09/2016 14:27:46.781"	"2049.82687431673"	"1768.1255202439631"	"29.968229156677342"	"29.968229156677342"	"1407"	" "	" "	"3679371264"	"399.5959685162332"	" "	"21.852904528231505"	"16"	"732037120"
"06/09/2016 14:27:47.787"	"2104.5511922586893"	"1973.3893615796774"	"30.803157204919437"	"33.784107902169701"	"1407"	" "	" "	"3679371264"	"395.89329176050114"	" "	"26.392886117366743"	"16"	"732037120"
"06/09/2016 14:27:48.789"	"2065.7706603223774"	"1981.9422857005998"	"29.93870522206344"	"33.930532585005231"	"1407"	" "	" "	"3679379456"	"399.19609889604317"	" "	"28.068475703628032"	"16"	"732037120"
"06/09/2016 14:27:49.779"	"2065.9432872569355"	"2005.3584401233011"	"30.292423566817238"	"34.3314133757262"	"1407"	" "	" "	"3679379456"	"400.73265288297802"	" "	"31.553752195510075"	"16"	"732037120"
"06/09/2016 14:27:50.781"	"2048.7004734733518"	"1874.9802578864303"	"29.951761308089939"	"31.948545395295934"	"1407"	" "	" "	"3679379456"	"397.78842862101908"	" "	"31.199092440864241"	"16"	"732037120"
"06/09/2016 14:27:51.781"	"2052.0223258100095"	"1878.020432685769"	"30.000326400731137"	"32.000348160779879"	"1407"	" "	" "	"3679363072"	"400.00540007290101"	" "	"31.250421880695388"	"16"	"732037120"
"06/09/2016 14:27:52.787"	"2538.4695198565664"	"2189.4672474438539"	"33.806487926017724"	"33.806487926017724"	"1407"	" "	" "	"3679346688"	"396.17719027631654"	" "	"20.197268523890646"	"16"	"732037120"
"06/09/2016 14:27:53.789"	"2463.9861272292846"	"2466.9800350387977"	"32.932985904644141"	"38.920801523670349"	"1407"	" "	" "	"3679346688"	"396.079434847166"	" "	"26.509253513392999"	"16"	"732037120"
"06/09/2016 14:27:54.779"	"2006.0137459843709"	"1842.3812047711442"	"29.292245031997361"	"31.312399861790283"	"1407"	" "	" "	"3679346688"	"397.71787212302257"	" "	"36.299647058847299"	"16"	"732037120"
"06/09/2016 14:27:55.780"	"2067.836895869189"	"1929.9811028112429"	"29.968650664770852"	"32.96551573124794"	"1407"	" "	" "	"3679346688"	"396.44846110070176"	" "	"29.655593546902885"	"16"	"732037120"
"06/09/2016 14:27:56.780"	"2051.5010792482021"	"2093.4908674199487"	"29.992705836962017"	"35.99124700435442"	"1407"	" "	" "	"3679031296"	"399.89522745040802"	" "	"23.431360983422344"	"16"	"732037120"
"06/09/2016 14:27:57.787"	"2217.8520007554944"	"2080.7267426442672"	"32.7908225918151"	"35.771806463798292"	"1407"	" "	" "	"3679047680"	"395.90926303717089"	" "	"27.946536214388534"	"16"	"732037120"
"06/09/2016 14:27:58.789"	"2442.093700889202"	"1981.208370084132"	"38.905904548479931"	"33.917968067905583"	"1407"	" "	" "	"3679039488"	"397.49662548747119"	" "	"29.617395624556675"	"16"	"732037120"
"06/09/2016 14:27:59.779"	"2322.2305010315545"	"1897.8019499291818"	"37.390134263780467"	"32.337413417323653"	"1407"	" "	" "	"3679039488"	"397.89350379107879"	" "	"31.578849507228473"	"16"	"732037120"
"06/09/2016 14:28:00.780"	"2231.8363221316081"	"2251.7990799324275"	"31.940412481311029"	"38.927377711597813"	"1407"	" "	" "	"3679043584"	"397.69444769392868"	" "	"29.632135318371155"	"16"	"732037120"
"06/09/2016 14:28:01.780"	"2470.2196851336521"	"2365.1678151704955"	"33.016301988420622"	"37.018277987017065"	"1407"	" "	" "	"3679047680"	"397.0805686103696"	" "	"29.702877179515834"	"16"	"732037120"
"06/09/2016 14:28:02.786"	"2596.2734967378447"	"2444.2528901550318"	"34.775955754238254"	"38.750350697579769"	"1407"	" "	" "	"3679043584"	"394.32623296063565"	" "	"18.629585809163888"	"16"	"732037120"
"06/09/2016 14:28:03.788"	"2048.7692008351555"	"1821.1281785201384"	"29.952766094081223"	"30.951191630550596"	"1407"	" "	" "	"3679047680"	"399.37836757087592"	" "	"17.160789231561075"	"16"	"732041216"
"06/09/2016 14:28:04.778"	"2006.0331978050428"	"1896.9437791932883"	"29.292529071674846"	"32.322790699779141"	"1407"	" "	" "	"3679068160"	"399.30192553805068"	" "	"18.939221764650625"	"16"	"732041216"
"06/09/2016 14:28:05.779"	"2049.0317163404115"	"1929.2053001801535"	"29.956604040064494"	"32.952264444070941"	"1407"	" "	" "	"3679100928"	"400.97046710531902"	" "	"24.963141920953714"	"16"	"732041216"
"06/09/2016 14:28:06.778"	"2072.8037330171751"	"2259.0556626506027"	"31.041988272237887"	"39.052823955396057"	"1408"	" "	" "	"3679571968"	"392.72046093753829"	" "	"26.598596955928894"	"16"	"732041216"
"06/09/2016 14:28:07.788"	"2096.1870978285037"	"2018.9904058404852"	"30.680736559340705"	"34.63954127667499"	"1408"	" "	" "	"3679571968"	"400.50994100930836"	" "	"26.288297286325257"	"16"	"732041216"
"06/09/2016 14:28:08.778"	"2006.6020061158599"	"2061.1621815087383"	"29.300834933212457"	"35.363076643532274"	"1408"	" "	" "	"3679584256"	"401.00073617420196"	" "	"28.417375004471001"	"16"	"732041216"
"06/09/2016 14:28:09.779"	"2260.4065175890487"	"2145.487530178465"	"30.978161823722594"	"35.974639537226238"	"1408"	" "	" "	"3691794432"	"399.71907743238052"	" "	"29.666650278184491"	"16"	"732041216"
"06/09/2016 14:28:10.788"	"2505.7770597804874"	"2556.3087442600463"	"33.687789653039374"	"40.623511052194537"	"1408"	" "	" "	"3679506432"	"394.77728294346139"	" "	"20.125900699078425"	"16"	"732041216"
"06/09/2016 14:28:11.788"	"2536.5089053806905"	"2257.3428365044724"	"34.020237784198606"	"35.020833013145626"	"1408"	" "	" "	"3679522816"	"395.55149221159422"	" "	"25.015114131958526"	"16"	"732041216"
"06/09/2016 14:28:12.778"	"2005.5411826749882"	"2169.1351764279329"	"29.285344560712318"	"37.364060301598471"	"1408"	" "	" "	"3679522816"	"400.77380775661788"	" "	"17.356346005207861"	"16"	"732041216"
"06/09/2016 14:28:13.779"	"2239.5963068436995"	"2091.7549806113771"	"31.965692158340048"	"35.961403678132555"	"1407"	" "	" "	"3679465472"	"402.69540454243418"	" "	"15.60834901327264"	"16"	"732041216"
"06/09/2016 14:28:14.786"	"9447.13664391985"	"3964.3613457929191"	"43.695365534791698"	"49.653824471354199"	"1408"	" "	" "	"3679866880"	"395.67788416468181"	" "	"20.171813702513191"	"16"	"732041216"
"06/09/2016 14:28:15.788"	"9318.9715699774661"	"3208.4486611134671"	"42.912377115981052"	"44.908301633003425"	"1408"	" "	" "	"3679866880"	"397.62610417182697"	" "	"20.271134722485296"	"16"	"732041216"
"06/09/2016 14:28:16.789"	"2068.375759916687"	"2146.314556667171"	"29.97646028864764"	"36.970967689332085"	"1408"	" "	" "	"3679866880"	"399.69583147224961"	" "	"31.226236833769498"	"16"	"732041216"
"06/09/2016 14:28:17.778"	"2008.0491530595045"	"2062.6486768587056"	"29.321966484756107"	"35.388580240222886"	"1408"	" "	" "	"3679862784"	"399.69220729993043"	" "	"26.856788632801649"	"16"	"732041216"
"06/09/2016 14:28:18.779"	"2199.3831895816388"	"2139.4816955394699"	"30.949105255120656"	"35.940896425301403"	"1409"	" "	" "	"3679916032"	"402.47150701406127"	" "	"34.3192757918967"	"16"	"732041216"
"06/09/2016 14:28:19.786"	"2867.4484569564534"	"2509.7625787498273"	"35.768587820662624"	"35.768587820662624"	"1409"	" "	" "	"3679916032"	"395.87755777266307"	" "	"26.391837184844203"	"16"	"732041216"
"06/09/2016 14:28:20.787"	"2214.8071615819872"	"1875.296595784929"	"31.953935604429034"	"31.953935604429034"	"1409"	" "	" "	"3679916032"	"397.85265659480564"	" "	"26.523510439653709"	"16"	"732041216"
"06/09/2016 14:28:21.787"	"2052.1431562697112"	"1878.1310172877766"	"30.002092927919755"	"32.002232456447736"	"1409"	" "	" "	"3679883264"	"400.02752189350622"	" "	"28.12693513313716"	"16"	"732041216"
"06/09/2016 14:28:22.779"	"2001.4504233121772"	"1892.6102190232975"	"29.225610410902892"	"32.248949418927324"	"1409"	" "	" "	"3679883264"	"403.11381233197716"	" "	"22.045286611904999"	"16"	"732041216"
"06/09/2016 14:28:23.791"	"2112.3045413680588"	"2182.5169114228961"	"30.656105235210592"	"37.578451578645243"	"1409"	" "	" "	"3679883264"	"390.93531456342765"	" "	"38.629971794805108"	"16"	"732041216"
"06/09/2016 14:28:24.786"	"2176.8668253025394"	"2037.1694620906037"	"32.160544048790982"	"35.175595053365136"	"1409"	" "	" "	"3679883264"	"397.28733588923825"	" "	"29.835807833579153"	"16"	"732041216"
"06/09/2016 14:28:25.787"	"2288.6845486609272"	"2132.9102076525919"	"33.950817912073092"	"36.946478316079542"	"1409"	" "	" "	"3682136064"	"394.74320135500579"	" "	"32.765245962273212"	"16"	"734294016"
"06/09/2016 14:28:26.787"	"2052.4216458599053"	"2148.4413719820059"	"30.006164413156508"	"37.007602776226364"	"1407"	" "	" "	"3681746944"	"400.08013605125103"	" "	"37.507512754804786"	"16"	"734294016"
"06/09/2016 14:28:27.793"	"2056.9370814020153"	"1970.4861026184526"	"29.810682339159644"	"33.785439984380929"	"1407"	" "	" "	"3681746944"	"397.47424987914297"	" "	"29.500041983217645"	"16"	"734294016"
"06/09/2016 14:28:28.779"	"2870.600504150183"	"2666.716864102767"	"35.502126376415688"	"38.545165780108462"	"1407"	" "	" "	"3677356032"	"399.3989388312537"	" "	"23.773746359003198"	"16"	"729907200"
"06/09/2016 14:28:29.785"	"2040.948928499135"	"1867.8860076614892"	"29.838434627180337"	"31.827663602325693"	"1407"	" "	" "	"3677356032"	"396.29497086949118"	" "	"26.419664724632746"	"16"	"729907200"
"06/09/2016 14:28:30.787"	"2226.8636497580796"	"1819.8025524904738"	"32.92405933782107"	"30.928661802195553"	"1407"	" "	" "	"3677339648"	"391.28910022588138"	" "	"21.824890052439599"	"16"	"729907200"
"06/09/2016 14:28:31.787"	"2489.1079114321878"	"1769.3658647530008"	"36.986744065458211"	"29.989251944966117"	"1413"	" "	" "	"3677233152"	"398.28901785414399"	" "	"18.743012604900894"	"16"	"727924736"
