"(PDH-TSV 4.0) (Rom, sommertid)(-120)"	"\\AM-WORK\Netværkskort(Broadcom 802.11 netværksadapter)\Afsendte byte pr. sekund"	"\\AM-WORK\Netværkskort(Broadcom 802.11 netværksadapter)\Afsendte pakker pr. sekund"	"\\AM-WORK\Netværkskort(Broadcom 802.11 netværksadapter)\Modtagne byte pr. sekund"	"\\AM-WORK\Netværkskort(Broadcom 802.11 netværksadapter)\Modtagne pakker pr. sekund"	"\\AM-WORK\Proces(_Total)\% Processortid"	"\\AM-WORK\Proces(WaterGun)\% Processortid"	"\\AM-WORK\Proces(_Total)\Antal tråde"	"\\AM-WORK\Proces(WaterGun)\Antal tråde"	"\\AM-WORK\Proces(WaterGun)\Private byte"	"\\AM-WORK\Proces(_Total)\Private byte"	"\\AM-WORK\Proces(Gang Garrison 2)\% Processortid"	"\\AM-WORK\Proces(Gang Garrison 2)\Private byte"	"\\AM-WORK\Proces(Gang Garrison 2)\Antal tråde"
"06/09/2016 14:22:59.719"	" "	" "	" "	" "	" "	" "	"2084"	" "	" "	"2839506944"	" "	"310312960"	"18"
"06/09/2016 14:23:00.715"	"2377.5584651668842"	"32.306526915218804"	"1756.6674010150225"	"29.277790016917042"	"807.47186011034501"	" "	"2085"	" "	" "	"2839543808"	"23.656402151670267"	"310312960"	"18"
"06/09/2016 14:23:01.721"	"2093.8587202422809"	"30.821282206795207"	"1908.9310270015096"	"31.815517116691829"	"795.41578023377872"	" "	"2085"	" "	" "	"2840612864"	"27.963836023843779"	"310312960"	"18"
"06/09/2016 14:23:02.713"	"2069.0413703733698"	"30.249142841715933"	"1754.4502848195243"	"29.240838080325403"	"806.70736841468397"	" "	"2086"	" "	" "	"2840600576"	"34.663207236568446"	"310312960"	"18"
"06/09/2016 14:23:03.722"	"2115.5732468705719"	"30.703544313196499"	"1842.2126587917901"	"30.703544313196499"	"790.78515117063694"	" "	"2086"	" "	" "	"2840391680"	"44.878217972501893"	"310312960"	"18"
"06/09/2016 14:23:04.717"	"1996.2488593404898"	"29.149656052806748"	"1809.2889963811085"	"30.154816606351808"	"793.12703813231667"	" "	"2085"	" "	" "	"2840158208"	"32.981520397581491"	"310312960"	"18"
"06/09/2016 14:23:05.726"	"2098.7759611893821"	"30.718628327134489"	"1783.6622899626477"	"29.727704832710796"	"791.19051139185524"	" "	"2085"	" "	" "	"2839805952"	"51.094494864836051"	"310312960"	"18"
"06/09/2016 14:23:06.720"	"1999.2530136177697"	"29.193523360984553"	"1812.011794819731"	"30.20019658032885"	"797.47644352107613"	" "	"2085"	" "	" "	"2839801856"	"44.042091555404603"	"310312960"	"18"
"06/09/2016 14:23:07.715"	"2080.6300830512032"	"30.154059174655117"	"1748.9354321299968"	"29.148923868833279"	"796.24956716690201"	" "	"2085"	" "	" "	"2839789568"	"47.115359003958694"	"310312960"	"18"
"06/09/2016 14:23:08.724"	"2912.3105812291719"	"36.65152772295216"	"2484.3792305179463"	"34.670364062252048"	"789.3957124433133"	" "	"2085"	" "	" "	"2839764992"	"57.26988502039724"	"310312960"	"18"
"06/09/2016 14:23:09.719"	"1995.684012371062"	"29.141408035629809"	"1869.0696188369463"	"31.151160313949106"	"794.48692147660563"	" "	"2084"	" "	" "	"2839666688"	"51.814364444126461"	"310312960"	"18"
"06/09/2016 14:23:10.715"	"2134.1636044470451"	"31.148338859632013"	"1748.3261166374098"	"29.138768610623497"	"803.75570930285937"	" "	"2084"	" "	" "	"2839670784"	"50.234731831428711"	"310312960"	"18"
"06/09/2016 14:23:11.721"	"2145.2421783486743"	"31.781365605165547"	"1847.2918758002475"	"30.788197930004124"	"794.54820747441431"	" "	"2083"	" "	" "	"2839625728"	"20.174075580405052"	"310394880"	"19"
"06/09/2016 14:23:12.713"	"2122.8068874470068"	"31.247394829466863"	"1753.8860323636241"	"29.231433872727067"	"803.35550821365803"	" "	"2082"	" "	" "	"2839412736"	"40.955378850108055"	"310312960"	"18"
"06/09/2016 14:23:13.723"	"2115.2909031772238"	"30.699446628508401"	"1841.9667977105039"	"30.699446628508401"	"792.20737295518904"	" "	"2082"	" "	" "	"2839437312"	"55.702080910911725"	"310312960"	"18"
"06/09/2016 14:23:14.719"	"1995.3046433773734"	"29.135868407826703"	"1808.4332115202781"	"30.140553525337967"	"787.99473260368836"	" "	"2084"	" "	" "	"2843734016"	"32.963923077046722"	"310312960"	"18"
"06/09/2016 14:23:15.713"	"2119.5494079183932"	"31.184637705491305"	"1903.2688560899855"	"31.184637705491305"	"804.75942773154725"	" "	"2082"	" "	" "	"2843561984"	"42.438485446780803"	"310312960"	"18"
"06/09/2016 14:23:16.722"	"2032.552621645204"	"29.715681603000057"	"1842.3722593860036"	"30.70620432310006"	"790.87820700958173"	" "	"2082"	" "	" "	"2843496448"	"30.954137260648988"	"310312960"	"18"
"06/09/2016 14:23:17.716"	"2909.7434704290313"	"36.220873075880057"	"2463.0193691598438"	"34.208602349442273"	"800.18844830977559"	" "	"2081"	" "	" "	"2844782592"	"64.455258115325748"	"310312960"	"18"
"06/09/2016 14:23:18.725"	"2099.1166179288089"	"30.723614332291351"	"1783.9517999394977"	"29.73252999899163"	"791.26774384623491"	" "	"2081"	" "	" "	"2844782592"	"41.808667483069165"	"310312960"	"18"
"06/09/2016 14:23:19.716"	"2058.2067575708188"	"30.267746434864982"	"1755.5292932221689"	"29.258821553702816"	"802.43555997881992"	" "	"2081"	" "	" "	"2844782592"	"33.106378702466053"	"310312960"	"18"
"06/09/2016 14:23:20.724"	"2035.6731332645682"	"29.761303117903044"	"2226.1454732191478"	"35.713563741483654"	"789.03415522685987"	" "	"2082"	" "	" "	"2844815360"	"72.857770718393738"	"310312960"	"18"
"06/09/2016 14:23:21.718"	"2190.652685354497"	"32.185898040102799"	"2722.7258123299462"	"40.232372550128503"	"803.05635895416071"	" "	"2082"	" "	" "	"2844811264"	"55.00386020233978"	"310312960"	"18"
"06/09/2016 14:23:22.714"	"2062.212979618525"	"30.149312567522298"	"1748.6601289162932"	"29.144335481938221"	"800.85911391992897"	" "	"2082"	" "	" "	"2844811264"	"50.249983618505347"	"310312960"	"18"
"06/09/2016 14:23:23.723"	"2032.367563525275"	"29.712976074930921"	"1842.2045166457171"	"30.703408610761951"	"790.80402688924346"	" "	"2082"	" "	" "	"2844844032"	"47.974412590149804"	"310312960"	"18"
"06/09/2016 14:23:24.718"	"2083.4300031903108"	"30.165492324184036"	"1809.9295394510423"	"30.165492324184036"	"787.08424230827973"	" "	"2082"	" "	" "	"2844844032"	"42.417713657332442"	"310312960"	"18"
"06/09/2016 14:23:25.726"	"2442.649285466769"	"32.727335128056588"	"2106.4502973330964"	"31.73559769993366"	"794.99055160703017"	" "	"2082"	" "	" "	"2846158848"	"44.940986348155704"	"310312960"	"18"
"06/09/2016 14:23:26.720"	"2476.7080534382999"	"33.183664540586236"	"2135.8213177031867"	"32.178098948447257"	"799.7582762820241"	" "	"2082"	" "	" "	"2846146560"	"32.995921025388029"	"310312960"	"18"
"06/09/2016 14:23:27.715"	"2064.1551091900646"	"30.177706274708548"	"1750.3069639330959"	"29.171782732218261"	"804.63841862802315"	" "	"2082"	" "	" "	"2846154752"	"26.716509993508581"	"310312960"	"18"
"06/09/2016 14:23:28.721"	"2056.07487542629"	"29.798186600381012"	"1847.4875692236228"	"30.791459487060379"	"791.53671806601915"	" "	"2082"	" "	" "	"2846150656"	"20.17642614678088"	"310312960"	"18"
"06/09/2016 14:23:29.727"	"2039.6578381593604"	"29.819559037417548"	"1848.812660319888"	"30.813544338664801"	"807.60911917428064"	" "	"2084"	" "	" "	"2848088064"	"43.486644878615103"	"310312960"	"18"
"06/09/2016 14:23:30.720"	"2330.6285664310667"	"31.236266994968897"	"1874.176019698134"	"31.236266994968897"	"788.76777558242486"	" "	"2083"	" "	" "	"2846240768"	"48.805990105898545"	"310312960"	"18"
"06/09/2016 14:23:31.727"	"2007.2141112826794"	"29.795360385195636"	"1549.3587400301731"	"25.822645667169553"	"793.01218642777303"	" "	"2082"	" "	" "	"2846208000"	"46.55648843998668"	"310312960"	"18"
"06/09/2016 14:23:32.720"	"1909.4081029812855"	"30.212153528184899"	"906.36460584554698"	"15.10607676409245"	"800.93030525408255"	" "	"2081"	" "	" "	"2846138368"	"39.338423637233923"	"310312960"	"18"
"06/09/2016 14:23:33.727"	"1885.0690075606449"	"29.79561128915666"	"893.86833867469988"	"14.89780564457833"	"797.60168807028208"	" "	"2078"	" "	" "	"2845913088"	"20.172805340298964"	"310312960"	"18"
"06/09/2016 14:23:34.717"	"2328.858408367284"	"33.31266904036427"	"1235.597178951693"	"17.161071929884624"	"799.74557553616205"	" "	"2079"	" "	" "	"2846093312"	"26.815926595887092"	"310312960"	"18"
"06/09/2016 14:23:35.725"	"2297.6712660257049"	"32.73883928274968"	"1214.3133115783517"	"16.86546266081044"	"789.03345070265334"	" "	"2079"	" "	" "	"2845302784"	"34.103606906597982"	"310312960"	"18"
"06/09/2016 14:23:36.719"	"1956.3140424164378"	"30.174509651667424"	"1206.9803860666968"	"20.116339767778282"	"798.38911981962383"	" "	"2079"	" "	" "	"2842640384"	"45.577331643246247"	"310312960"	"18"
"06/09/2016 14:23:37.714"	"2063.4122618433826"	"30.166845933382785"	"1810.0107560029669"	"30.166845933382785"	"804.45935956789276"	" "	"2079"	" "	" "	"2842640384"	"25.139354986496649"	"310312960"	"18"
"06/09/2016 14:23:38.723"	"2050.4790096236006"	"29.717087095994213"	"1783.0252257596528"	"29.717087095994213"	"790.90680179601907"	" "	"2078"	" "	" "	"2842591232"	"38.694070537965708"	"310312960"	"18"
"06/09/2016 14:23:39.718"	"2062.2906686220563"	"30.150448371667487"	"1929.6286957867192"	"32.160478263111983"	"800.80913503769966"	" "	"2078"	" "	" "	"2842558464"	"34.544707785939991"	"310312960"	"18"
"06/09/2016 14:23:40.725"	"2038.4634102876232"	"29.80209664163192"	"1907.3341850644429"	"31.78890308440738"	"791.63257162095454"	" "	"2076"	" "	" "	"2843746304"	"41.909959674050533"	"310312960"	"18"
"06/09/2016 14:23:41.717"	"2225.9149979675235"	"32.245033922571636"	"2086.8582891764331"	"33.252691232652005"	"806.18968252552622"	" "	"2076"	" "	" "	"2843770880"	"39.364730592066707"	"310312960"	"18"
"06/09/2016 14:23:42.727"	"2050.4989503715142"	"29.717376092340785"	"1842.4773177251286"	"30.70795529541881"	"793.97424990141724"	" "	"2076"	" "	" "	"2843770880"	"46.431242684293402"	"310312960"	"18"
"06/09/2016 14:23:43.721"	"2477.5285176786178"	"33.194657362320093"	"2136.528855683875"	"32.188758654371"	"798.45899174974329"	" "	"2076"	" "	" "	"2843774976"	"42.437781057565097"	"310312960"	"18"
"06/09/2016 14:23:44.715"	"2476.8681013476221"	"33.185808909651449"	"2135.9593370939297"	"32.180178336631712"	"796.61332430718585"	" "	"2078"	" "	" "	"2848002048"	"20.425982674543228"	"310312960"	"18"
"06/09/2016 14:23:45.724"	"2053.0036880346665"	"29.75367663818357"	"1870.5144713204738"	"30.745465859456356"	"785.6667020728064"	" "	"2078"	" "	" "	"2848002048"	"54.237346296939293"	"310312960"	"18"
"06/09/2016 14:23:46.716"	"2066.9320851807502"	"30.218305338899857"	"1873.5349310117913"	"31.225582183529852"	"801.15710128529645"	" "	"2078"	" "	" "	"2848002048"	"45.64549300053752"	"310312960"	"18"
"06/09/2016 14:23:47.727"	"2031.8296490354426"	"29.705111828003549"	"1841.7169333362199"	"30.695282222270333"	"788.96116721996668"	" "	"2078"	" "	" "	"2848030720"	"52.597411147997775"	"310312960"	"18"
"06/09/2016 14:23:48.717"	"2070.9712054959741"	"30.277356805496694"	"2058.860262773775"	"34.314337712896254"	"802.69204935575203"	" "	"2078"	" "	" "	"2848010240"	"58.348930896194162"	"310312960"	"18"
"06/09/2016 14:23:49.725"	"2053.8144991293193"	"29.765427523613322"	"1904.9873615112526"	"31.749789358520879"	"792.19728278378386"	" "	"2078"	" "	" "	"2848010240"	"40.307493840270801"	"310312960"	"18"
"06/09/2016 14:23:50.717"	"2068.0057205227804"	"30.234001762028949"	"1934.9761127698528"	"32.249601879497547"	"798.41401151016316"	" "	"2078"	" "	" "	"2848010240"	"50.392994809319958"	"310312960"	"18"
"06/09/2016 14:23:51.727"	"2032.6739158783198"	"29.717454910501754"	"1842.4822044511086"	"30.70803674085181"	"789.34160267819959"	" "	"2078"	" "	" "	"2848006144"	"46.431858981070562"	"310312960"	"18"
"06/09/2016 14:23:52.721"	"2909.3437585014622"	"36.215897408731891"	"2653.8204823398537"	"37.221894558974448"	"801.60575653275373"	" "	"2073"	" "	" "	"2834886656"	"44.009727809641383"	"310312960"	"18"
"06/09/2016 14:23:53.727"	"2039.4190215195447"	"29.816067566075212"	"1788.9640539645129"	"29.816067566075212"	"796.71560096993926"	" "	"2073"	" "	" "	"2834886656"	"32.614088928594001"	"310312960"	"18"
"06/09/2016 14:23:54.722"	"2063.1391544756007"	"30.162853135608199"	"1809.7711881364919"	"30.162853135608199"	"793.25899875521486"	" "	"2073"	" "	" "	"2834919424"	"20.420528680827314"	"310312960"	"18"
"06/09/2016 14:23:55.727"	"2041.0248725347506"	"29.839544920098692"	"1850.051785046119"	"30.834196417435319"	"786.39842303555315"	" "	"2073"	" "	" "	"2835017728"	"35.745382865252409"	"310312960"	"18"
"06/09/2016 14:23:56.717"	"2183.5134218901967"	"32.318422525664339"	"1939.1053515398601"	"32.318422525664339"	"801.73690302796456"	" "	"2073"	" "	" "	"2834984960"	"34.720889501211069"	"310312960"	"18"
"06/09/2016 14:23:57.727"	"2120.53501965742"	"31.708934873381981"	"1870.8271575295369"	"31.708934873381981"	"792.64873781092012"	" "	"2072"	" "	" "	"2832875520"	"29.414699254702114"	"310312960"	"18"
"06/09/2016 14:23:58.718"	"2070.438767019667"	"30.269572617246595"	"1816.1743570347958"	"30.269572617246595"	"802.52657185976182"	" "	"2072"	" "	" "	"2832875520"	"29.956787554686588"	"310312960"	"18"
"06/09/2016 14:23:59.726"	"2052.8065359523403"	"29.750819361628118"	"1844.5508004209432"	"30.742513340349056"	"793.36713341777397"	" "	"2074"	" "	" "	"2836865024"	"54.234081385980645"	"310312960"	"18"
"06/09/2016 14:24:00.720"	"2371.8782774973574"	"32.188339643730039"	"2058.0419659709896"	"34.200110871463167"	"798.38976226442344"	" "	"2074"	" "	" "	"2836815872"	"40.862468147391752"	"310312960"	"18"
"06/09/2016 14:24:01.715"	"3009.9839965330007"	"38.202869695475627"	"2822.9910027604096"	"40.213547047869085"	"802.74438416994872"	" "	"2074"	" "	" "	"2837209088"	"39.27320861888203"	"310312960"	"18"
"06/09/2016 14:24:02.725"	"2031.4355986608955"	"29.699350857615432"	"2375.9480686092347"	"39.599134476820574"	"793.52111571754153"	" "	"2074"	" "	" "	"2837401600"	"55.685692331055549"	"310382592"	"18"
"06/09/2016 14:24:03.719"	"2135.7571064278122"	"31.171596186093304"	"2171.956379418114"	"36.1992729903019"	"798.09787761768564"	" "	"2074"	" "	" "	"2837401600"	"47.131764426241283"	"310382592"	"18"
"06/09/2016 14:24:04.713"	"2065.8140877618903"	"30.201960347396057"	"2234.945065707308"	"37.249084428455134"	"795.94894329189083"	" "	"2075"	" "	" "	"2839564288"	"40.89856230353589"	"310382592"	"18"
"06/09/2016 14:24:05.721"	"2034.8533870254005"	"29.749318523763165"	"2201.4495707584742"	"36.690826179307905"	"788.67133528694922"	" "	"2075"	" "	" "	"2841595904"	"40.285765653164397"	"310382592"	"18"
"06/09/2016 14:24:06.714"	"2085.5205328561665"	"30.224935258785024"	"2055.2955975973819"	"34.254926626623025"	"802.86897893604282"	" "	"2075"	" "	" "	"2842492928"	"37.782069596990247"	"310382592"	"18"
"06/09/2016 14:24:07.723"	"2087.7797892327685"	"30.717215693505374"	"2324.5996134504389"	"38.644239098280956"	"791.15727079415217"	" "	"2075"	" "	" "	"2842525696"	"55.737107140096832"	"310382592"	"18"
"06/09/2016 14:24:08.716"	"2065.2991389574695"	"30.194431856103357"	"2113.6102299272352"	"35.226837165453915"	"803.5837305689364"	" "	"2075"	" "	" "	"2842517504"	"33.023988927490542"	"310382592"	"18"
"06/09/2016 14:24:09.724"	"2037.7465281205743"	"29.762607518800987"	"2083.3825263160693"	"34.723042105267822"	"793.68181653132069"	" "	"2075"	" "	" "	"2842476544"	"54.255592926945752"	"310382592"	"18"
"06/09/2016 14:24:10.719"	"2907.9273638711988"	"36.198265940305383"	"2823.4647433438195"	"40.220295489228199"	"799.7047986360285"	" "	"2075"	" "	" "	"2842476544"	"42.420490300928819"	"310382592"	"18"
"06/09/2016 14:24:11.713"	"2063.7836186707909"	"30.17227512676595"	"2112.0592588736163"	"35.200987647893605"	"803.03188633126706"	" "	"2075"	" "	" "	"2843799552"	"56.573674966586331"	"310382592"	"18"
"06/09/2016 14:24:12.723"	"2032.3585809790086"	"29.712844751155099"	"2198.7505115854774"	"36.645841859757951"	"792.32427931173959"	" "	"2075"	" "	" "	"2842480640"	"60.352825963198917"	"310382592"	"18"
"06/09/2016 14:24:13.718"	"2080.6823458382746"	"30.154816606351808"	"2291.7660620827373"	"38.196101034712292"	"802.5845345484654"	" "	"2075"	" "	" "	"2842480640"	"31.412310549842086"	"310382592"	"18"
"06/09/2016 14:24:14.713"	"2062.3813131913403"	"30.151773584668714"	"2110.6241509268102"	"35.177069182113499"	"791.42014138632885"	" "	"2077"	" "	" "	"2846515200"	"25.12444893289933"	"310382592"	"18"
"06/09/2016 14:24:15.719"	"2038.4588920220426"	"29.802030585117581"	"2111.9705674653328"	"34.769035682637181"	"788.52781682749651"	" "	"2078"	" "	" "	"2846580736"	"29.492182125437861"	"310382592"	"18"
"06/09/2016 14:24:16.727"	"2089.807819225251"	"30.761653559346048"	"1964.7765821775863"	"32.746276369626436"	"790.77198001265833"	" "	"2078"	" "	" "	"2846547968"	"41.864398941846616"	"310382592"	"18"
"06/09/2016 14:24:17.722"	"2135.4514370317197"	"31.167134909596662"	"1870.0280945757997"	"31.167134909596662"	"799.628735991133"	" "	"2078"	" "	" "	"2846552064"	"42.416455543733967"	"310382592"	"18"
"06/09/2016 14:24:18.717"	"2224.4546291335355"	"33.155827805513397"	"2125.9918677717078"	"33.155827805513397"	"802.21102041894858"	" "	"2078"	" "	" "	"2846552064"	"58.085729462820154"	"310382592"	"18"
"06/09/2016 14:24:19.727"	"2846.9598669614238"	"35.661292696802803"	"2722.1453425226141"	"38.633067088203035"	"793.99918139767829"	" "	"2078"	" "	" "	"2846556160"	"32.502890466571628"	"310382592"	"18"
"06/09/2016 14:24:20.721"	"2080.8531514707552"	"30.157292050300796"	"1869.7521071186495"	"31.162535118644158"	"790.05431502473084"	" "	"2078"	" "	" "	"2846547968"	"59.686011870655605"	"310382592"	"18"
"06/09/2016 14:24:21.715"	"2118.7983564554065"	"31.18838986235404"	"2112.7618939014028"	"35.212698231690041"	"803.24750671973902"	" "	"2078"	" "	" "	"2846564352"	"28.294432722026038"	"310382592"	"18"
"06/09/2016 14:24:22.721"	"2039.6831704775759"	"29.819929392947017"	"2147.0349162921852"	"35.783915271536422"	"792.15612595767016"	" "	"2078"	" "	" "	"2846445568"	"41.937677256582539"	"310382592"	"18"
"06/09/2016 14:24:23.716"	"2275.0640730468895"	"33.175923292332016"	"2142.3603798775612"	"34.181254301190563"	"801.12174637754731"	" "	"2078"	" "	" "	"2846437376"	"51.837289471488354"	"310382592"	"18"
"06/09/2016 14:24:24.725"	"2157.7810068017588"	"31.702934902505181"	"1961.6190970925081"	"32.69365161820847"	"781.72150964720504"	" "	"2078"	" "	" "	"2845634560"	"43.342974792320277"	"310382592"	"18"
"06/09/2016 14:24:25.720"	"2062.3424645431023"	"30.15120562197518"	"2351.7940385140641"	"39.196567308567737"	"799.3206936181482"	" "	"2078"	" "	" "	"2845634560"	"42.400115378565815"	"310382592"	"18"
"06/09/2016 14:24:26.715"	"2063.1039797995027"	"30.162338885957642"	"2232.0130775608654"	"37.200217959347754"	"802.71161828270806"	" "	"2078"	" "	" "	"2845638656"	"48.696790933001857"	"310382592"	"18"
"06/09/2016 14:24:27.721"	"2519.0677955203564"	"33.786313628280915"	"2289.5196058693887"	"34.780028734995057"	"795.01754554034414"	" "	"2078"	" "	" "	"2845638656"	"43.47752202173757"	"310382592"	"18"
"06/09/2016 14:24:28.716"	"2530.3227953836449"	"34.179966246739738"	"2497.1481222618095"	"38.201138746356179"	"802.62051735027433"	" "	"2078"	" "	" "	"2846953472"	"43.979206430152026"	"310382592"	"18"
"06/09/2016 14:24:29.722"	"2254.0397251015165"	"33.790718983003337"	"2027.4431389802003"	"33.790718983003337"	"793.50877892148503"	" "	"2078"	" "	" "	"2845646848"	"43.479933091588222"	"310382592"	"18"
"06/09/2016 14:24:30.714"	"2440.5271182422571"	"33.266168897973763"	"1935.4861904275642"	"32.25810317379274"	"803.34830026873544"	" "	"2078"	" "	" "	"2846961664"	"40.955011386249254"	"310382592"	"18"
"06/09/2016 14:24:31.721"	"2056.745842566901"	"29.807910761839143"	"2146.1695748524185"	"35.769492914206971"	"794.8628017125319"	" "	"2078"	" "	" "	"2846961664"	"29.496861782300986"	"310382592"	"18"
"06/09/2016 14:24:32.728"	"2305.0902356562278"	"34.745115524534008"	"1846.4547107323788"	"30.774245178872981"	"805.0051753612106"	" "	"2078"	" "	" "	"2846961664"	"52.736369869520537"	"310382592"	"18"
"06/09/2016 14:24:33.719"	"2233.7476185287869"	"33.294341197583549"	"2058.1956376688013"	"34.303260627813351"	"794.54338877850489"	" "	"2078"	" "	" "	"2846957568"	"39.411874443378217"	"310382592"	"18"
"06/09/2016 14:24:34.728"	"2229.3389164370983"	"30.742662993572086"	"2461.3964370982558"	"36.692855831037654"	"801.09031087435994"	" "	"2078"	" "	" "	"2854051840"	"32.53945169895853"	"310382592"	"18"
"06/09/2016 14:24:35.719"	"2123.4888720207014"	"31.257433538766261"	"2238.4355630987452"	"37.307259384979083"	"792.46207802701986"	" "	"2078"	" "	" "	"2854166528"	"28.35848390553948"	"310382592"	"18"
"06/09/2016 14:24:36.726"	"2500.5377954222031"	"33.777626159854947"	"2408.1460532790702"	"36.758004938665678"	"793.25508520286121"	" "	"2076"	" "	" "	"2851336192"	"43.466032065910206"	"310382592"	"18"
"06/09/2016 14:24:37.720"	"2585.3404605905262"	"35.195222139505411"	"2256.5165280300043"	"34.189644364090974"	"799.74106615382675"	" "	"2076"	" "	" "	"2851336192"	"43.993614641074949"	"310382592"	"18"
"06/09/2016 14:24:38.715"	"2189.6119196081886"	"32.170606716006446"	"1809.5966277753625"	"30.159943796256044"	"801.12529011417166"	" "	"2076"	" "	" "	"2852651008"	"64.404189989570668"	"310382592"	"18"
"06/09/2016 14:24:39.725"	"2032.8841935128773"	"29.720529144925106"	"2139.8780984346076"	"35.664634973910125"	"792.53307042369613"	" "	"2076"	" "	" "	"2852618240"	"49.533316901481008"	"310382592"	"18"
"06/09/2016 14:24:40.718"	"2065.6656077107323"	"30.199789586414216"	"2234.7844293946523"	"37.246407156577533"	"802.16931749547007"	" "	"2076"	" "	" "	"2852622336"	"33.030501308637007"	"310382592"	"18"
"06/09/2016 14:24:41.726"	"2107.5434355510392"	"30.759814737326845"	"2024.1942601337666"	"33.736571002229446"	"796.95220668313573"	" "	"2076"	" "	" "	"2852622336"	"55.817664281309121"	"310382592"	"18"
"06/09/2016 14:24:42.719"	"2065.186904924441"	"30.192791007667267"	"1811.567460460036"	"30.192791007667267"	"798.8290348867132"	" "	"2076"	" "	" "	"2852622336"	"40.884950604438075"	"310382592"	"18"
"06/09/2016 14:24:43.714"	"2697.9562100635844"	"38.197591647696051"	"2042.5659533715361"	"32.166392966480885"	"804.10794626508437"	" "	"2076"	" "	" "	"2852691968"	"59.679886636861731"	"310382592"	"18"
"06/09/2016 14:24:44.720"	"2373.405293926412"	"34.786090991383759"	"1830.7422744608255"	"30.810537735225619"	"782.76474296391405"	" "	"2080"	" "	" "	"2861133824"	"54.358662705827363"	"310382592"	"18"
"06/09/2016 14:24:45.715"	"2963.3393023569915"	"37.205142242011775"	"2614.4154007900165"	"36.199597857092535"	"801.22887772153888"	" "	"2080"	" "	" "	"2861146112"	"40.846962393647082"	"310382592"	"18"
"06/09/2016 14:24:46.722"	"2145.3943115177781"	"31.783619429893008"	"1787.8285929314818"	"29.797143215524695"	"789.99072746443585"	" "	"2080"	" "	" "	"2862473216"	"37.249071628971436"	"310382592"	"18"
"06/09/2016 14:24:47.716"	"2063.5789391489552"	"30.169282736095834"	"1810.1569641657502"	"30.169282736095834"	"798.2349629629033"	" "	"2080"	" "	" "	"2861137920"	"32.997902012246008"	"310382592"	"18"
"06/09/2016 14:24:48.727"	"2131.9916104480194"	"30.654795883065212"	"1857.0873118837571"	"30.654795883065212"	"789.55859774491933"	" "	"2080"	" "	" "	"2862444544"	"58.714729382205341"	"310382592"	"18"
"06/09/2016 14:24:49.722"	"2063.2937521397475"	"30.165113335376422"	"1930.567253464091"	"32.176120891068187"	"796.52217366910736"	" "	"2080"	" "	" "	"2862444544"	"61.270936436085179"	"310382592"	"18"
"06/09/2016 14:24:50.716"	"2063.9058900623431"	"30.174062720209694"	"1810.4437632125816"	"30.174062720209694"	"796.73518476109791"	" "	"2080"	" "	" "	"2862444544"	"55.00144273498703"	"310382592"	"18"
"06/09/2016 14:24:51.723"	"2090.3835753688113"	"30.770128602294946"	"1846.2077161376967"	"30.770128602294946"	"794.14382460857155"	" "	"2080"	" "	" "	"2862444544"	"32.572305306210943"	"310382592"	"18"
"06/09/2016 14:24:52.718"	"2080.4341209806976"	"30.151219144647794"	"1879.4259933497124"	"31.156259782802721"	"800.87778718032735"	" "	"2080"	" "	" "	"2862444544"	"62.813944092574694"	"310382592"	"18"
"06/09/2016 14:24:53.713"	"1996.0590494181977"	"29.146884407415779"	"1809.1169632189103"	"30.15194938698184"	"799.33065527098165"	" "	"2080"	" "	" "	"2862440448"	"51.823009084366198"	"310382592"	"18"
"06/09/2016 14:24:54.723"	"2912.45734843016"	"36.65337479316868"	"2466.6730604051354"	"34.67211129083524"	"783.24526313078172"	" "	"2080"	" "	" "	"2862469120"	"47.985381733308763"	"310382592"	"18"
"06/09/2016 14:24:55.717"	"2081.3358522770104"	"30.16428771415957"	"1809.8572628495742"	"30.16428771415957"	"796.44497626512282"	" "	"2080"	" "	" "	"2862469120"	"53.410511228824809"	"310382592"	"18"
"06/09/2016 14:24:56.724"	"2187.5062981076212"	"31.774943957986327"	"1996.8566343597031"	"31.774943957986327"	"791.33722211960708"	" "	"2080"	" "	" "	"2862465024"	"37.239398687981506"	"310382592"	"18"
"06/09/2016 14:24:57.720"	"2104.2936731907148"	"31.152389622212109"	"1851.0548930359582"	"31.152389622212109"	"800.76672628976814"	" "	"2080"	" "	" "	"2862465024"	"59.664971762767053"	"310382592"	"18"
"06/09/2016 14:24:58.728"	"2034.9254261589931"	"29.750371727470661"	"1785.0223036482396"	"29.750371727470661"	"801.10278352629723"	" "	"2080"	" "	" "	"2861150208"	"63.530394825102867"	"310382592"	"18"
"06/09/2016 14:24:59.722"	"2069.6127956961741"	"30.169282736095834"	"1856.4165310277638"	"31.174925493965695"	"790.37235833988086"	" "	"2072"	" "	" "	"2836803584"	"23.569752236775773"	"310382592"	"18"
"06/09/2016 14:25:00.716"	"2523.9029544123159"	"35.207892947162641"	"2088.3310216659897"	"35.207892947162641"	"801.60107964537315"	" "	"2072"	" "	" "	"2835554304"	"55.011838799192283"	"310382592"	"18"
"06/09/2016 14:25:01.724"	"2202.116852747798"	"32.763686267212506"	"1965.8211760327504"	"32.763686267212506"	"784.96921828533232"	" "	"2072"	" "	" "	"2836865024"	"48.090999539219965"	"310382592"	"18"
"06/09/2016 14:25:02.718"	"1997.3992346938776"	"29.166454081632654"	"2558.6020408163267"	"40.229591836734691"	"803.04602050245944"	" "	"2072"	" "	" "	"2836852736"	"53.43163345808928"	"310382592"	"18"
"06/09/2016 14:25:03.728"	"2929.8897975041737"	"36.648384891025842"	"2606.9878117075677"	"35.657888002079197"	"803.14904247549816"	" "	"2072"	" "	" "	"2836987904"	"29.402373423958505"	"310382592"	"18"
"06/09/2016 14:25:04.719"	"2003.8213469957277"	"29.260231149484444"	"1816.1522782438619"	"30.269204637397699"	"783.59060247263733"	" "	"2075"	" "	" "	"2841079808"	"26.802897871297453"	"310382592"	"18"
"06/09/2016 14:25:05.714"	"2061.5454654274458"	"30.139553588120553"	"1808.3732152872331"	"30.139553588120553"	"803.70661453557659"	" "	"2075"	" "	" "	"2841067520"	"53.371142371503133"	"310382592"	"18"
"06/09/2016 14:25:06.724"	"2115.0385404966405"	"30.695784061514914"	"1782.3358487331241"	"29.705597478885398"	"790.53014318973044"	" "	"2076"	" "	" "	"2845159424"	"49.504823056891141"	"310382592"	"18"
"06/09/2016 14:25:07.714"	"2005.6084349402977"	"29.286326592783805"	"1817.7719954141671"	"30.296199923569453"	"803.19894984877521"	" "	"2075"	" "	" "	"2842853376"	"41.027844196597549"	"310382592"	"18"
"06/09/2016 14:25:08.721"	"2039.007555884278"	"29.810051986612251"	"1788.6031191967352"	"29.810051986612251"	"790.30701151188828"	" "	"2075"	" "	" "	"2842853376"	"27.947988619280924"	"310382592"	"18"
"06/09/2016 14:25:09.715"	"2063.2789393839457"	"30.164896774619088"	"1870.2236000263836"	"31.17039333377306"	"798.0871246703083"	" "	"2075"	" "	" "	"2842861568"	"58.128392938585449"	"310382592"	"18"
"06/09/2016 14:25:10.722"	"2056.6692426584236"	"29.806800618238022"	"1907.6352395672334"	"31.793920659453889"	"791.79578837672102"	" "	"2075"	" "	" "	"2842861568"	"46.576222845689472"	"310382592"	"18"
"06/09/2016 14:25:11.716"	"2117.2024090872387"	"31.164897759593732"	"1809.5747086215715"	"30.159578477026191"	"802.6731258176269"	" "	"2075"	" "	" "	"2842861568"	"50.265244669596996"	"310382592"	"18"
"06/09/2016 14:25:12.724"	"2917.9149537751823"	"36.722058942068621"	"2429.6108186536212"	"33.744594703522516"	"792.44565987654153"	" "	"2075"	" "	" "	"2842857472"	"51.175551420598573"	"310382592"	"18"
"06/09/2016 14:25:13.719"	"2014.5233753108162"	"29.152284373260315"	"1809.4521335127092"	"30.157535558545153"	"804.13130499252964"	" "	"2076"	" "	" "	"2842890240"	"45.546499696842496"	"310382592"	"18"
"06/09/2016 14:25:14.724"	"2105.7886048789837"	"30.821268532223087"	"1789.622043806502"	"29.827034063441697"	"787.65016247405197"	" "	"2076"	" "	" "	"2842988544"	"23.303259244794436"	"310382592"	"18"
"06/09/2016 14:25:15.716"	"2003.0358204709753"	"29.248760721882316"	"1902.1780248782777"	"31.265916633736271"	"803.74711823562632"	" "	"2076"	" "	" "	"2842988544"	"33.095469574408149"	"310382592"	"18"
"06/09/2016 14:25:16.725"	"2033.2770080015848"	"29.726272046806798"	"1783.5763228084079"	"29.726272046806798"	"789.57787915641222"	" "	"2076"	" "	" "	"2842951680"	"60.379484876666822"	"310382592"	"18"
"06/09/2016 14:25:17.720"	"2081.7356270565151"	"30.170081551543699"	"1810.2048930926219"	"30.170081551543699"	"798.2261328626405"	" "	"2077"	" "	" "	"2843049984"	"29.854914418090889"	"310464512"	"19"
"06/09/2016 14:25:18.726"	"2104.6214001477497"	"30.804184799140817"	"1788.6300851114022"	"29.810501418523369"	"798.10039931602614"	" "	"2076"	" "	" "	"2842972160"	"57.450806954655576"	"310382592"	"18"
"06/09/2016 14:25:19.721"	"2062.2703209363171"	"30.150150890881832"	"1809.0090534529099"	"30.150150890881832"	"799.22213483920643"	" "	"2076"	" "	" "	"2841591808"	"50.24579236710138"	"310382592"	"18"
"06/09/2016 14:25:20.727"	"2412.3081654332432"	"31.806288130969833"	"2170.7791649386909"	"32.800234635062637"	"792.0697504449754"	" "	"2076"	" "	" "	"2842906624"	"24.849247072783545"	"310382592"	"18"
"06/09/2016 14:25:21.718"	"2485.7407670454545"	"33.3046875"	"2264.71875"	"34.313920454545453"	"802.6927784824793"	" "	"2076"	" "	" "	"2842914816"	"37.847989555166016"	"310382592"	"18"
"06/09/2016 14:25:22.720"	"2047.7745380734534"	"29.938224240839961"	"1915.0484106057295"	"30.936165048867959"	"796.75467445208983"	" "	"2076"	" "	" "	"2842943488"	"56.13144477548969"	"310382592"	"18"
"06/09/2016 14:25:23.726"	"2122.808920536339"	"30.80855643100492"	"1788.8839218002859"	"29.814732030004762"	"798.15036820011915"	" "	"2076"	" "	" "	"2842943488"	"32.609256288331714"	"310382592"	"18"
"06/09/2016 14:25:24.720"	"1998.201877396752"	"29.178174443356397"	"1811.059103380742"	"30.184318389679031"	"789.22851862096331"	" "	"2077"	" "	" "	"2845110272"	"50.309387641176947"	"310382592"	"18"
"06/09/2016 14:25:25.713"	"2066.2076631492678"	"30.207714373527303"	"1812.4628624116383"	"30.207714373527303"	"802.3963696592624"	" "	"2077"	" "	" "	"2845110272"	"45.626460235526686"	"310382592"	"18"
"06/09/2016 14:25:26.719"	"2040.5448438582348"	"29.832526956991735"	"1789.9516174195041"	"29.832526956991735"	"787.80400097775953"	" "	"2077"	" "	" "	"2845110272"	"49.723329450272793"	"310382592"	"18"
"06/09/2016 14:25:27.714"	"2080.4210581551174"	"30.151029828335034"	"1809.0617897001021"	"30.151029828335034"	"799.25795697883029"	" "	"2077"	" "	" "	"2845114368"	"51.818295835562665"	"310382592"	"18"
"06/09/2016 14:25:28.720"	"2039.4416343344349"	"29.816398162784136"	"1788.9838897670481"	"29.816398162784136"	"793.53724878132562"	" "	"2077"	" "	" "	"2845106176"	"26.399477943801436"	"310382592"	"18"
"06/09/2016 14:25:29.726"	"2516.4889448625213"	"33.80506682154315"	"2111.8224096752251"	"31.816533479099437"	"797.01108847813668"	" "	"2077"	" "	" "	"2843799552"	"41.947952025165094"	"310382592"	"18"
"06/09/2016 14:25:30.720"	"2671.6939820070684"	"33.170015577965856"	"2195.251940069013"	"33.170015577965856"	"797.8687581030797"	" "	"2077"	" "	" "	"2845110272"	"48.688841537786359"	"310382592"	"18"
"06/09/2016 14:25:31.716"	"2079.8100878473169"	"30.142175186193001"	"1929.099211916352"	"32.151653531939203"	"802.15597423415977"	" "	"2077"	" "	" "	"2845122560"	"39.244421440027388"	"310382592"	"18"
"06/09/2016 14:25:32.722"	"2388.5182895414737"	"33.781040700669756"	"2060.6434827408552"	"32.787480680061826"	"793.36519893711545"	" "	"2077"	" "	" "	"2845114368"	"41.919491920356393"	"310382592"	"18"
"06/09/2016 14:25:33.717"	"1997.1670818399139"	"29.163064135628147"	"1810.1212222114023"	"30.168687036856703"	"802.85609882549591"	" "	"2077"	" "	" "	"2845110272"	"42.420968039703311"	"310382592"	"18"
"06/09/2016 14:25:34.723"	"2056.7741130221916"	"29.808320478582488"	"1788.4992287149491"	"29.808320478582488"	"785.64065996100942"	" "	"2077"	" "	" "	"2845118464"	"34.158289563522146"	"310382592"	"18"
"06/09/2016 14:25:35.718"	"2063.4418913964651"	"30.167279113983408"	"1810.0367468390045"	"30.167279113983408"	"801.32515927201723"	" "	"2077"	" "	" "	"2845794304"	"65.991483704754344"	"310382592"	"18"
"06/09/2016 14:25:36.727"	"1994.1161507388144"	"31.699809649101866"	"1052.0374327295683"	"17.831142927619801"	"789.38351364049754"	" "	"2077"	" "	" "	"2844450816"	"51.077756764973373"	"310382592"	"18"
"06/09/2016 14:25:37.721"	"1957.8133661500356"	"31.172169671623575"	"947.23173647320675"	"16.088861765999265"	"793.45586512519822"	" "	"2077"	" "	" "	"2844463104"	"54.991990652241462"	"310382592"	"18"
"06/09/2016 14:25:38.716"	"2258.5933856507277"	"32.193758726424626"	"1231.4112712857418"	"17.102934323413081"	"800.04476478369554"	" "	"2077"	" "	" "	"2844463104"	"33.007740786753651"	"310382592"	"18"
"06/09/2016 14:25:39.721"	"2355.5128492626504"	"33.80643177498105"	"1217.031543899318"	"16.903215887490525"	"792.41489277601022"	" "	"2076"	" "	" "	"2844405760"	"23.306320375765008"	"310382592"	"18"
"06/09/2016 14:25:40.715"	"1845.0285914123406"	"29.174388850031558"	"905.41206775960006"	"15.090201129326669"	"801.6507542030896"	" "	"2076"	" "	" "	"2844389376"	"53.443383613539297"	"310382592"	"18"
"06/09/2016 14:25:41.724"	"2145.047732718002"	"31.705093508995869"	"1783.4115098810178"	"29.723525164683629"	"792.64873781092012"	" "	"2076"	" "	" "	"2844385280"	"49.540546113182508"	"310382592"	"18"
"06/09/2016 14:25:42.719"	"2062.4451391480325"	"30.152706712690531"	"1809.1624027614318"	"30.152706712690531"	"799.31997060462334"	" "	"2076"	" "	" "	"2844385280"	"51.822316365329215"	"310382592"	"18"
"06/09/2016 14:25:43.714"	"2063.9874123727168"	"30.175254566852583"	"1750.1647648774499"	"29.169412747957498"	"804.63008288595063"	" "	"2076"	" "	" "	"2844377088"	"58.147095833555028"	"310382592"	"18"
"06/09/2016 14:25:44.720"	"2038.2772743310738"	"29.799375355717451"	"1847.5612720544821"	"30.792687867574703"	"790.03655686956927"	" "	"2078"	" "	" "	"2848587776"	"29.490559097292373"	"310382592"	"18"
"06/09/2016 14:25:45.713"	"2085.2580286983257"	"30.221130850700376"	"1839.459497779296"	"30.221130850700376"	"804.33075097935057"	" "	"2077"	" "	" "	"2848595968"	"39.350819519537701"	"310382592"	"18"
"06/09/2016 14:25:46.722"	"2033.5638494573536"	"29.730465635341428"	"1843.2888693911684"	"30.721481156519474"	"785.04235847014809"	" "	"2077"	" "	" "	"2848591872"	"52.645838635078967"	"310382592"	"18"
"06/09/2016 14:25:47.715"	"2894.7132737826096"	"36.259456456567136"	"2405.2106116189534"	"33.237835085186539"	"804.17569567649969"	" "	"2077"	" "	" "	"2848608256"	"29.900857569184918"	"310382592"	"18"
"06/09/2016 14:25:48.721"	"2056.908180278293"	"29.810263482294097"	"1848.236335902234"	"30.803938931703904"	"788.7885985937055"	" "	"2077"	" "	" "	"2848608256"	"55.898404624750775"	"310382592"	"18"
"06/09/2016 14:25:49.716"	"2063.9318282807335"	"30.174441933928854"	"1870.815399903589"	"31.180256665059819"	"801.49715393703946"	" "	"2077"	" "	" "	"2848665600"	"53.433143595802633"	"310382592"	"18"
"06/09/2016 14:25:50.725"	"2031.9768961453365"	"29.707264563528309"	"1960.6794611928685"	"32.677991019881141"	"795.31209259596505"	" "	"2079"	" "	" "	"2848821248"	"51.060893104410212"	"310382592"	"18"
"06/09/2016 14:25:51.720"	"2062.5570753644288"	"30.154343207082295"	"1869.5692788391023"	"31.159487980651704"	"778.97706741770105"	" "	"2071"	" "	" "	"2845294592"	"50.256584994690392"	"310382592"	"18"
"06/09/2016 14:25:52.715"	"2080.4266564888508"	"30.151110963606534"	"1879.4192500648073"	"31.156147995726752"	"802.47652484484911"	" "	"2071"	" "	" "	"2845241344"	"47.11212474627294"	"310382592"	"18"
"06/09/2016 14:25:53.725"	"2032.4843438526825"	"29.7146833896591"	"1782.8810033795462"	"29.7146833896591"	"790.82298183708349"	" "	"2071"	" "	" "	"2845245440"	"43.332766128059369"	"310382592"	"18"
"06/09/2016 14:25:54.717"	"2068.0345520795199"	"30.234423276016372"	"1874.5342431130152"	"31.242237385216917"	"795.24369063419238"	" "	"2072"	" "	" "	"2845503488"	"48.816939425069236"	"310382592"	"18"
"06/09/2016 14:25:55.727"	"2050.7010989360774"	"29.720305781682278"	"1783.2183469009367"	"29.720305781682278"	"797.1895338394728"	" "	"2072"	" "	" "	"2845503488"	"54.177929484236017"	"310382592"	"18"
"06/09/2016 14:25:56.720"	"2892.1277694127771"	"36.227070180535833"	"2523.8192225773296"	"35.220762675520945"	"793.96531521800262"	" "	"2072"	" "	" "	"2845454336"	"48.738464894570463"	"310382592"	"18"
"06/09/2016 14:25:57.726"	"2081.8807939086814"	"30.820584819087454"	"1890.9920105130432"	"31.814797232606406"	"796.9934164428746"	" "	"2072"	" "	" "	"2845450240"	"60.590142770510937"	"310382592"	"18"
"06/09/2016 14:25:58.720"	"2156.8356203433232"	"32.191576423034675"	"1810.7761737957003"	"30.179602896595007"	"798.48589971982835"	" "	"2072"	" "	" "	"2845450240"	"44.011033842825178"	"310382592"	"18"
"06/09/2016 14:25:59.715"	"2081.0678649923125"	"30.160403840468298"	"1809.6242304280979"	"30.160403840468298"	"802.72275515612557"	" "	"2071"	" "	" "	"2846695424"	"64.406326734640203"	"310382592"	"18"
"06/09/2016 14:26:00.724"	"2301.7799052519131"	"30.716821809216231"	"1843.0093085529738"	"30.716821809216231"	"791.11768363219312"	" "	"2071"	" "	" "	"2846785536"	"54.18614271453378"	"310382592"	"18"
"06/09/2016 14:26:01.718"	"2090.1374233360148"	"31.18106839432938"	"1689.8127387894631"	"28.163545646491052"	"799.90869537274227"	" "	"2071"	" "	" "	"2845466624"	"59.718134428613368"	"310382592"	"18"
"06/09/2016 14:26:02.725"	"1892.2049781256787"	"29.798503592530373"	"953.55211496097195"	"15.892535249349534"	"794.71309168624805"	" "	"2071"	" "	" "	"2845458432"	"35.700002165593176"	"310382592"	"18"
"06/09/2016 14:26:03.719"	"1906.8390070995194"	"30.17150327689113"	"905.14509830673387"	"15.085751638445565"	"804.5087890573933"	" "	"2071"	" "	" "	"2845450240"	"37.711349487065313"	"310382592"	"18"
"06/09/2016 14:26:04.727"	"1943.6342674132218"	"30.772554795612809"	"893.39675213069438"	"14.889945868844908"	"784.81446911501314"	" "	"2071"	" "	" "	"2845196288"	"21.714234323340285"	"310382592"	"18"
"06/09/2016 14:26:05.718"	"2768.2742542882056"	"37.327313195577119"	"1604.0656211072328"	"20.176926051663308"	"802.3191531645864"	" "	"2066"	" "	" "	"2832502784"	"31.525310536918909"	"310382592"	"18"
"06/09/2016 14:26:06.723"	"1934.1047158075316"	"29.84729499702981"	"1134.1972098871327"	"18.903286831452213"	"792.86066715612185"	" "	"2066"	" "	" "	"2833383424"	"31.092575182593013"	"310382592"	"18"
"06/09/2016 14:26:07.714"	"2070.8089272855577"	"30.274984317040317"	"1816.499059022419"	"30.274984317040317"	"805.77643115733792"	" "	"2066"	" "	" "	"2833403904"	"29.960376109568337"	"310382592"	"18"
"06/09/2016 14:26:08.724"	"2032.2481021541994"	"29.711229563657884"	"1842.0962329467889"	"30.701603882446481"	"787.63268748071926"	" "	"2066"	" "	" "	"2833403904"	"43.327534871237994"	"310382592"	"18"
"06/09/2016 14:26:09.716"	"2085.5458492509488"	"30.225302163057226"	"1873.968734109548"	"31.232812235159134"	"804.42264581163238"	" "	"2066"	" "	" "	"2833735680"	"31.484252282255664"	"310382592"	"18"
"06/09/2016 14:26:10.723"	"2039.0807936624074"	"29.811122714362682"	"2086.7785900053877"	"34.779643166756465"	"791.84708773173861"	" "	"2066"	" "	" "	"2833006592"	"26.394902924391282"	"310382592"	"18"
"06/09/2016 14:26:11.714"	"2069.4575972327793"	"30.255228029718999"	"1996.8450499614539"	"33.280750832690899"	"800.53993960575417"	" "	"2066"	" "	" "	"2833154048"	"28.36558841122751"	"310382592"	"18"
"06/09/2016 14:26:12.721"	"2038.9008732265222"	"29.808492298633364"	"1788.5095379180018"	"29.808492298633364"	"793.28858113528338"	" "	"2066"	" "	" "	"2832879616"	"34.153324432438815"	"310382592"	"18"
"06/09/2016 14:26:13.726"	"2059.6087465584001"	"29.849402124034786"	"1790.9641274420871"	"29.849402124034786"	"794.44841561551141"	" "	"2066"	" "	" "	"2832891904"	"23.320403589496422"	"310382592"	"18"
"06/09/2016 14:26:14.717"	"2899.751941453821"	"36.32257129169713"	"2469.934847835405"	"34.304650664380624"	"791.46310613965488"	" "	"2068"	" "	" "	"2837196800"	"37.838873600302222"	"310382592"	"18"
"06/09/2016 14:26:15.726"	"2098.0495343966518"	"30.707996018081303"	"1868.2348545193981"	"30.707996018081303"	"792.39506757842287"	" "	"2068"	" "	" "	"2837184512"	"40.238812025466785"	"310382592"	"18"
"06/09/2016 14:26:16.718"	"2021.1174515220496"	"29.247707631806108"	"1875.8874550054952"	"31.264790916758255"	"802.13756770860539"	" "	"2068"	" "	" "	"2839429120"	"28.366357993624554"	"310382592"	"18"
"06/09/2016 14:26:17.725"	"2036.3447360554792"	"29.771121872156126"	"1845.8095560736799"	"30.763492601227998"	"795.49896821457799"	" "	"2068"	" "	" "	"2839465984"	"44.969727247997589"	"310382592"	"18"
"06/09/2016 14:26:18.720"	"2063.3613380370803"	"30.166101433290645"	"2127.7156877614334"	"33.18271157661971"	"798.12652680976134"	" "	"2068"	" "	" "	"2839461888"	"40.848995466641327"	"310382592"	"18"
"06/09/2016 14:26:19.715"	"2062.7162122214622"	"30.156669769319624"	"1930.0268652364559"	"32.167114420607597"	"804.14359109620045"	" "	"2069"	" "	" "	"2841567232"	"50.258974443512528"	"310382592"	"18"
"06/09/2016 14:26:20.723"	"2052.7701986878055"	"29.750292734605875"	"2023.0199059531994"	"33.716998432553325"	"791.8080867933229"	" "	"2069"	" "	" "	"2841563136"	"48.035324247735836"	"310382592"	"18"
"06/09/2016 14:26:21.715"	"2122.8727743976219"	"31.248364675368606"	"1995.8632921687044"	"33.264388202811737"	"800.1215277497771"	" "	"2069"	" "	" "	"2841575424"	"29.92580517174363"	"310382592"	"18"
"06/09/2016 14:26:22.722"	"2548.641075623399"	"33.769990869522822"	"2259.6096831813065"	"32.776755843948621"	"793.05472039081928"	" "	"2069"	" "	" "	"2841464832"	"41.90308698738184"	"310382592"	"18"
"06/09/2016 14:26:23.717"	"2494.4321407900939"	"33.178662090315633"	"2135.4993418130425"	"32.173248087578799"	"804.33811720131359"	" "	"2069"	" "	" "	"2841452544"	"48.700159439923283"	"310382592"	"18"
"06/09/2016 14:26:24.727"	"2031.8224667954828"	"29.705006824495364"	"1782.3004094697217"	"29.705006824495364"	"789.02389661908148"	" "	"2069"	" "	" "	"2841432064"	"40.224747670776708"	"310382592"	"18"
"06/09/2016 14:26:25.721"	"2063.6141300225959"	"30.169797222552567"	"1810.1878333531542"	"30.169797222552567"	"799.80991111116919"	" "	"2069"	" "	" "	"2842746880"	"39.28339445536195"	"310382592"	"18"
"06/09/2016 14:26:26.716"	"2062.3267405063293"	"30.150975738396625"	"1869.3604957805908"	"31.156008263009845"	"800.87488954836022"	" "	"2069"	" "	" "	"2842755072"	"40.828915937759547"	"310382592"	"18"
"06/09/2016 14:26:27.724"	"2054.4867213679631"	"29.775169874898019"	"1846.0605322436772"	"30.76767553739462"	"790.85846514059642"	" "	"2069"	" "	" "	"2841493504"	"46.521086184740966"	"310382592"	"18"
"06/09/2016 14:26:28.716"	"2067.2777576970593"	"30.223359030658759"	"1813.4015418395256"	"30.223359030658759"	"804.39006693432077"	" "	"2069"	" "	" "	"2841464832"	"23.612232884569099"	"310382592"	"18"
"06/09/2016 14:26:29.722"	"2039.2128157859374"	"29.813052862367506"	"1908.0353831915204"	"31.800589719858674"	"795.03271509933086"	" "	"2069"	" "	" "	"2841489408"	"24.844772346854089"	"310382592"	"18"
"06/09/2016 14:26:30.714"	"2351.0565879017013"	"31.266732829237554"	"2178.5852551984876"	"36.309754253308128"	"803.77970883278635"	" "	"2069"	" "	" "	"2841456640"	"55.161352566955927"	"310382592"	"18"
"06/09/2016 14:26:31.723"	"2439.6003073712072"	"32.686484020807889"	"2163.2509424680129"	"32.686484020807889"	"792.35472770333604"	" "	"2069"	" "	" "	"2841456640"	"38.689195688639458"	"310382592"	"18"
"06/09/2016 14:26:32.717"	"2479.1944634971628"	"33.21697819545529"	"2319.1490231008784"	"35.230128389119244"	"800.58241379706055"	" "	"2069"	" "	" "	"2841460736"	"42.467043560944276"	"310382592"	"18"
"06/09/2016 14:26:33.726"	"2086.5886989093469"	"30.71426859743103"	"1842.8561158458617"	"30.71426859743103"	"791.01595104253363"	" "	"2069"	" "	" "	"2841460736"	"29.411551995710646"	"310382592"	"18"
"06/09/2016 14:26:34.718"	"2086.5515007820018"	"30.23987682292756"	"2350.6464250355689"	"37.295848081610657"	"800.160808380665"	" "	"2069"	" "	" "	"2841587712"	"47.253591046102265"	"310382592"	"18"
"06/09/2016 14:26:35.727"	"2099.1463262103703"	"30.724049156053574"	"2533.2474078346108"	"40.635032754780532"	"795.93744608065776"	" "	"2069"	" "	" "	"2842288128"	"51.101042258096705"	"310382592"	"18"
"06/09/2016 14:26:36.720"	"2001.0814441185094"	"29.220222497198776"	"2055.4915135960518"	"34.258191893267529"	"801.33727416206"	" "	"2069"	" "	" "	"2842255360"	"56.676113693190885"	"310382592"	"18"
"06/09/2016 14:26:37.713"	"2088.4069068030039"	"30.208393058866982"	"1812.5035835320189"	"30.208393058866982"	"799.23965751158403"	" "	"2069"	" "	" "	"2842255360"	"25.172902598790049"	"310382592"	"18"
"06/09/2016 14:26:38.720"	"2037.8301448394175"	"29.792838374845285"	"1906.7416559900983"	"31.779027599834968"	"792.94996903429501"	" "	"2069"	" "	" "	"2842247168"	"32.586985028806644"	"310382592"	"18"
"06/09/2016 14:26:39.726"	"2038.6531955303894"	"29.804871279684058"	"1788.2922767810435"	"29.804871279684058"	"794.78217553936656"	" "	"2069"	" "	" "	"2842214400"	"20.180016175804226"	"310382592"	"18"
"06/09/2016 14:26:40.717"	"2485.3131941761476"	"33.298958752664582"	"2385.4163179181537"	"36.326136821088639"	"805.7517111580371"	" "	"2069"	" "	" "	"2841698304"	"39.420338119277744"	"310382592"	"18"
"06/09/2016 14:26:41.727"	"2576.0785915824126"	"34.664648483423463"	"2400.7745121090993"	"36.645485539619095"	"795.33532674281548"	" "	"2069"	" "	" "	"2841710592"	"57.251764765533409"	"310382592"	"18"
"06/09/2016 14:26:42.718"	"2785.998267025685"	"39.338860396090411"	"1936.682357961374"	"32.27803929935623"	"800.72850910253044"	" "	"2069"	" "	" "	"2841735168"	"47.287116679283294"	"310382592"	"18"
"06/09/2016 14:26:43.713"	"2156.1774172774194"	"31.176072731156715"	"1870.564363869403"	"31.176072731156715"	"802.90970706837084"	" "	"2069"	" "	" "	"2841726976"	"40.852548696238046"	"310382592"	"18"
"06/09/2016 14:26:44.719"	"2056.6081492026856"	"29.805915205836023"	"2026.8022339968495"	"33.780037233280822"	"788.68796404039949"	" "	"2073"	" "	" "	"2850123776"	"41.918454781674775"	"310382592"	"18"
"06/09/2016 14:26:45.713"	"2064.8261690518666"	"30.18751709140156"	"2018.5386428450508"	"33.206268800541714"	"801.78134055727207"	" "	"2073"	" "	" "	"2850115584"	"44.019367716869837"	"310382592"	"18"
"06/09/2016 14:26:46.722"	"2034.8200706511136"	"29.748831442267743"	"1903.9252123051356"	"31.732086871752259"	"790.20652614650226"	" "	"2073"	" "	" "	"2850111488"	"35.636764904646178"	"310382592"	"18"
"06/09/2016 14:26:47.713"	"2070.3819027375248"	"30.268741268092469"	"1876.661958621733"	"31.277699310362216"	"802.41993457045794"	" "	"2073"	" "	" "	"2850111488"	"39.411588141967478"	"310382592"	"18"
"06/09/2016 14:26:48.719"	"2056.7695532187722"	"29.808254394474961"	"1788.4952636684975"	"29.808254394474961"	"794.94597199385476"	" "	"2073"	" "	" "	"2850107392"	"40.368350140312934"	"310382592"	"18"
"06/09/2016 14:26:49.713"	"2891.1332762025409"	"36.214613063079845"	"2583.3090651663624"	"36.214613063079845"	"801.61801346205232"	" "	"2073"	" "	" "	"2850115584"	"53.441200897470154"	"310382592"	"18"
"06/09/2016 14:26:50.723"	"2032.534653360314"	"29.71541890877652"	"1901.7868101616973"	"31.696446836028286"	"789.31478512511455"	" "	"2073"	" "	" "	"2850115584"	"57.264013822802426"	"310382592"	"18"
"06/09/2016 14:26:51.717"	"2082.2944481403574"	"30.178180407831263"	"1871.0471852855385"	"31.184119754758974"	"803.20096363493326"	" "	"2073"	" "	" "	"2850111488"	"42.439189859380036"	"310382592"	"18"
"06/09/2016 14:26:52.726"	"2032.6748144081348"	"29.717468046902557"	"2030.6936498716748"	"33.679797119822901"	"793.98203591034951"	" "	"2073"	" "	" "	"2850107392"	"55.718037607743831"	"310382592"	"18"
"06/09/2016 14:26:53.719"	"2067.2638170521013"	"30.223155220059962"	"2055.1745549640773"	"34.252909249401291"	"801.24459447968979"	" "	"2073"	" "	" "	"2850103296"	"59.817867564299043"	"310382592"	"18"
"06/09/2016 14:26:54.727"	"2038.0370587331506"	"29.766850906521185"	"2083.6795634564828"	"34.727992724274721"	"787.57189229092387"	" "	"2074"	" "	" "	"2850246656"	"48.060489490194172"	"310464512"	"19"
"06/09/2016 14:26:55.720"	"2084.3238627249307"	"30.207592213404794"	"2054.1162705115262"	"34.235271175192103"	"799.26009912335644"	" "	"2073"	" "	" "	"2850160640"	"50.347092858164189"	"310382592"	"18"
"06/09/2016 14:26:56.714"	"2063.4205950691803"	"30.166967764169307"	"1930.6859369068357"	"32.178098948447257"	"804.40233308852692"	" "	"2073"	" "	" "	"2850103296"	"25.137572909016466"	"310382592"	"18"
"06/09/2016 14:26:57.720"	"2127.6381637996092"	"31.815150112891356"	"2175.3608889689463"	"36.786267318030632"	"787.62118740390713"	" "	"2073"	" "	" "	"2850103296"	"49.711790920956659"	"310382592"	"18"
"06/09/2016 14:26:58.727"	"2873.4800493047674"	"35.769461194665155"	"2491.9391298950054"	"34.7758650503689"	"797.96273964839258"	" "	"2074"	" "	" "	"2850201600"	"23.286850378844143"	"310464512"	"19"
"06/09/2016 14:26:59.717"	"2125.7327669963042"	"31.290463331854429"	"2119.6765482869132"	"35.327942471448551"	"799.68292808494016"	" "	"2073"	" "	" "	"2850119680"	"53.627651982027544"	"310382592"	"18"
"06/09/2016 14:27:00.727"	"2291.0091777546854"	"30.705267838476114"	"2080.0342729290269"	"34.667237882150452"	"797.05277062600464"	" "	"2075"	" "	" "	"2850406400"	"51.073284331375056"	"310464512"	"19"
"06/09/2016 14:27:01.721"	"2165.0506862457682"	"32.1940622490077"	"2112.7353350911308"	"35.212255584852173"	"795.33545375842971"	" "	"2074"	" "	" "	"2850029568"	"42.438848323078268"	"310382592"	"18"
"06/09/2016 14:27:02.727"	"2056.8051202216297"	"29.808769858284489"	"1967.3788106467762"	"32.789646844112937"	"794.93507119388812"	" "	"2075"	" "	" "	"2850111488"	"41.920404144990201"	"310464512"	"19"
"06/09/2016 14:27:03.721"	"2110.399172079824"	"31.18320988297166"	"2112.4109920722735"	"35.206849867871227"	"800.05482497503954"	" "	"2074"	" "	" "	"2850017280"	"62.872677797645551"	"310382592"	"18"
"06/09/2016 14:27:04.716"	"2063.2141360779669"	"30.163949357865015"	"2037.072046634484"	"34.185809272247013"	"787.05773199483372"	" "	"2074"	" "	" "	"2848247808"	"51.84212605953995"	"310382592"	"18"
"06/09/2016 14:27:05.726"	"2193.7954619886968"	"31.693659044531966"	"2449.3255880352358"	"39.617073805664958"	"792.31760922915328"	" "	"2074"	" "	" "	"2849816576"	"54.162336568399148"	"310382592"	"18"
"06/09/2016 14:27:06.718"	"2067.6347022354598"	"30.228577518062277"	"2297.371891372733"	"38.289531522878889"	"799.75359025129842"	" "	"2074"	" "	" "	"2849849344"	"59.824087459742792"	"310407168"	"18"
"06/09/2016 14:27:07.724"	"2857.7747368701303"	"35.796760795868018"	"2613.1635380983653"	"36.791115262419908"	"790.88921479946953"	" "	"2074"	" "	" "	"2849841152"	"55.937154681298431"	"310407168"	"18"
"06/09/2016 14:27:08.718"	"2118.4455011150253"	"31.183195885358874"	"2172.7646165282313"	"36.212743608803855"	"804.71101972276301"	" "	"2074"	" "	" "	"2849767424"	"56.581243574256767"	"310407168"	"18"
"06/09/2016 14:27:09.726"	"2053.772670339406"	"29.76482130926675"	"2143.0671342672063"	"35.717785571120103"	"796.83573491149059"	" "	"2074"	" "	" "	"2849734656"	"48.058186346801961"	"310407168"	"18"
"06/09/2016 14:27:10.718"	"2067.2461591717279"	"30.222897063914154"	"1994.7112062183342"	"33.245186770305565"	"799.67591842590332"	" "	"2074"	" "	" "	"2848423936"	"48.799121006305121"	"310407168"	"18"
"06/09/2016 14:27:11.713"	"2064.059676168315"	"30.176311055092324"	"2112.3417738564626"	"35.205696230941044"	"801.52295144312347"	" "	"2067"	" "	" "	"2830729216"	"47.148408908419029"	"310407168"	"18"
"06/09/2016 14:27:12.721"	"2053.7772168644719"	"29.764887200934378"	"1964.4825552616689"	"32.741375921027817"	"785.93210915679924"	" "	"2067"	" "	" "	"2830729216"	"40.304210725989705"	"310407168"	"18"
"06/09/2016 14:27:13.726"	"2041.2513795563314"	"29.842856426262152"	"1909.9428112807777"	"31.832380188012962"	"800.53249618505072"	" "	"2067"	" "	" "	"2830721024"	"55.959553131382187"	"310407168"	"18"
"06/09/2016 14:27:14.720"	"2063.1391544756007"	"30.162853135608199"	"2051.0740132213577"	"34.184566887022626"	"791.8029740823531"	" "	"2068"	" "	" "	"2833682432"	"39.275941174719897"	"310407168"	"18"
"06/09/2016 14:27:15.714"	"2424.1174907114778"	"32.200813492223865"	"2344.6217324025502"	"35.219639757119857"	"803.38167148263847"	" "	"2067"	" "	" "	"2831953920"	"25.154807717655999"	"310407168"	"18"
"06/09/2016 14:27:16.720"	"2519.2990478885154"	"33.789415237952475"	"2349.3581653682249"	"35.777027899008502"	"788.82081648196754"	" "	"2067"	" "	" "	"2833301504"	"43.478312719478524"	"310407168"	"18"
"06/09/2016 14:27:17.726"	"2040.4144599783194"	"29.83062075991695"	"2028.4822116743528"	"33.808036861239209"	"792.3962180960774"	" "	"2067"	" "	" "	"2834628608"	"41.95038801685115"	"310407168"	"18"
"06/09/2016 14:27:18.717"	"2070.007235902392"	"30.263263682783514"	"1815.7958209670107"	"30.263263682783514"	"799.20911149082497"	" "	"2065"	" "	" "	"2833870848"	"33.103335978909911"	"310407168"	"18"
"06/09/2016 14:27:19.727"	"2050.8035481784505"	"29.721790553310878"	"2021.0817576251397"	"33.684695960418992"	"792.49632777014119"	" "	"2066"	" "	" "	"2835996672"	"35.600420974049314"	"310407168"	"18"
"06/09/2016 14:27:20.719"	"2068.2103489639298"	"30.236993405905405"	"2056.1155516015679"	"34.268592526692792"	"800.03120499666989"	" "	"2066"	" "	" "	"2836000768"	"26.772697805006668"	"310407168"	"18"
"06/09/2016 14:27:21.726"	"2091.4405705784625"	"30.785687411173946"	"2085.4820504343643"	"34.758034173906069"	"792.90327302526555"	" "	"2066"	" "	" "	"2835992576"	"40.343415065864782"	"310407168"	"18"
"06/09/2016 14:27:22.717"	"2069.3830924268245"	"30.254138778169953"	"1875.7566042465371"	"31.262610070775619"	"803.64182489397217"	" "	"2066"	" "	" "	"2835988480"	"37.818438818539867"	"310407168"	"18"
"06/09/2016 14:27:23.724"	"2055.8470649865444"	"29.794884999804992"	"1906.8726399875195"	"31.781210666458659"	"792.97776876428111"	" "	"2066"	" "	" "	"2835988480"	"35.691758672364898"	"310407168"	"18"
"06/09/2016 14:27:24.716"	"2483.957574898403"	"33.280795765995656"	"2263.0941120877046"	"34.289304728601586"	"798.93103720574254"	" "	"2068"	" "	" "	"2840207360"	"17.333809485726167"	"310407168"	"18"
"06/09/2016 14:27:25.722"	"2447.0222420350879"	"32.785925289142469"	"2527.4967859266194"	"38.747002614441094"	"791.69265902329937"	" "	"2068"	" "	" "	"2840207360"	"20.180401112358613"	"310407168"	"18"
"06/09/2016 14:27:26.713"	"2088.6512936612357"	"30.270308603786024"	"1876.7591334347335"	"31.279318890578892"	"807.24779358996818"	" "	"2068"	" "	" "	"2840207360"	"25.226493549686506"	"310407168"	"18"
"06/09/2016 14:27:27.720"	"2039.4597249473986"	"29.816662645429805"	"2027.5330598892267"	"33.792217664820448"	"788.88526015472985"	" "	"2068"	" "	" "	"2838884352"	"41.928940992475802"	"310407168"	"18"
"06/09/2016 14:27:28.727"	"2036.0201478411602"	"29.76637643042632"	"2083.6463501298422"	"34.727439168830706"	"806.17691262123788"	" "	"2068"	" "	" "	"2838974464"	"46.510206497379109"	"310407168"	"18"
"06/09/2016 14:27:29.720"	"2122.7944744214165"	"31.247212111616292"	"1995.78967680646"	"33.263161280107667"	"792.20255468345874"	" "	"2068"	" "	" "	"2838999040"	"48.823616690233038"	"310407168"	"18"
"06/09/2016 14:27:30.714"	"2344.8761958758446"	"31.184539713492569"	"1991.7867300875898"	"33.196445501459827"	"803.16274739172968"	" "	"2068"	" "	" "	"2838999040"	"29.863194130025178"	"310407168"	"18"
"06/09/2016 14:27:31.721"	"2037.4211254825091"	"29.786858559685804"	"2736.4194063498026"	"42.694497268882991"	"794.39049098694477"	" "	"2068"	" "	" "	"2839003136"	"29.479334626468656"	"310407168"	"18"
"06/09/2016 14:27:32.714"	"2065.5913756888508"	"30.198704322936415"	"2448.1082971127121"	"40.264939097248551"	"797.37329697420137"	" "	"2068"	" "	" "	"2839003136"	"50.327308684762215"	"310407168"	"18"
"06/09/2016 14:27:33.721"	"2464.8224226101411"	"32.784820615128844"	"2408.1940960931006"	"36.758738265447491"	"794.82015703659249"	" "	"2068"	" "	" "	"2839011328"	"34.152428622666086"	"310407168"	"18"
"06/09/2016 14:27:34.715"	"2476.4980219437043"	"33.180850476712237"	"2437.2842895621352"	"37.202771746616754"	"787.07711995907425"	" "	"2068"	" "	" "	"2839040000"	"39.275305387179351"	"310407168"	"18"
"06/09/2016 14:27:35.723"	"2036.1797241144777"	"29.76870941687833"	"1845.6599838464565"	"30.760999730774277"	"789.21408492298303"	" "	"2068"	" "	" "	"2839646208"	"41.864008434028577"	"310407168"	"18"
"06/09/2016 14:27:36.715"	"2067.8801731162544"	"30.232166273629449"	"1934.8586415122847"	"32.24764402520475"	"802.98887701067156"	" "	"2068"	" "	" "	"2839605248"	"23.617319912078575"	"310407168"	"18"
"06/09/2016 14:27:37.721"	"2057.6663994794062"	"29.821252166368204"	"2027.8451473130378"	"33.797419121883962"	"792.16533940761985"	" "	"2068"	" "	" "	"2839617536"	"27.958776684974818"	"310407168"	"18"
"06/09/2016 14:27:38.715"	"2064.1847600809629"	"30.178139767265538"	"2528.928112496852"	"40.237519689687389"	"801.6348673518753"	" "	"2068"	" "	" "	"2839617536"	"56.585990636602958"	"310407168"	"18"
"06/09/2016 14:27:39.724"	"2033.6357973122563"	"29.731517504565151"	"2021.7431903104302"	"33.695719838507173"	"794.38971692893358"	" "	"2069"	" "	" "	"2841690112"	"49.552574935138153"	"310407168"	"18"
"06/09/2016 14:27:40.718"	"2186.074988080883"	"31.186527671655487"	"2324.905337070833"	"37.222629801653319"	"798.5277512412265"	" "	"2069"	" "	" "	"2841718784"	"58.16048581875075"	"310407168"	"18"
"06/09/2016 14:27:41.714"	"2115.554807342312"	"31.140645312256254"	"2049.2553689355727"	"34.154256148926216"	"802.01504852696428"	" "	"2069"	" "	" "	"2841690112"	"28.251019321889153"	"310407168"	"18"
"06/09/2016 14:27:42.720"	"2803.0609294735455"	"34.789763309068825"	"2970.0517933570759"	"42.741709208284561"	"790.53207349834815"	" "	"2069"	" "	" "	"2841698304"	"35.721488586369368"	"310407168"	"18"
"06/09/2016 14:27:43.727"	"2091.4136924308209"	"30.785291768924715"	"1906.7019418172729"	"31.778365696954545"	"794.43805970023277"	" "	"2069"	" "	" "	"2841698304"	"29.481099871688322"	"310407168"	"18"
"06/09/2016 14:27:44.718"	"2088.9654512440939"	"30.274861612233245"	"2300.8894825297266"	"38.348158042162112"	"794.71080852111641"	" "	"2071"	" "	" "	"2845941760"	"29.959336035518273"	"310407168"	"18"
"06/09/2016 14:27:45.725"	"2080.0793815721695"	"30.793916346101842"	"2213.1885683585456"	"36.754029187282846"	"791.5754026790637"	" "	"2071"	" "	" "	"2845892608"	"43.459041715713298"	"310407168"	"18"
"06/09/2016 14:27:46.715"	"2071.4096703528371"	"30.283767110421596"	"2301.5663003920413"	"38.359438339867353"	"806.05951819812969"	" "	"2071"	" "	" "	"2845892608"	"44.167644832774229"	"310407168"	"18"
"06/09/2016 14:27:47.725"	"2157.3785099213774"	"31.697021266062482"	"2198.9808503330846"	"36.649680838884741"	"783.09119286987607"	" "	"2071"	" "	" "	"2845904896"	"49.523553699280697"	"310407168"	"18"
"06/09/2016 14:27:48.717"	"2068.6085603427919"	"30.242815209689937"	"2237.9683255170553"	"37.299472091950925"	"804.88584293063889"	" "	"2071"	" "	" "	"2845896704"	"48.828691058414485"	"310407168"	"18"
"06/09/2016 14:27:49.723"	"2039.385555473754"	"29.815578296399913"	"2146.7216373407937"	"35.778693955679898"	"793.58583364741321"	" "	"2071"	" "	" "	"2845904896"	"31.060110905965288"	"310407168"	"18"
"06/09/2016 14:27:50.717"	"2063.4918931968909"	"30.168010134457468"	"2051.424689143108"	"34.190411485718464"	"802.84738008935483"	" "	"2071"	" "	" "	"2845904896"	"37.70711765586011"	"310407168"	"18"
"06/09/2016 14:27:51.724"	"2873.1501038074252"	"35.765353989304046"	"2610.8708412191954"	"36.758836044562493"	"794.78951887217772"	" "	"2071"	" "	" "	"2845921280"	"26.389495743802776"	"310407168"	"18"
"06/09/2016 14:27:52.714"	"2084.7618714504642"	"30.301771387361399"	"1949.4139592535832"	"32.32188947985216"	"808.04146707200721"	" "	"2071"	" "	" "	"2845929472"	"28.407707826750254"	"310407168"	"18"
"06/09/2016 14:27:53.720"	"2039.4271620751379"	"29.816186580045876"	"1908.2359411229361"	"31.803932352048935"	"793.57352912528529"	" "	"2071"	" "	" "	"2845921280"	"23.294721989979021"	"310407168"	"18"
"06/09/2016 14:27:54.727"	"2121.5142827510463"	"30.789767212210876"	"1906.979130562738"	"31.782985509378967"	"789.8891212932009"	" "	"2071"	" "	" "	"2845884416"	"35.692435736235012"	"310407168"	"18"
"06/09/2016 14:27:55.718"	"2003.9548846179305"	"29.262181094622349"	"2300.6128584737571"	"38.343547641229286"	"801.00688204930213"	" "	"2071"	" "	" "	"2845888512"	"45.726770825649133"	"310407168"	"18"
"06/09/2016 14:27:56.727"	"2034.6300981218099"	"29.746054066108332"	"2183.3603684523514"	"36.68680001486694"	"796.31467797951586"	" "	"2071"	" "	" "	"2845896704"	"55.773012465491377"	"310407168"	"18"
"06/09/2016 14:27:57.721"	"2140.6802508301375"	"32.190680463611088"	"2154.7636735329675"	"36.214515521562475"	"785.90143624053326"	" "	"2072"	" "	" "	"2845650944"	"66.015720644204791"	"310161408"	"18"
"06/09/2016 14:27:58.715"	"2081.3629349710122"	"30.164680216971188"	"2278.4388457218906"	"38.208594941496841"	"799.66531822670345"	" "	"2070"	" "	" "	"2845564928"	"64.413119935746238"	"310161408"	"18"
"06/09/2016 14:27:59.726"	"2030.7708169654509"	"29.689631826980275"	"1900.1364369267376"	"31.668940615445628"	"794.83935610020455"	" "	"2071"	" "	" "	"2847666176"	"57.216062598652861"	"310161408"	"18"
"06/09/2016 14:28:00.720"	"3162.7876345075247"	"37.209266288323818"	"2763.5422637922661"	"39.220577979584561"	"795.06200251744917"	" "	"2071"	" "	" "	"2847711232"	"56.56567606843511"	"310161408"	"18"
"06/09/2016 14:28:01.714"	"2065.4206622840193"	"30.196208512924258"	"1992.9497618530011"	"33.215829364216681"	"803.6707629068203"	" "	"2071"	" "	" "	"2847715328"	"62.909648759829381"	"310161408"	"18"
"06/09/2016 14:28:02.723"	"2257.2318916134395"	"33.690028233036408"	"1783.5897299842804"	"29.726495499738007"	"792.73458750551197"	" "	"2074"	" "	" "	"2849177600"	"30.966194824434062"	"310628352"	"18"
